1.0000000000e-01	-5.0000000000e+03	0.0000000000e+00	2.5000000000e+07	0.0000000000e+00	2.5000000000e+03	0.0000000000e+00	2.5000000000e+03	0.0000000000e+00	6.2500000000e+06	0.0000000000e+00	0.0000000000e+00	0.0000000000e+00	0.0000000000e+00	0.0000000000e+00
2.9456611570e-01	-5.0000000000e+03	0.0000000000e+00	2.5000000000e+07	0.0000000000e+00	2.5000000000e+03	0.0000000000e+00	2.5000000000e+03	0.0000000000e+00	6.2500000000e+06	0.0000000000e+00	0.0000000000e+00	0.0000000000e+00	0.0000000000e+00	0.0000000000e+00
4.8008264463e-01	-5.0000000000e+03	0.0000000000e+00	2.5000000000e+07	0.0000000000e+00	2.5000000000e+03	0.0000000000e+00	2.5000000000e+03	0.0000000000e+00	6.2500000000e+06	0.0000000000e+00	0.0000000000e+00	0.0000000000e+00	0.0000000000e+00	0.0000000000e+00
6.5654958678e-01	-4.9999520000e+03	6.1812464607e-01	2.4999520384e+07	6.1763014635e+03	2.4999880000e+03	1.5453116152e-01	2.4999880000e+03	1.5453116152e-01	6.2499400240e+06	7.7234674526e+02	3.5419508630e-04	1.3345025022e-04	1.4534165556e-05	5.8977189192e-06
8.2396694215e-01	-4.9988120000e+03	3.2581085420e+00	2.4988132016e+07	3.2542472521e+04	2.4997000000e+03	8.2866560607e-01	2.4997000000e+03	8.2866560607e-01	6.2485007760e+06	4.1407682668e+03	6.2479421611e-03	6.4687405122e-04	3.3302306954e-04	3.4052987290e-05
9.8233471074e-01	-4.9937040000e+03	7.3079265041e+00	2.4937132992e+07	7.2925995055e+04	2.4984000000e+03	1.8792369546e+00	2.4984000000e+03	1.8792369546e+00	6.2420060880e+06	9.3858464608e+03	2.2115402167e-02	1.2003640668e-03	1.4365775581e-03	8.7594855788e-05
1.1316528926e+00	-4.9813760000e+03	1.1916065484e+01	2.4814248704e+07	1.1863731347e+05	2.4951960000e+03	3.1603119421e+00	2.4951960000e+03	3.1603119421e+00	6.2260130560e+06	1.5764560930e+04	4.4306226795e-02	2.2096236033e-03	3.5267294649e-03	1.5411785505e-04
1.2719214876e+00	-4.9563400000e+03	1.9438267573e+01	2.4565683664e+07	1.9248986794e+05	2.4885000000e+03	5.3301416876e+00	2.4885000000e+03	5.3301416876e+00	6.1926606320e+06	2.6510103412e+04	9.3329724328e-02	3.9120311890e-03	8.9257081595e-03	4.5686228620e-04
1.4031404959e+00	-4.9194320000e+03	2.7232388419e+01	2.4201552064e+07	2.6759716287e+05	2.4782560000e+03	7.8676784609e+00	2.4782560000e+03	7.8676784609e+00	6.1418146400e+06	3.8955770679e+04	1.5052014478e-01	7.0007365246e-03	1.7628587923e-02	8.9693192315e-04
1.5253099174e+00	-4.8658800000e+03	3.6060032251e+01	2.3678087200e+07	3.5035986790e+05	2.4626700000e+03	1.1265256589e+01	2.4626700000e+03	1.1265256589e+01	6.0648703080e+06	5.5402008510e+04	2.2333742942e-01	1.1251037713e-02	3.3246777867e-02	1.9021538433e-03
1.6384297521e+00	-4.7948960000e+03	4.3267508147e+01	2.2992897856e+07	4.1437708205e+05	2.4411860000e+03	1.3930953861e+01	2.4411860000e+03	1.3930953861e+01	5.9595829640e+06	6.7935972397e+04	2.7867216809e-01	1.3432159536e-02	4.7332491065e-02	2.4433326964e-03
1.7425000000e+00	-4.7075280000e+03	5.3586497634e+01	2.2163688512e+07	5.0399960373e+05	2.4126460000e+03	1.8797553884e+01	2.4126460000e+03	1.8797553884e+01	5.8212137160e+06	9.0534169825e+04	3.7791197327e-01	1.7280062898e-02	8.1031778250e-02	3.7541787100e-03
1.8375206612e+00	-4.6062000000e+03	6.4533499615e+01	2.1221238848e+07	5.9384521254e+05	2.3773220000e+03	2.5077743304e+01	2.3773220000e+03	2.5077743304e+01	5.6522881560e+06	1.1893585876e+05	4.9286894205e-01	1.9759383894e-02	1.3676348338e-01	7.0383896806e-03
1.9234917355e+00	-4.4901560000e+03	7.4398755627e+01	2.0167030544e+07	6.6760711666e+05	2.3336480000e+03	3.1609670471e+01	2.3336480000e+03	3.1609670471e+01	5.4469111600e+06	1.4717963011e+05	5.9782789233e-01	2.4992626816e-02	2.0757502152e-01	9.3524419534e-03
2.0004132231e+00	-4.3672440000e+03	8.4773244405e+01	1.9079999472e+07	7.3979807378e+05	2.2795920000e+03	4.4147554208e+01	2.2795920000e+03	4.4147554208e+01	5.1984867440e+06	1.9980952352e+05	7.1763507235e-01	3.5171706565e-02	3.8933106690e-01	2.4737281323e-02
2.0682851240e+00	-4.2300240000e+03	9.5162173490e+01	1.7902149824e+07	8.0428268789e+05	2.2127300000e+03	5.8930330763e+01	2.2127300000e+03	5.8930330763e+01	4.8996433640e+06	2.5782715857e+05	8.4592793780e-01	4.0092874896e-02	6.7095412713e-01	3.9594947824e-02
2.1271074380e+00	-4.0912320000e+03	1.0795209971e+02	1.6749821280e+07	8.8072515170e+05	2.1362240000e+03	7.7812779494e+01	2.1362240000e+03	7.7812779494e+01	4.5695017520e+06	3.2612688049e+05	1.0292214174e+00	5.0881020636e-02	1.1374646557e+00	7.7678923790e-02
2.1768801653e+00	-3.9405200000e+03	1.2815962894e+02	1.5544106336e+07	1.0075382865e+06	2.0260040000e+03	1.2932977296e+02	2.0260040000e+03	1.2932977296e+02	4.1214016720e+06	4.9708805983e+05	1.3850291620e+00	5.8513788910e-02	3.0703507249e+00	2.8292248989e-01
2.2176033058e+00	-3.8028280000e+03	1.3500662652e+02	1.4479709360e+07	1.0220920059e+06	1.8985160000e+03	1.9068553883e+02	1.8985160000e+03	1.9068553883e+02	3.6406876160e+06	6.6770099158e+05	1.4810438935e+00	6.7730768497e-02	6.5520489890e+00	5.1098145295e-01
2.2492768595e+00	-3.6772320000e+03	1.5153129019e+02	1.3544973952e+07	1.1077216023e+06	1.7461580000e+03	2.7202433765e+02	1.7461580000e+03	2.7202433765e+02	3.1229910040e+06	8.3197292744e+05	1.8136116255e+00	8.2454194772e-02	1.3146134985e+01	1.1122873486e+00
2.2719008264e+00	-3.5682680000e+03	1.6282474036e+02	1.2759021904e+07	1.1588771539e+06	1.5679340000e+03	3.9651303917e+02	1.2726100000e+03	9.9847039367e+02	2.6154823960e+06	1.0162497673e+06	2.0525206215e+00	7.9482568870e-02	1.7535029211e+02	1.4414719066e+01
2.2854752066e+00	-3.4653400000e+03	1.6627277298e+02	1.2036200304e+07	1.1546404747e+06	1.3145860000e+03	5.0126715568e+02	-8.8322600000e+02	1.0955664940e+03	1.9791538440e+06	1.1274606317e+06	2.1150212264e+00	7.7496062819e-02	2.0985844405e+02	9.6239164975e+00
2.2900000000e+00	-3.4503880000e+03	1.6163927961e+02	1.1931278480e+07	1.1169125397e+06	1.3106260000e+03	4.6994421338e+02	5.1135800000e+02	1.2955920587e+03	1.9383672280e+06	1.0727576392e+06	1.9908948690e+00	8.2236662946e-02	2.9290484259e+02	8.9113078095e+00
2.2937174211e+00	-3.4291560000e+03	1.6214643731e+02	1.1785376048e+07	1.1150018238e+06	1.2450140000e+03	5.1202437517e+02	-6.2699400000e+02	1.1917489003e+03	1.8119666520e+06	1.1087293416e+06	1.9969191180e+00	9.1800179795e-02	2.4743155594e+02	1.0403219059e+01
2.3048696845e+00	-3.3662440000e+03	1.6557505719e+02	1.1358986352e+07	1.1209862296e+06	1.1408620000e+03	5.1392965340e+02	-3.5718000000e+01	1.2512855821e+03	1.5654256680e+06	1.0640684606e+06	2.0621609352e+00	9.2708780832e-02	2.7145133679e+02	4.9627801464e+00
2.3234567901e+00	-3.2883960000e+03	1.6023162409e+02	1.0839196752e+07	1.0628975571e+06	9.6669200000e+02	5.0010362203e+02	-3.6050400000e+02	1.0273457340e+03	1.1843469520e+06	9.7088468361e+05	1.9004338111e+00	8.3719795872e-02	1.8151984964e+02	5.9420189268e+00
2.3494787380e+00	-3.1819560000e+03	1.5080983280e+02	1.0147564848e+07	9.6426502565e+05	7.6580400000e+02	4.5851975088e+02	5.5560000000e+01	8.9117516099e+02	7.9648588800e+05	7.6867198174e+05	1.6464242652e+00	7.0126296930e-02	1.3507659577e+02	4.2842523193e+00
2.3829355281e+00	-3.0677760000e+03	1.3100189052e+02	9.4283939200e+06	8.0737590057e+05	6.1176400000e+02	3.9311893213e+02	3.3520000000e+01	7.2666883874e+02	5.2864314400e+05	5.6402184750e+05	1.2076915315e+00	5.2855005667e-02	8.8549530170e+01	3.1205343154e+00
2.4238271605e+00	-2.9480400000e+03	1.2520956767e+02	8.7066016000e+06	7.4108168408e+05	4.6123800000e+02	3.2580808809e+02	-1.0022000000e+01	5.6480422744e+02	3.1878525200e+05	3.9100403235e+05	1.0663437213e+00	4.3312019581e-02	5.2592002715e+01	2.0103695294e+00
2.4721536351e+00	-2.8327280000e+03	1.2019716042e+02	8.0387808320e+06	6.8017131309e+05	3.5874800000e+02	2.5609967501e+02	-1.9752000000e+01	4.4048322098e+02	1.9422158400e+05	2.4979225173e+05	9.4463271284e-01	4.4024508503e-02	3.1362361909e+01	1.3402238938e+00
2.5279149520e+00	-2.7035760000e+03	1.1633266744e+02	7.3228429440e+06	6.3135061990e+05	2.9684000000e+02	2.1478154835e+02	-3.4132000000e+01	3.6492073347e+02	1.3419896800e+05	1.7320071213e+05	8.4626023626e-01	3.9606537445e-02	2.1050387707e+01	8.7017862136e-01
2.5911111111e+00	-2.5815600000e+03	1.0931266926e+02	6.6763893440e+06	5.6462359095e+05	2.4104400000e+02	1.8104377070e+02	-5.7120000000e+00	3.0150382686e+02	9.0846280000e+04	1.2387929902e+05	7.1120435083e-01	2.9060076700e-02	1.4019260335e+01	5.6686520398e-01
2.6617421125e+00	-2.4687480000e+03	1.0361057691e+02	6.1054411040e+06	5.1066846670e+05	2.1213600000e+02	1.5821561770e+02	4.3840000000e+00	2.6468787697e+02	7.0008832000e+04	9.5370285931e+04	6.0548266214e-01	2.9182330678e-02	1.0517865306e+01	4.7379778204e-01
2.7398079561e+00	-2.3465760000e+03	1.0456329043e+02	5.5173414720e+06	4.9107342595e+05	1.8627000000e+02	1.3758484178e+02	3.3340000000e+00	2.3162406211e+02	5.3607172000e+04	7.3369797657e+04	5.8202778444e-01	2.8521516612e-02	7.8247902485e+00	3.3962261646e-01
2.8253086420e+00	-2.2425800000e+03	9.7976073155e+01	5.0387547680e+06	4.4065561632e+05	1.6991000000e+02	1.2680610272e+02	1.3878000000e+01	2.1162538226e+02	4.4933116000e+04	6.0935566951e+04	4.8054464499e-01	2.1780130112e-02	6.3342484359e+00	2.5758414771e-01
2.9182441701e+00	-2.1275200000e+03	9.6745818273e+01	4.5356917440e+06	4.1163519094e+05	1.4838400000e+02	1.0943943317e+02	-4.8080000000e+00	1.8437380735e+02	3.3982824000e+04	4.3644645376e+04	4.3918412231e-01	1.8900003412e-02	4.6548136697e+00	2.0584235119e-01
3.0186145405e+00	-2.0265240000e+03	9.2682487383e+01	4.1153809760e+06	3.7465809506e+05	1.3406600000e+02	9.7714419365e+01	-3.2180000000e+00	1.6591993823e+02	2.7512252000e+04	3.8527319937e+04	3.7670858845e-01	1.7399240493e-02	3.6443071624e+00	1.6454466832e-01
3.1264197531e+00	-1.9289880000e+03	9.2852816336e+01	3.7296077280e+06	3.5842293148e+05	1.2065200000e+02	9.5286128803e+01	-1.4400000000e-01	1.5378849816e+02	2.3627272000e+04	3.4717513115e+04	3.5246911616e-01	1.6492853628e-02	3.0229147882e+00	1.3924441910e-01
3.2416598080e+00	-1.8344120000e+03	9.1429697832e+01	3.3734184160e+06	3.3456485991e+05	1.1312400000e+02	8.2217664576e+01	-5.3520000000e+00	1.3978884439e+02	1.9550024000e+04	2.5772377202e+04	3.1788144291e-01	1.3799539731e-02	2.4088129233e+00	9.9945285958e-02
3.3643347051e+00	-1.7393240000e+03	8.9239288851e+01	3.0332036640e+06	3.1070252287e+05	1.0597200000e+02	8.0583999634e+01	1.8400000000e-01	1.3317301978e+02	1.7717352000e+04	2.6208583956e+04	2.8115077811e-01	1.1639241514e-02	2.1064869815e+00	9.3710698472e-02
3.4944444444e+00	-1.6566320000e+03	8.6829326313e+01	2.7519613760e+06	2.8810078853e+05	9.9756000000e+01	7.7407935333e+01	5.0440000000e+00	1.2620515760e+02	1.5937256000e+04	2.3911985118e+04	2.4671869646e-01	1.2578584027e-02	1.8213841218e+00	8.2331898452e-02
3.6319890261e+00	-1.5700040000e+03	8.7607094387e+01	2.4725798880e+06	2.7604421084e+05	9.4092000000e+01	6.9261740699e+01	5.8280000000e+00	1.1672769925e+02	1.3645696000e+04	1.8063031945e+04	2.3249572805e-01	1.2588775916e-02	1.4990937823e+00	6.5573918290e-02
3.7769684499e+00	-1.4975400000e+03	8.4548642052e+01	2.2497673760e+06	2.5340074957e+05	9.3172000000e+01	7.0256005596e+01	2.0480000000e+00	1.1671083547e+02	1.3611992000e+04	1.8553062244e+04	2.0024055434e-01	9.1142291279e-03	1.4411343782e+00	6.0056332910e-02
3.9293827160e+00	-1.4199080000e+03	8.3235326969e+01	2.0230599200e+06	2.3655351361e+05	8.4312000000e+01	6.2575221249e+01	-1.7640000000e+00	1.0501510594e+02	1.1020256000e+04	1.5011685342e+04	1.7930491664e-01	7.5383892719e-03	1.1215139985e+00	4.3733974238e-02
4.0892318244e+00	-1.3576560000e+03	8.2868938239e+01	1.8500902080e+06	2.2566517773e+05	8.0290000000e+01	6.0584605259e+01	-4.7300000000e+00	1.0050391105e+02	1.0113308000e+04	1.4944041423e+04	1.6410641737e-01	6.8425665613e-03	9.8707390858e-01	5.0459895016e-02
4.2565157750e+00	-1.2900400000e+03	8.1538745189e+01	1.6708451200e+06	2.1079233154e+05	7.8288000000e+01	5.7870424588e+01	-1.9200000000e-01	9.7386319528e+01	9.4746480000e+03	1.2838483533e+04	1.4663749484e-01	5.9771845676e-03	8.9036307034e-01	3.5824349337e-02
4.4312345679e+00	-1.2252880000e+03	8.1432649056e+01	1.5079553280e+06	1.9910233428e+05	7.7184000000e+01	5.6692117090e+01	4.0240000000e+00	9.5713742715e+01	9.1681520000e+03	1.2364648218e+04	1.3495007344e-01	5.2254737873e-03	8.2613179544e-01	3.7551262524e-02
4.6133882030e+00	-1.1739080000e+03	7.8731023810e+01	1.3842523680e+06	1.8534467530e+05	7.3292000000e+01	5.4963330537e+01	-2.4240000000e+00	9.1608844575e+01	8.3896640000e+03	1.1353661009e+04	1.1637971144e-01	4.9388093138e-03	7.2690940845e-01	2.9362928934e-02
4.8029766804e+00	-1.1160400000e+03	7.9230119347e+01	1.2518164160e+06	1.7688743924e+05	6.8596000000e+01	5.1727367075e+01	-1.2400000000e+00	8.5931965547e+01	7.3784560000e+03	1.0373305444e+04	1.0873895217e-01	4.6209579420e-03	6.1436220835e-01	2.7911655629e-02
5.0000000000e+00	-1.0708760000e+03	7.8464752223e+01	1.1529259680e+06	1.6769018254e+05	6.7848000000e+01	5.0923335339e+01	-2.8000000000e-01	8.4859098903e+01	7.1939440000e+03	9.9980848983e+03	9.8408969984e-02	4.8332724414e-03	5.7550924800e-01	2.0840728598e-02
