0	0	1
1	0	1
2	0	1
3	0	1
4	0	1
5	0	1
6	0	1
7	0	1
8	0	1
9	0	1
10	0	1
11	0	1
12	0	1
13	0	1
14	0	1
15	0	1
16	0	1
17	0	1
18	0	1
19	0	1
20	0	1
21	0	1
22	0	1
23	0	1
24	0	1
25	0	1
26	0	1
27	0	1
28	0	1
29	0	1
30	0	1
31	0	1
32	0	1
33	0	1
34	0	1
35	0	1
36	0	1
37	0	1
38	0	1
39	0	1
40	0	1
41	0	1
42	0	1
43	0	1
44	0	1
45	0	1
46	0	1
47	0	1
48	0	1
49	0	0
50	0	0
51	0	0
52	0	0
53	0	0
54	0	0
55	0	0
56	0	0
57	0	0
58	0	0
59	0	0
60	0	0
61	0	0
62	0	0
63	0	0
64	0	0
65	0	0
66	0	0
67	0	0
68	0	0
69	0	0
70	0	0
71	0	0
72	0	0
73	0	0
74	0	0
75	0	0
76	0	0
77	0	0
78	0	0
79	0	0
80	0	0
81	0	0
82	0	0
83	0	0
84	0	0
85	0	0
86	0	0
87	0	0
88	0	0
89	0	0
90	0	0
91	0	0
92	0	0
93	0	0
94	0	0
95	0	0
96	0	0
97	0	0
98	0	1
99	0	1

0	1	1
1	1	1
2	1	1
3	1	1
4	1	1
5	1	1
6	1	1
7	1	1
8	1	1
9	1	1
10	1	1
11	1	1
12	1	1
13	1	1
14	1	1
15	1	1
16	1	1
17	1	1
18	1	1
19	1	1
20	1	1
21	1	1
22	1	1
23	1	1
24	1	1
25	1	1
26	1	1
27	1	1
28	1	1
29	1	1
30	1	1
31	1	1
32	1	1
33	1	1
34	1	1
35	1	1
36	1	1
37	1	1
38	1	1
39	1	1
40	1	1
41	1	1
42	1	1
43	1	1
44	1	1
45	1	1
46	1	1
47	1	1
48	1	0
49	1	0
50	1	0
51	1	0
52	1	0
53	1	0
54	1	0
55	1	0
56	1	0
57	1	0
58	1	0
59	1	0
60	1	0
61	1	0
62	1	0
63	1	0
64	1	0
65	1	0
66	1	0
67	1	0
68	1	0
69	1	0
70	1	0
71	1	0
72	1	0
73	1	0
74	1	0
75	1	0
76	1	0
77	1	0
78	1	0
79	1	0
80	1	0
81	1	0
82	1	0
83	1	0
84	1	0
85	1	0
86	1	0
87	1	0
88	1	0
89	1	0
90	1	0
91	1	0
92	1	0
93	1	0
94	1	0
95	1	0
96	1	0
97	1	0
98	1	0
99	1	1

0	2	1
1	2	1
2	2	1
3	2	1
4	2	1
5	2	1
6	2	1
7	2	1
8	2	1
9	2	1
10	2	1
11	2	1
12	2	1
13	2	1
14	2	1
15	2	1
16	2	1
17	2	1
18	2	1
19	2	1
20	2	1
21	2	1
22	2	1
23	2	1
24	2	1
25	2	1
26	2	1
27	2	1
28	2	1
29	2	1
30	2	1
31	2	1
32	2	1
33	2	1
34	2	1
35	2	1
36	2	1
37	2	1
38	2	1
39	2	1
40	2	1
41	2	1
42	2	1
43	2	1
44	2	1
45	2	1
46	2	1
47	2	1
48	2	0
49	2	0
50	2	0
51	2	0
52	2	0
53	2	0
54	2	0
55	2	0
56	2	0
57	2	0
58	2	0
59	2	0
60	2	0
61	2	0
62	2	0
63	2	0
64	2	0
65	2	0
66	2	0
67	2	0
68	2	0
69	2	0
70	2	0
71	2	0
72	2	0
73	2	0
74	2	0
75	2	0
76	2	0
77	2	0
78	2	0
79	2	0
80	2	0
81	2	0
82	2	0
83	2	0
84	2	0
85	2	0
86	2	0
87	2	0
88	2	0
89	2	0
90	2	0
91	2	0
92	2	0
93	2	0
94	2	0
95	2	0
96	2	0
97	2	0
98	2	0
99	2	1

0	3	1
1	3	1
2	3	1
3	3	1
4	3	1
5	3	1
6	3	1
7	3	1
8	3	1
9	3	1
10	3	1
11	3	1
12	3	1
13	3	1
14	3	1
15	3	1
16	3	1
17	3	1
18	3	1
19	3	1
20	3	1
21	3	1
22	3	1
23	3	1
24	3	1
25	3	1
26	3	1
27	3	1
28	3	1
29	3	1
30	3	1
31	3	1
32	3	1
33	3	1
34	3	1
35	3	1
36	3	1
37	3	1
38	3	1
39	3	1
40	3	1
41	3	1
42	3	1
43	3	1
44	3	1
45	3	1
46	3	1
47	3	1
48	3	0
49	3	0
50	3	0
51	3	0
52	3	0
53	3	0
54	3	0
55	3	0
56	3	0
57	3	0
58	3	0
59	3	0
60	3	0
61	3	0
62	3	0
63	3	0
64	3	0
65	3	0
66	3	0
67	3	0
68	3	0
69	3	0
70	3	0
71	3	0
72	3	0
73	3	0
74	3	0
75	3	0
76	3	0
77	3	0
78	3	0
79	3	0
80	3	0
81	3	0
82	3	0
83	3	0
84	3	0
85	3	0
86	3	0
87	3	0
88	3	0
89	3	0
90	3	0
91	3	0
92	3	0
93	3	0
94	3	0
95	3	0
96	3	0
97	3	0
98	3	1
99	3	1

0	4	1
1	4	1
2	4	1
3	4	1
4	4	1
5	4	1
6	4	1
7	4	1
8	4	1
9	4	1
10	4	1
11	4	1
12	4	1
13	4	1
14	4	1
15	4	1
16	4	1
17	4	1
18	4	1
19	4	1
20	4	0
21	4	1
22	4	1
23	4	1
24	4	1
25	4	1
26	4	1
27	4	1
28	4	1
29	4	1
30	4	1
31	4	1
32	4	1
33	4	1
34	4	1
35	4	1
36	4	1
37	4	1
38	4	1
39	4	1
40	4	1
41	4	1
42	4	1
43	4	1
44	4	1
45	4	1
46	4	1
47	4	1
48	4	0
49	4	0
50	4	0
51	4	0
52	4	0
53	4	0
54	4	0
55	4	0
56	4	0
57	4	0
58	4	0
59	4	0
60	4	0
61	4	0
62	4	0
63	4	0
64	4	0
65	4	0
66	4	0
67	4	0
68	4	0
69	4	0
70	4	0
71	4	0
72	4	0
73	4	0
74	4	0
75	4	0
76	4	0
77	4	0
78	4	0
79	4	0
80	4	0
81	4	0
82	4	0
83	4	0
84	4	0
85	4	0
86	4	0
87	4	0
88	4	0
89	4	0
90	4	0
91	4	0
92	4	0
93	4	0
94	4	0
95	4	0
96	4	0
97	4	0
98	4	1
99	4	1

0	5	1
1	5	1
2	5	1
3	5	1
4	5	1
5	5	1
6	5	1
7	5	1
8	5	1
9	5	1
10	5	1
11	5	1
12	5	1
13	5	1
14	5	1
15	5	1
16	5	1
17	5	1
18	5	1
19	5	1
20	5	0
21	5	1
22	5	1
23	5	1
24	5	1
25	5	1
26	5	1
27	5	1
28	5	1
29	5	1
30	5	1
31	5	1
32	5	1
33	5	1
34	5	1
35	5	1
36	5	1
37	5	1
38	5	1
39	5	1
40	5	1
41	5	1
42	5	1
43	5	1
44	5	1
45	5	1
46	5	1
47	5	0
48	5	0
49	5	0
50	5	0
51	5	0
52	5	0
53	5	0
54	5	0
55	5	0
56	5	0
57	5	0
58	5	0
59	5	0
60	5	0
61	5	0
62	5	0
63	5	0
64	5	0
65	5	0
66	5	0
67	5	0
68	5	0
69	5	0
70	5	0
71	5	0
72	5	0
73	5	0
74	5	0
75	5	0
76	5	0
77	5	0
78	5	0
79	5	0
80	5	0
81	5	0
82	5	0
83	5	0
84	5	0
85	5	0
86	5	0
87	5	0
88	5	0
89	5	0
90	5	0
91	5	0
92	5	0
93	5	0
94	5	0
95	5	0
96	5	0
97	5	0
98	5	0
99	5	0

0	6	1
1	6	1
2	6	1
3	6	1
4	6	1
5	6	1
6	6	1
7	6	1
8	6	1
9	6	1
10	6	1
11	6	1
12	6	1
13	6	1
14	6	1
15	6	1
16	6	1
17	6	1
18	6	1
19	6	1
20	6	1
21	6	1
22	6	1
23	6	1
24	6	1
25	6	1
26	6	1
27	6	1
28	6	1
29	6	1
30	6	1
31	6	1
32	6	1
33	6	1
34	6	1
35	6	1
36	6	1
37	6	1
38	6	1
39	6	1
40	6	1
41	6	1
42	6	1
43	6	1
44	6	1
45	6	1
46	6	1
47	6	0
48	6	0
49	6	0
50	6	0
51	6	0
52	6	0
53	6	0
54	6	0
55	6	0
56	6	0
57	6	0
58	6	0
59	6	0
60	6	0
61	6	0
62	6	0
63	6	0
64	6	0
65	6	0
66	6	0
67	6	0
68	6	0
69	6	0
70	6	0
71	6	1
72	6	0
73	6	0
74	6	0
75	6	0
76	6	0
77	6	0
78	6	0
79	6	0
80	6	0
81	6	0
82	6	0
83	6	0
84	6	0
85	6	0
86	6	0
87	6	0
88	6	0
89	6	0
90	6	0
91	6	0
92	6	0
93	6	0
94	6	0
95	6	0
96	6	0
97	6	0
98	6	0
99	6	0

0	7	1
1	7	1
2	7	1
3	7	1
4	7	1
5	7	1
6	7	1
7	7	1
8	7	1
9	7	1
10	7	1
11	7	1
12	7	1
13	7	1
14	7	1
15	7	1
16	7	1
17	7	1
18	7	1
19	7	1
20	7	1
21	7	1
22	7	1
23	7	1
24	7	1
25	7	1
26	7	1
27	7	1
28	7	1
29	7	1
30	7	1
31	7	1
32	7	1
33	7	1
34	7	1
35	7	1
36	7	1
37	7	1
38	7	1
39	7	1
40	7	1
41	7	1
42	7	1
43	7	1
44	7	1
45	7	0
46	7	0
47	7	0
48	7	0
49	7	0
50	7	0
51	7	0
52	7	0
53	7	0
54	7	0
55	7	0
56	7	0
57	7	0
58	7	0
59	7	0
60	7	0
61	7	0
62	7	0
63	7	0
64	7	0
65	7	0
66	7	0
67	7	0
68	7	0
69	7	0
70	7	0
71	7	1
72	7	0
73	7	0
74	7	0
75	7	0
76	7	0
77	7	0
78	7	0
79	7	0
80	7	0
81	7	0
82	7	0
83	7	0
84	7	0
85	7	0
86	7	0
87	7	0
88	7	0
89	7	0
90	7	0
91	7	0
92	7	0
93	7	0
94	7	0
95	7	0
96	7	0
97	7	0
98	7	0
99	7	0

0	8	1
1	8	1
2	8	1
3	8	1
4	8	1
5	8	1
6	8	1
7	8	1
8	8	1
9	8	1
10	8	1
11	8	1
12	8	1
13	8	1
14	8	1
15	8	1
16	8	1
17	8	1
18	8	1
19	8	1
20	8	1
21	8	1
22	8	1
23	8	1
24	8	1
25	8	1
26	8	1
27	8	1
28	8	1
29	8	1
30	8	1
31	8	1
32	8	1
33	8	1
34	8	1
35	8	1
36	8	1
37	8	1
38	8	1
39	8	1
40	8	1
41	8	1
42	8	1
43	8	1
44	8	1
45	8	1
46	8	1
47	8	1
48	8	0
49	8	0
50	8	0
51	8	0
52	8	0
53	8	0
54	8	0
55	8	0
56	8	0
57	8	0
58	8	0
59	8	0
60	8	0
61	8	0
62	8	0
63	8	0
64	8	0
65	8	0
66	8	0
67	8	0
68	8	0
69	8	0
70	8	0
71	8	0
72	8	0
73	8	0
74	8	0
75	8	0
76	8	0
77	8	0
78	8	0
79	8	0
80	8	0
81	8	0
82	8	0
83	8	0
84	8	0
85	8	0
86	8	0
87	8	0
88	8	0
89	8	0
90	8	0
91	8	0
92	8	0
93	8	0
94	8	0
95	8	0
96	8	0
97	8	0
98	8	0
99	8	0

0	9	0
1	9	1
2	9	1
3	9	1
4	9	1
5	9	1
6	9	1
7	9	1
8	9	1
9	9	1
10	9	1
11	9	1
12	9	1
13	9	1
14	9	1
15	9	1
16	9	1
17	9	1
18	9	1
19	9	1
20	9	1
21	9	1
22	9	1
23	9	1
24	9	1
25	9	1
26	9	1
27	9	1
28	9	1
29	9	1
30	9	1
31	9	1
32	9	1
33	9	1
34	9	1
35	9	1
36	9	1
37	9	1
38	9	1
39	9	1
40	9	1
41	9	1
42	9	1
43	9	1
44	9	1
45	9	1
46	9	1
47	9	1
48	9	0
49	9	0
50	9	0
51	9	0
52	9	0
53	9	0
54	9	0
55	9	0
56	9	0
57	9	0
58	9	0
59	9	0
60	9	0
61	9	0
62	9	0
63	9	0
64	9	0
65	9	0
66	9	0
67	9	0
68	9	0
69	9	0
70	9	0
71	9	0
72	9	0
73	9	0
74	9	0
75	9	0
76	9	0
77	9	0
78	9	0
79	9	0
80	9	0
81	9	0
82	9	0
83	9	0
84	9	0
85	9	0
86	9	0
87	9	0
88	9	0
89	9	0
90	9	0
91	9	0
92	9	1
93	9	0
94	9	0
95	9	0
96	9	0
97	9	0
98	9	0
99	9	0

0	10	0
1	10	1
2	10	1
3	10	1
4	10	1
5	10	1
6	10	1
7	10	1
8	10	1
9	10	1
10	10	1
11	10	1
12	10	1
13	10	1
14	10	1
15	10	1
16	10	1
17	10	1
18	10	1
19	10	1
20	10	1
21	10	1
22	10	1
23	10	1
24	10	1
25	10	1
26	10	1
27	10	1
28	10	1
29	10	1
30	10	1
31	10	1
32	10	1
33	10	1
34	10	1
35	10	1
36	10	1
37	10	1
38	10	1
39	10	1
40	10	1
41	10	1
42	10	1
43	10	1
44	10	1
45	10	1
46	10	0
47	10	0
48	10	0
49	10	0
50	10	0
51	10	0
52	10	0
53	10	0
54	10	0
55	10	0
56	10	0
57	10	0
58	10	0
59	10	0
60	10	0
61	10	0
62	10	0
63	10	0
64	10	0
65	10	0
66	10	0
67	10	0
68	10	0
69	10	0
70	10	0
71	10	0
72	10	0
73	10	0
74	10	0
75	10	0
76	10	0
77	10	0
78	10	0
79	10	0
80	10	0
81	10	0
82	10	0
83	10	0
84	10	0
85	10	0
86	10	0
87	10	0
88	10	0
89	10	0
90	10	0
91	10	0
92	10	0
93	10	0
94	10	0
95	10	0
96	10	0
97	10	0
98	10	0
99	10	0

0	11	0
1	11	1
2	11	1
3	11	1
4	11	1
5	11	1
6	11	1
7	11	1
8	11	1
9	11	1
10	11	1
11	11	1
12	11	1
13	11	1
14	11	1
15	11	1
16	11	1
17	11	1
18	11	1
19	11	1
20	11	1
21	11	1
22	11	1
23	11	1
24	11	1
25	11	1
26	11	1
27	11	1
28	11	1
29	11	1
30	11	1
31	11	1
32	11	1
33	11	1
34	11	1
35	11	1
36	11	1
37	11	1
38	11	1
39	11	1
40	11	1
41	11	1
42	11	1
43	11	1
44	11	1
45	11	1
46	11	0
47	11	0
48	11	0
49	11	0
50	11	0
51	11	0
52	11	0
53	11	0
54	11	0
55	11	0
56	11	0
57	11	0
58	11	0
59	11	0
60	11	0
61	11	0
62	11	0
63	11	0
64	11	0
65	11	0
66	11	0
67	11	0
68	11	0
69	11	0
70	11	0
71	11	0
72	11	0
73	11	0
74	11	0
75	11	0
76	11	0
77	11	0
78	11	0
79	11	0
80	11	0
81	11	0
82	11	0
83	11	0
84	11	0
85	11	0
86	11	0
87	11	0
88	11	0
89	11	0
90	11	0
91	11	0
92	11	0
93	11	0
94	11	0
95	11	0
96	11	0
97	11	0
98	11	0
99	11	0

0	12	1
1	12	1
2	12	1
3	12	1
4	12	1
5	12	1
6	12	1
7	12	1
8	12	1
9	12	1
10	12	1
11	12	1
12	12	1
13	12	1
14	12	1
15	12	1
16	12	1
17	12	1
18	12	1
19	12	1
20	12	1
21	12	1
22	12	1
23	12	1
24	12	1
25	12	1
26	12	1
27	12	1
28	12	1
29	12	1
30	12	1
31	12	1
32	12	1
33	12	1
34	12	1
35	12	1
36	12	1
37	12	1
38	12	1
39	12	1
40	12	1
41	12	1
42	12	1
43	12	1
44	12	1
45	12	0
46	12	0
47	12	0
48	12	0
49	12	0
50	12	0
51	12	0
52	12	0
53	12	0
54	12	0
55	12	0
56	12	0
57	12	0
58	12	0
59	12	0
60	12	0
61	12	0
62	12	0
63	12	0
64	12	0
65	12	0
66	12	0
67	12	0
68	12	0
69	12	0
70	12	0
71	12	0
72	12	0
73	12	0
74	12	0
75	12	0
76	12	0
77	12	0
78	12	0
79	12	0
80	12	0
81	12	0
82	12	0
83	12	0
84	12	0
85	12	0
86	12	0
87	12	0
88	12	0
89	12	0
90	12	0
91	12	0
92	12	0
93	12	0
94	12	0
95	12	0
96	12	0
97	12	0
98	12	0
99	12	1

0	13	1
1	13	1
2	13	1
3	13	1
4	13	1
5	13	1
6	13	1
7	13	1
8	13	1
9	13	1
10	13	1
11	13	1
12	13	1
13	13	1
14	13	1
15	13	1
16	13	1
17	13	1
18	13	1
19	13	1
20	13	1
21	13	1
22	13	1
23	13	1
24	13	1
25	13	1
26	13	1
27	13	1
28	13	1
29	13	1
30	13	1
31	13	1
32	13	1
33	13	1
34	13	1
35	13	1
36	13	1
37	13	1
38	13	1
39	13	1
40	13	1
41	13	1
42	13	1
43	13	1
44	13	1
45	13	0
46	13	0
47	13	0
48	13	0
49	13	0
50	13	0
51	13	0
52	13	0
53	13	0
54	13	0
55	13	0
56	13	0
57	13	0
58	13	0
59	13	0
60	13	0
61	13	0
62	13	0
63	13	0
64	13	0
65	13	0
66	13	0
67	13	0
68	13	0
69	13	0
70	13	0
71	13	0
72	13	0
73	13	0
74	13	0
75	13	0
76	13	0
77	13	0
78	13	0
79	13	0
80	13	0
81	13	0
82	13	0
83	13	0
84	13	0
85	13	0
86	13	0
87	13	0
88	13	0
89	13	0
90	13	0
91	13	0
92	13	0
93	13	0
94	13	0
95	13	0
96	13	0
97	13	0
98	13	0
99	13	1

0	14	1
1	14	1
2	14	1
3	14	1
4	14	1
5	14	1
6	14	1
7	14	1
8	14	1
9	14	1
10	14	1
11	14	1
12	14	1
13	14	1
14	14	1
15	14	1
16	14	1
17	14	1
18	14	1
19	14	1
20	14	1
21	14	1
22	14	1
23	14	0
24	14	1
25	14	1
26	14	1
27	14	1
28	14	1
29	14	1
30	14	1
31	14	1
32	14	1
33	14	1
34	14	1
35	14	1
36	14	1
37	14	1
38	14	1
39	14	1
40	14	1
41	14	1
42	14	1
43	14	1
44	14	1
45	14	0
46	14	0
47	14	0
48	14	0
49	14	0
50	14	0
51	14	0
52	14	0
53	14	0
54	14	0
55	14	0
56	14	0
57	14	0
58	14	0
59	14	0
60	14	0
61	14	0
62	14	0
63	14	0
64	14	0
65	14	0
66	14	0
67	14	0
68	14	0
69	14	0
70	14	0
71	14	0
72	14	0
73	14	0
74	14	0
75	14	0
76	14	0
77	14	0
78	14	0
79	14	0
80	14	0
81	14	0
82	14	0
83	14	0
84	14	0
85	14	0
86	14	0
87	14	0
88	14	0
89	14	0
90	14	0
91	14	0
92	14	0
93	14	0
94	14	0
95	14	0
96	14	0
97	14	0
98	14	1
99	14	1

0	15	1
1	15	1
2	15	1
3	15	1
4	15	1
5	15	1
6	15	1
7	15	1
8	15	1
9	15	1
10	15	1
11	15	1
12	15	1
13	15	1
14	15	1
15	15	1
16	15	1
17	15	1
18	15	1
19	15	1
20	15	1
21	15	1
22	15	1
23	15	1
24	15	1
25	15	1
26	15	1
27	15	1
28	15	1
29	15	1
30	15	1
31	15	1
32	15	1
33	15	1
34	15	1
35	15	1
36	15	1
37	15	1
38	15	1
39	15	1
40	15	1
41	15	1
42	15	1
43	15	1
44	15	1
45	15	0
46	15	0
47	15	0
48	15	0
49	15	0
50	15	0
51	15	0
52	15	0
53	15	0
54	15	0
55	15	0
56	15	0
57	15	0
58	15	0
59	15	0
60	15	0
61	15	0
62	15	0
63	15	0
64	15	0
65	15	0
66	15	0
67	15	0
68	15	0
69	15	0
70	15	0
71	15	0
72	15	0
73	15	0
74	15	0
75	15	0
76	15	0
77	15	0
78	15	0
79	15	0
80	15	0
81	15	0
82	15	0
83	15	0
84	15	0
85	15	0
86	15	0
87	15	0
88	15	0
89	15	0
90	15	0
91	15	0
92	15	0
93	15	0
94	15	0
95	15	0
96	15	0
97	15	0
98	15	1
99	15	1

0	16	1
1	16	1
2	16	1
3	16	1
4	16	1
5	16	1
6	16	1
7	16	1
8	16	1
9	16	1
10	16	1
11	16	1
12	16	1
13	16	1
14	16	1
15	16	1
16	16	1
17	16	1
18	16	1
19	16	1
20	16	1
21	16	1
22	16	1
23	16	1
24	16	1
25	16	1
26	16	1
27	16	1
28	16	1
29	16	1
30	16	1
31	16	1
32	16	1
33	16	1
34	16	1
35	16	1
36	16	1
37	16	1
38	16	1
39	16	1
40	16	1
41	16	1
42	16	1
43	16	1
44	16	0
45	16	0
46	16	0
47	16	0
48	16	0
49	16	0
50	16	0
51	16	0
52	16	0
53	16	0
54	16	0
55	16	0
56	16	0
57	16	0
58	16	0
59	16	0
60	16	0
61	16	0
62	16	0
63	16	0
64	16	0
65	16	0
66	16	0
67	16	0
68	16	0
69	16	0
70	16	0
71	16	0
72	16	0
73	16	0
74	16	0
75	16	0
76	16	0
77	16	0
78	16	0
79	16	0
80	16	0
81	16	0
82	16	0
83	16	0
84	16	0
85	16	0
86	16	0
87	16	0
88	16	0
89	16	0
90	16	0
91	16	0
92	16	0
93	16	0
94	16	0
95	16	0
96	16	0
97	16	1
98	16	1
99	16	1

0	17	1
1	17	1
2	17	1
3	17	1
4	17	1
5	17	1
6	17	1
7	17	1
8	17	1
9	17	1
10	17	1
11	17	1
12	17	1
13	17	1
14	17	1
15	17	1
16	17	1
17	17	1
18	17	1
19	17	1
20	17	1
21	17	1
22	17	1
23	17	1
24	17	1
25	17	1
26	17	1
27	17	1
28	17	1
29	17	1
30	17	1
31	17	1
32	17	1
33	17	1
34	17	1
35	17	1
36	17	1
37	17	1
38	17	1
39	17	1
40	17	1
41	17	1
42	17	1
43	17	1
44	17	0
45	17	0
46	17	0
47	17	0
48	17	0
49	17	0
50	17	0
51	17	0
52	17	0
53	17	0
54	17	0
55	17	0
56	17	0
57	17	0
58	17	0
59	17	0
60	17	0
61	17	0
62	17	0
63	17	0
64	17	0
65	17	0
66	17	0
67	17	0
68	17	0
69	17	0
70	17	0
71	17	0
72	17	0
73	17	0
74	17	0
75	17	1
76	17	0
77	17	0
78	17	0
79	17	0
80	17	1
81	17	0
82	17	0
83	17	0
84	17	0
85	17	0
86	17	0
87	17	0
88	17	0
89	17	0
90	17	0
91	17	0
92	17	0
93	17	0
94	17	0
95	17	0
96	17	0
97	17	1
98	17	1
99	17	1

0	18	1
1	18	1
2	18	1
3	18	1
4	18	1
5	18	1
6	18	1
7	18	1
8	18	1
9	18	1
10	18	1
11	18	1
12	18	1
13	18	1
14	18	1
15	18	1
16	18	1
17	18	1
18	18	1
19	18	1
20	18	1
21	18	1
22	18	1
23	18	1
24	18	1
25	18	1
26	18	1
27	18	1
28	18	1
29	18	1
30	18	1
31	18	1
32	18	1
33	18	1
34	18	1
35	18	1
36	18	1
37	18	1
38	18	1
39	18	1
40	18	1
41	18	1
42	18	1
43	18	1
44	18	0
45	18	0
46	18	0
47	18	0
48	18	0
49	18	0
50	18	0
51	18	0
52	18	0
53	18	0
54	18	0
55	18	0
56	18	0
57	18	0
58	18	0
59	18	0
60	18	0
61	18	0
62	18	0
63	18	0
64	18	0
65	18	0
66	18	0
67	18	0
68	18	0
69	18	0
70	18	0
71	18	0
72	18	0
73	18	0
74	18	0
75	18	0
76	18	0
77	18	0
78	18	0
79	18	0
80	18	0
81	18	0
82	18	0
83	18	0
84	18	0
85	18	0
86	18	0
87	18	0
88	18	0
89	18	0
90	18	0
91	18	0
92	18	0
93	18	0
94	18	0
95	18	0
96	18	0
97	18	1
98	18	1
99	18	1

0	19	1
1	19	1
2	19	1
3	19	1
4	19	1
5	19	1
6	19	1
7	19	0
8	19	1
9	19	1
10	19	1
11	19	1
12	19	1
13	19	1
14	19	1
15	19	1
16	19	1
17	19	1
18	19	1
19	19	1
20	19	1
21	19	1
22	19	1
23	19	1
24	19	1
25	19	1
26	19	1
27	19	1
28	19	1
29	19	1
30	19	1
31	19	1
32	19	1
33	19	1
34	19	1
35	19	1
36	19	1
37	19	1
38	19	1
39	19	1
40	19	1
41	19	1
42	19	1
43	19	1
44	19	0
45	19	0
46	19	0
47	19	0
48	19	0
49	19	0
50	19	0
51	19	0
52	19	0
53	19	0
54	19	0
55	19	0
56	19	0
57	19	0
58	19	0
59	19	0
60	19	0
61	19	0
62	19	0
63	19	0
64	19	0
65	19	0
66	19	0
67	19	0
68	19	0
69	19	0
70	19	0
71	19	0
72	19	0
73	19	0
74	19	0
75	19	0
76	19	0
77	19	0
78	19	0
79	19	0
80	19	0
81	19	0
82	19	0
83	19	0
84	19	0
85	19	0
86	19	0
87	19	0
88	19	0
89	19	0
90	19	0
91	19	0
92	19	0
93	19	0
94	19	0
95	19	0
96	19	1
97	19	1
98	19	1
99	19	1

0	20	1
1	20	1
2	20	1
3	20	1
4	20	1
5	20	1
6	20	1
7	20	1
8	20	1
9	20	1
10	20	1
11	20	1
12	20	1
13	20	1
14	20	1
15	20	1
16	20	1
17	20	1
18	20	1
19	20	1
20	20	1
21	20	1
22	20	1
23	20	1
24	20	1
25	20	1
26	20	1
27	20	1
28	20	1
29	20	1
30	20	1
31	20	1
32	20	1
33	20	1
34	20	1
35	20	1
36	20	1
37	20	1
38	20	1
39	20	1
40	20	1
41	20	1
42	20	1
43	20	1
44	20	0
45	20	0
46	20	0
47	20	0
48	20	0
49	20	0
50	20	0
51	20	0
52	20	0
53	20	0
54	20	0
55	20	0
56	20	0
57	20	0
58	20	0
59	20	0
60	20	0
61	20	0
62	20	0
63	20	0
64	20	0
65	20	0
66	20	0
67	20	0
68	20	0
69	20	0
70	20	0
71	20	0
72	20	0
73	20	0
74	20	0
75	20	0
76	20	0
77	20	0
78	20	0
79	20	0
80	20	0
81	20	0
82	20	0
83	20	0
84	20	0
85	20	0
86	20	0
87	20	0
88	20	0
89	20	0
90	20	0
91	20	0
92	20	0
93	20	0
94	20	0
95	20	1
96	20	1
97	20	1
98	20	1
99	20	1

0	21	1
1	21	1
2	21	1
3	21	1
4	21	1
5	21	1
6	21	1
7	21	1
8	21	1
9	21	1
10	21	1
11	21	1
12	21	1
13	21	1
14	21	1
15	21	1
16	21	1
17	21	1
18	21	1
19	21	1
20	21	1
21	21	1
22	21	1
23	21	1
24	21	1
25	21	1
26	21	1
27	21	1
28	21	1
29	21	1
30	21	1
31	21	1
32	21	1
33	21	1
34	21	1
35	21	1
36	21	1
37	21	1
38	21	1
39	21	1
40	21	1
41	21	1
42	21	1
43	21	1
44	21	0
45	21	0
46	21	0
47	21	0
48	21	0
49	21	0
50	21	0
51	21	0
52	21	0
53	21	0
54	21	0
55	21	0
56	21	0
57	21	0
58	21	0
59	21	0
60	21	0
61	21	0
62	21	0
63	21	0
64	21	0
65	21	0
66	21	0
67	21	0
68	21	0
69	21	0
70	21	0
71	21	0
72	21	0
73	21	0
74	21	0
75	21	0
76	21	0
77	21	0
78	21	0
79	21	0
80	21	0
81	21	0
82	21	0
83	21	0
84	21	0
85	21	0
86	21	0
87	21	0
88	21	0
89	21	0
90	21	0
91	21	0
92	21	0
93	21	0
94	21	0
95	21	0
96	21	1
97	21	1
98	21	1
99	21	1

0	22	1
1	22	1
2	22	1
3	22	1
4	22	1
5	22	1
6	22	1
7	22	1
8	22	1
9	22	1
10	22	1
11	22	1
12	22	1
13	22	1
14	22	1
15	22	1
16	22	1
17	22	1
18	22	1
19	22	1
20	22	1
21	22	1
22	22	1
23	22	1
24	22	1
25	22	1
26	22	1
27	22	1
28	22	1
29	22	1
30	22	1
31	22	1
32	22	1
33	22	1
34	22	1
35	22	1
36	22	1
37	22	1
38	22	1
39	22	1
40	22	1
41	22	1
42	22	1
43	22	1
44	22	0
45	22	0
46	22	0
47	22	0
48	22	0
49	22	0
50	22	0
51	22	0
52	22	0
53	22	0
54	22	0
55	22	0
56	22	0
57	22	0
58	22	0
59	22	0
60	22	0
61	22	0
62	22	0
63	22	0
64	22	0
65	22	0
66	22	0
67	22	0
68	22	0
69	22	0
70	22	0
71	22	0
72	22	0
73	22	0
74	22	0
75	22	0
76	22	0
77	22	0
78	22	0
79	22	0
80	22	0
81	22	0
82	22	0
83	22	0
84	22	0
85	22	0
86	22	0
87	22	0
88	22	0
89	22	0
90	22	0
91	22	0
92	22	0
93	22	0
94	22	0
95	22	1
96	22	1
97	22	1
98	22	1
99	22	1

0	23	1
1	23	1
2	23	1
3	23	1
4	23	1
5	23	1
6	23	1
7	23	1
8	23	1
9	23	1
10	23	1
11	23	1
12	23	1
13	23	1
14	23	1
15	23	1
16	23	1
17	23	1
18	23	1
19	23	1
20	23	1
21	23	1
22	23	1
23	23	1
24	23	1
25	23	1
26	23	1
27	23	1
28	23	1
29	23	1
30	23	1
31	23	1
32	23	1
33	23	1
34	23	1
35	23	1
36	23	1
37	23	1
38	23	1
39	23	1
40	23	1
41	23	1
42	23	1
43	23	1
44	23	0
45	23	0
46	23	0
47	23	0
48	23	0
49	23	0
50	23	0
51	23	0
52	23	0
53	23	0
54	23	0
55	23	0
56	23	0
57	23	0
58	23	0
59	23	0
60	23	0
61	23	0
62	23	0
63	23	0
64	23	0
65	23	0
66	23	0
67	23	0
68	23	0
69	23	0
70	23	0
71	23	0
72	23	0
73	23	0
74	23	0
75	23	0
76	23	0
77	23	0
78	23	0
79	23	0
80	23	0
81	23	0
82	23	0
83	23	0
84	23	0
85	23	0
86	23	0
87	23	0
88	23	0
89	23	0
90	23	0
91	23	0
92	23	1
93	23	1
94	23	1
95	23	1
96	23	1
97	23	1
98	23	1
99	23	1

0	24	1
1	24	1
2	24	1
3	24	1
4	24	1
5	24	1
6	24	1
7	24	1
8	24	1
9	24	1
10	24	1
11	24	1
12	24	1
13	24	1
14	24	1
15	24	1
16	24	1
17	24	1
18	24	1
19	24	1
20	24	1
21	24	1
22	24	1
23	24	1
24	24	1
25	24	1
26	24	1
27	24	1
28	24	1
29	24	1
30	24	1
31	24	1
32	24	1
33	24	1
34	24	1
35	24	1
36	24	1
37	24	1
38	24	1
39	24	1
40	24	1
41	24	1
42	24	1
43	24	0
44	24	0
45	24	0
46	24	0
47	24	0
48	24	0
49	24	0
50	24	0
51	24	0
52	24	0
53	24	0
54	24	0
55	24	0
56	24	0
57	24	0
58	24	0
59	24	0
60	24	0
61	24	0
62	24	0
63	24	0
64	24	0
65	24	0
66	24	0
67	24	0
68	24	0
69	24	0
70	24	0
71	24	0
72	24	0
73	24	0
74	24	0
75	24	0
76	24	0
77	24	0
78	24	0
79	24	0
80	24	0
81	24	0
82	24	0
83	24	0
84	24	0
85	24	0
86	24	0
87	24	0
88	24	0
89	24	0
90	24	0
91	24	1
92	24	1
93	24	1
94	24	1
95	24	1
96	24	1
97	24	1
98	24	1
99	24	1

0	25	1
1	25	1
2	25	0
3	25	1
4	25	1
5	25	1
6	25	1
7	25	1
8	25	1
9	25	1
10	25	1
11	25	1
12	25	1
13	25	1
14	25	1
15	25	1
16	25	1
17	25	1
18	25	1
19	25	1
20	25	1
21	25	1
22	25	1
23	25	1
24	25	1
25	25	1
26	25	1
27	25	1
28	25	1
29	25	1
30	25	1
31	25	1
32	25	1
33	25	1
34	25	1
35	25	1
36	25	1
37	25	1
38	25	1
39	25	1
40	25	1
41	25	1
42	25	1
43	25	0
44	25	0
45	25	0
46	25	0
47	25	0
48	25	0
49	25	0
50	25	0
51	25	0
52	25	0
53	25	0
54	25	0
55	25	0
56	25	0
57	25	0
58	25	0
59	25	0
60	25	0
61	25	0
62	25	0
63	25	0
64	25	0
65	25	0
66	25	0
67	25	0
68	25	0
69	25	0
70	25	0
71	25	0
72	25	0
73	25	0
74	25	0
75	25	0
76	25	0
77	25	0
78	25	0
79	25	0
80	25	0
81	25	0
82	25	0
83	25	0
84	25	0
85	25	0
86	25	0
87	25	0
88	25	0
89	25	1
90	25	1
91	25	1
92	25	1
93	25	1
94	25	1
95	25	1
96	25	1
97	25	1
98	25	1
99	25	1

0	26	1
1	26	1
2	26	1
3	26	1
4	26	0
5	26	1
6	26	1
7	26	1
8	26	1
9	26	1
10	26	1
11	26	1
12	26	1
13	26	1
14	26	1
15	26	1
16	26	1
17	26	1
18	26	1
19	26	1
20	26	1
21	26	1
22	26	1
23	26	1
24	26	1
25	26	1
26	26	1
27	26	1
28	26	1
29	26	1
30	26	1
31	26	1
32	26	1
33	26	1
34	26	1
35	26	1
36	26	1
37	26	1
38	26	1
39	26	1
40	26	1
41	26	1
42	26	0
43	26	0
44	26	0
45	26	0
46	26	0
47	26	0
48	26	0
49	26	0
50	26	0
51	26	0
52	26	0
53	26	0
54	26	0
55	26	0
56	26	0
57	26	0
58	26	0
59	26	0
60	26	0
61	26	0
62	26	0
63	26	0
64	26	0
65	26	0
66	26	0
67	26	0
68	26	0
69	26	0
70	26	0
71	26	0
72	26	0
73	26	0
74	26	0
75	26	0
76	26	0
77	26	0
78	26	0
79	26	0
80	26	0
81	26	0
82	26	0
83	26	0
84	26	0
85	26	0
86	26	0
87	26	0
88	26	0
89	26	1
90	26	1
91	26	1
92	26	1
93	26	1
94	26	1
95	26	1
96	26	1
97	26	1
98	26	1
99	26	1

0	27	1
1	27	1
2	27	1
3	27	1
4	27	1
5	27	1
6	27	1
7	27	1
8	27	1
9	27	1
10	27	1
11	27	1
12	27	1
13	27	1
14	27	1
15	27	1
16	27	1
17	27	1
18	27	1
19	27	1
20	27	1
21	27	1
22	27	1
23	27	1
24	27	1
25	27	1
26	27	1
27	27	1
28	27	1
29	27	1
30	27	1
31	27	1
32	27	1
33	27	1
34	27	1
35	27	1
36	27	1
37	27	1
38	27	1
39	27	1
40	27	1
41	27	1
42	27	0
43	27	0
44	27	0
45	27	0
46	27	0
47	27	0
48	27	0
49	27	0
50	27	0
51	27	0
52	27	0
53	27	0
54	27	0
55	27	0
56	27	0
57	27	0
58	27	0
59	27	0
60	27	0
61	27	0
62	27	0
63	27	0
64	27	0
65	27	0
66	27	0
67	27	0
68	27	0
69	27	0
70	27	0
71	27	0
72	27	0
73	27	0
74	27	0
75	27	0
76	27	0
77	27	0
78	27	0
79	27	0
80	27	0
81	27	0
82	27	0
83	27	0
84	27	0
85	27	0
86	27	0
87	27	0
88	27	0
89	27	0
90	27	0
91	27	1
92	27	1
93	27	1
94	27	1
95	27	1
96	27	1
97	27	1
98	27	1
99	27	1

0	28	1
1	28	1
2	28	1
3	28	1
4	28	1
5	28	1
6	28	1
7	28	1
8	28	1
9	28	1
10	28	1
11	28	1
12	28	1
13	28	1
14	28	1
15	28	1
16	28	1
17	28	1
18	28	1
19	28	1
20	28	1
21	28	1
22	28	1
23	28	1
24	28	1
25	28	1
26	28	1
27	28	1
28	28	1
29	28	1
30	28	1
31	28	1
32	28	1
33	28	1
34	28	1
35	28	1
36	28	1
37	28	1
38	28	1
39	28	0
40	28	0
41	28	0
42	28	0
43	28	0
44	28	0
45	28	0
46	28	0
47	28	0
48	28	0
49	28	0
50	28	0
51	28	0
52	28	0
53	28	0
54	28	0
55	28	0
56	28	0
57	28	0
58	28	0
59	28	0
60	28	0
61	28	0
62	28	0
63	28	0
64	28	0
65	28	0
66	28	0
67	28	0
68	28	0
69	28	0
70	28	0
71	28	0
72	28	0
73	28	0
74	28	0
75	28	0
76	28	0
77	28	0
78	28	0
79	28	0
80	28	0
81	28	0
82	28	0
83	28	0
84	28	0
85	28	0
86	28	0
87	28	0
88	28	1
89	28	1
90	28	1
91	28	1
92	28	1
93	28	1
94	28	1
95	28	1
96	28	1
97	28	1
98	28	1
99	28	1

0	29	1
1	29	1
2	29	1
3	29	1
4	29	0
5	29	1
6	29	1
7	29	1
8	29	1
9	29	1
10	29	1
11	29	1
12	29	1
13	29	1
14	29	1
15	29	1
16	29	1
17	29	1
18	29	1
19	29	1
20	29	1
21	29	1
22	29	1
23	29	1
24	29	1
25	29	1
26	29	1
27	29	1
28	29	1
29	29	1
30	29	1
31	29	1
32	29	1
33	29	1
34	29	1
35	29	1
36	29	1
37	29	1
38	29	1
39	29	1
40	29	0
41	29	0
42	29	0
43	29	0
44	29	0
45	29	0
46	29	0
47	29	0
48	29	0
49	29	0
50	29	0
51	29	0
52	29	0
53	29	0
54	29	0
55	29	0
56	29	0
57	29	0
58	29	0
59	29	0
60	29	0
61	29	0
62	29	0
63	29	0
64	29	0
65	29	0
66	29	0
67	29	0
68	29	0
69	29	0
70	29	0
71	29	0
72	29	0
73	29	0
74	29	0
75	29	0
76	29	0
77	29	0
78	29	0
79	29	0
80	29	0
81	29	0
82	29	0
83	29	0
84	29	0
85	29	0
86	29	0
87	29	0
88	29	1
89	29	1
90	29	1
91	29	1
92	29	1
93	29	1
94	29	1
95	29	1
96	29	1
97	29	1
98	29	1
99	29	1

0	30	1
1	30	1
2	30	1
3	30	1
4	30	1
5	30	1
6	30	1
7	30	1
8	30	1
9	30	1
10	30	1
11	30	1
12	30	1
13	30	1
14	30	1
15	30	1
16	30	1
17	30	1
18	30	1
19	30	1
20	30	1
21	30	1
22	30	0
23	30	1
24	30	1
25	30	1
26	30	1
27	30	1
28	30	1
29	30	1
30	30	1
31	30	1
32	30	1
33	30	1
34	30	1
35	30	1
36	30	1
37	30	0
38	30	0
39	30	0
40	30	0
41	30	0
42	30	0
43	30	0
44	30	0
45	30	0
46	30	0
47	30	0
48	30	0
49	30	0
50	30	0
51	30	0
52	30	0
53	30	0
54	30	0
55	30	0
56	30	0
57	30	0
58	30	0
59	30	0
60	30	0
61	30	0
62	30	0
63	30	0
64	30	0
65	30	0
66	30	0
67	30	0
68	30	0
69	30	0
70	30	0
71	30	0
72	30	0
73	30	0
74	30	0
75	30	0
76	30	0
77	30	0
78	30	0
79	30	0
80	30	0
81	30	0
82	30	0
83	30	0
84	30	0
85	30	0
86	30	0
87	30	1
88	30	1
89	30	1
90	30	1
91	30	1
92	30	1
93	30	1
94	30	1
95	30	1
96	30	1
97	30	1
98	30	1
99	30	1

0	31	1
1	31	1
2	31	1
3	31	1
4	31	1
5	31	1
6	31	1
7	31	1
8	31	1
9	31	1
10	31	1
11	31	1
12	31	1
13	31	1
14	31	1
15	31	1
16	31	1
17	31	1
18	31	1
19	31	1
20	31	1
21	31	1
22	31	1
23	31	1
24	31	1
25	31	1
26	31	1
27	31	1
28	31	1
29	31	1
30	31	1
31	31	1
32	31	1
33	31	1
34	31	1
35	31	1
36	31	1
37	31	0
38	31	0
39	31	0
40	31	0
41	31	0
42	31	0
43	31	0
44	31	0
45	31	0
46	31	0
47	31	0
48	31	0
49	31	0
50	31	0
51	31	0
52	31	0
53	31	0
54	31	0
55	31	0
56	31	0
57	31	0
58	31	0
59	31	0
60	31	0
61	31	0
62	31	0
63	31	0
64	31	0
65	31	0
66	31	0
67	31	0
68	31	0
69	31	0
70	31	0
71	31	0
72	31	0
73	31	0
74	31	0
75	31	0
76	31	0
77	31	1
78	31	0
79	31	0
80	31	0
81	31	0
82	31	0
83	31	0
84	31	0
85	31	1
86	31	1
87	31	1
88	31	1
89	31	1
90	31	1
91	31	1
92	31	1
93	31	1
94	31	1
95	31	1
96	31	1
97	31	1
98	31	1
99	31	1

0	32	1
1	32	1
2	32	1
3	32	1
4	32	1
5	32	1
6	32	1
7	32	1
8	32	1
9	32	1
10	32	1
11	32	1
12	32	1
13	32	1
14	32	1
15	32	1
16	32	1
17	32	1
18	32	1
19	32	1
20	32	1
21	32	1
22	32	1
23	32	1
24	32	1
25	32	1
26	32	1
27	32	1
28	32	1
29	32	1
30	32	1
31	32	1
32	32	1
33	32	1
34	32	1
35	32	1
36	32	1
37	32	0
38	32	0
39	32	0
40	32	0
41	32	0
42	32	0
43	32	0
44	32	0
45	32	0
46	32	0
47	32	0
48	32	0
49	32	0
50	32	0
51	32	0
52	32	0
53	32	0
54	32	0
55	32	0
56	32	0
57	32	0
58	32	0
59	32	0
60	32	0
61	32	0
62	32	0
63	32	0
64	32	0
65	32	0
66	32	0
67	32	0
68	32	0
69	32	0
70	32	0
71	32	0
72	32	0
73	32	0
74	32	0
75	32	0
76	32	0
77	32	0
78	32	0
79	32	0
80	32	0
81	32	0
82	32	0
83	32	0
84	32	0
85	32	0
86	32	1
87	32	1
88	32	1
89	32	1
90	32	1
91	32	1
92	32	1
93	32	1
94	32	1
95	32	1
96	32	1
97	32	1
98	32	1
99	32	1

0	33	1
1	33	1
2	33	1
3	33	1
4	33	1
5	33	1
6	33	1
7	33	1
8	33	1
9	33	1
10	33	1
11	33	1
12	33	1
13	33	1
14	33	1
15	33	1
16	33	1
17	33	1
18	33	1
19	33	1
20	33	1
21	33	1
22	33	1
23	33	1
24	33	1
25	33	1
26	33	1
27	33	1
28	33	1
29	33	1
30	33	1
31	33	1
32	33	1
33	33	1
34	33	1
35	33	0
36	33	0
37	33	0
38	33	0
39	33	0
40	33	0
41	33	0
42	33	0
43	33	0
44	33	0
45	33	0
46	33	0
47	33	0
48	33	0
49	33	0
50	33	0
51	33	0
52	33	0
53	33	0
54	33	0
55	33	0
56	33	0
57	33	0
58	33	0
59	33	0
60	33	0
61	33	0
62	33	0
63	33	0
64	33	0
65	33	0
66	33	0
67	33	0
68	33	0
69	33	0
70	33	0
71	33	0
72	33	0
73	33	0
74	33	0
75	33	0
76	33	0
77	33	0
78	33	0
79	33	0
80	33	0
81	33	0
82	33	0
83	33	0
84	33	0
85	33	0
86	33	0
87	33	1
88	33	1
89	33	1
90	33	1
91	33	1
92	33	1
93	33	1
94	33	1
95	33	1
96	33	1
97	33	1
98	33	1
99	33	1

0	34	1
1	34	1
2	34	1
3	34	1
4	34	1
5	34	1
6	34	1
7	34	1
8	34	1
9	34	1
10	34	1
11	34	1
12	34	1
13	34	1
14	34	1
15	34	1
16	34	1
17	34	1
18	34	1
19	34	1
20	34	1
21	34	1
22	34	1
23	34	1
24	34	1
25	34	1
26	34	1
27	34	1
28	34	1
29	34	1
30	34	1
31	34	1
32	34	1
33	34	1
34	34	1
35	34	0
36	34	0
37	34	0
38	34	0
39	34	0
40	34	0
41	34	0
42	34	0
43	34	0
44	34	0
45	34	0
46	34	0
47	34	0
48	34	0
49	34	0
50	34	0
51	34	0
52	34	0
53	34	0
54	34	0
55	34	0
56	34	0
57	34	0
58	34	0
59	34	0
60	34	0
61	34	0
62	34	0
63	34	0
64	34	0
65	34	0
66	34	0
67	34	0
68	34	0
69	34	0
70	34	0
71	34	0
72	34	0
73	34	0
74	34	0
75	34	1
76	34	0
77	34	0
78	34	0
79	34	0
80	34	0
81	34	0
82	34	0
83	34	0
84	34	0
85	34	0
86	34	0
87	34	1
88	34	1
89	34	1
90	34	1
91	34	1
92	34	1
93	34	1
94	34	1
95	34	1
96	34	1
97	34	1
98	34	1
99	34	1

0	35	1
1	35	1
2	35	1
3	35	1
4	35	1
5	35	1
6	35	1
7	35	1
8	35	1
9	35	1
10	35	1
11	35	1
12	35	1
13	35	1
14	35	1
15	35	1
16	35	1
17	35	1
18	35	1
19	35	1
20	35	1
21	35	1
22	35	1
23	35	1
24	35	1
25	35	1
26	35	1
27	35	1
28	35	1
29	35	1
30	35	1
31	35	1
32	35	1
33	35	1
34	35	1
35	35	0
36	35	0
37	35	0
38	35	0
39	35	0
40	35	0
41	35	0
42	35	0
43	35	0
44	35	0
45	35	0
46	35	0
47	35	0
48	35	0
49	35	0
50	35	0
51	35	0
52	35	0
53	35	0
54	35	0
55	35	0
56	35	0
57	35	0
58	35	0
59	35	0
60	35	0
61	35	0
62	35	0
63	35	0
64	35	0
65	35	0
66	35	0
67	35	0
68	35	0
69	35	0
70	35	0
71	35	0
72	35	0
73	35	0
74	35	0
75	35	0
76	35	0
77	35	0
78	35	0
79	35	0
80	35	0
81	35	0
82	35	0
83	35	0
84	35	0
85	35	0
86	35	0
87	35	1
88	35	1
89	35	1
90	35	1
91	35	1
92	35	1
93	35	1
94	35	1
95	35	1
96	35	1
97	35	1
98	35	1
99	35	1

0	36	1
1	36	1
2	36	1
3	36	1
4	36	1
5	36	1
6	36	1
7	36	1
8	36	1
9	36	1
10	36	1
11	36	1
12	36	1
13	36	1
14	36	1
15	36	1
16	36	1
17	36	1
18	36	1
19	36	1
20	36	1
21	36	1
22	36	1
23	36	1
24	36	1
25	36	1
26	36	1
27	36	1
28	36	1
29	36	1
30	36	1
31	36	1
32	36	1
33	36	1
34	36	1
35	36	1
36	36	0
37	36	0
38	36	0
39	36	0
40	36	0
41	36	0
42	36	0
43	36	0
44	36	0
45	36	0
46	36	0
47	36	0
48	36	0
49	36	0
50	36	0
51	36	0
52	36	0
53	36	0
54	36	0
55	36	0
56	36	0
57	36	0
58	36	0
59	36	0
60	36	0
61	36	0
62	36	0
63	36	0
64	36	0
65	36	0
66	36	0
67	36	0
68	36	0
69	36	0
70	36	0
71	36	0
72	36	0
73	36	0
74	36	0
75	36	0
76	36	0
77	36	0
78	36	0
79	36	0
80	36	0
81	36	0
82	36	0
83	36	0
84	36	0
85	36	0
86	36	0
87	36	1
88	36	1
89	36	1
90	36	1
91	36	1
92	36	1
93	36	1
94	36	1
95	36	1
96	36	1
97	36	1
98	36	1
99	36	1

0	37	1
1	37	1
2	37	1
3	37	1
4	37	1
5	37	1
6	37	1
7	37	1
8	37	1
9	37	1
10	37	1
11	37	1
12	37	1
13	37	1
14	37	1
15	37	1
16	37	1
17	37	1
18	37	1
19	37	1
20	37	1
21	37	1
22	37	1
23	37	1
24	37	1
25	37	1
26	37	1
27	37	1
28	37	1
29	37	1
30	37	1
31	37	1
32	37	1
33	37	1
34	37	1
35	37	1
36	37	0
37	37	0
38	37	0
39	37	0
40	37	0
41	37	0
42	37	0
43	37	0
44	37	0
45	37	0
46	37	0
47	37	0
48	37	0
49	37	0
50	37	0
51	37	0
52	37	0
53	37	0
54	37	0
55	37	0
56	37	0
57	37	0
58	37	0
59	37	1
60	37	0
61	37	0
62	37	0
63	37	0
64	37	0
65	37	0
66	37	0
67	37	0
68	37	0
69	37	0
70	37	0
71	37	0
72	37	0
73	37	0
74	37	0
75	37	0
76	37	0
77	37	0
78	37	0
79	37	0
80	37	0
81	37	0
82	37	0
83	37	0
84	37	0
85	37	0
86	37	0
87	37	0
88	37	1
89	37	1
90	37	1
91	37	1
92	37	1
93	37	1
94	37	1
95	37	1
96	37	1
97	37	1
98	37	1
99	37	1

0	38	1
1	38	1
2	38	1
3	38	1
4	38	1
5	38	1
6	38	1
7	38	1
8	38	1
9	38	1
10	38	1
11	38	1
12	38	1
13	38	1
14	38	1
15	38	1
16	38	1
17	38	1
18	38	1
19	38	1
20	38	1
21	38	1
22	38	1
23	38	1
24	38	1
25	38	1
26	38	1
27	38	1
28	38	1
29	38	1
30	38	1
31	38	1
32	38	1
33	38	1
34	38	1
35	38	1
36	38	0
37	38	0
38	38	0
39	38	0
40	38	0
41	38	0
42	38	0
43	38	0
44	38	0
45	38	0
46	38	0
47	38	0
48	38	0
49	38	0
50	38	0
51	38	0
52	38	0
53	38	0
54	38	0
55	38	0
56	38	0
57	38	0
58	38	0
59	38	0
60	38	0
61	38	0
62	38	0
63	38	0
64	38	0
65	38	0
66	38	0
67	38	0
68	38	0
69	38	0
70	38	0
71	38	0
72	38	0
73	38	0
74	38	0
75	38	0
76	38	0
77	38	0
78	38	0
79	38	0
80	38	0
81	38	0
82	38	0
83	38	0
84	38	0
85	38	0
86	38	0
87	38	0
88	38	0
89	38	1
90	38	1
91	38	1
92	38	1
93	38	1
94	38	1
95	38	1
96	38	1
97	38	1
98	38	1
99	38	1

0	39	1
1	39	1
2	39	1
3	39	1
4	39	1
5	39	1
6	39	1
7	39	1
8	39	1
9	39	1
10	39	1
11	39	1
12	39	1
13	39	1
14	39	1
15	39	1
16	39	1
17	39	1
18	39	1
19	39	1
20	39	1
21	39	1
22	39	1
23	39	1
24	39	1
25	39	1
26	39	1
27	39	1
28	39	1
29	39	1
30	39	1
31	39	1
32	39	1
33	39	1
34	39	1
35	39	1
36	39	0
37	39	0
38	39	0
39	39	0
40	39	0
41	39	0
42	39	0
43	39	0
44	39	0
45	39	0
46	39	0
47	39	0
48	39	0
49	39	0
50	39	0
51	39	0
52	39	0
53	39	0
54	39	0
55	39	0
56	39	0
57	39	0
58	39	0
59	39	0
60	39	0
61	39	0
62	39	0
63	39	0
64	39	0
65	39	0
66	39	0
67	39	0
68	39	0
69	39	0
70	39	0
71	39	0
72	39	0
73	39	0
74	39	0
75	39	0
76	39	0
77	39	0
78	39	0
79	39	0
80	39	0
81	39	0
82	39	0
83	39	0
84	39	0
85	39	0
86	39	0
87	39	0
88	39	1
89	39	1
90	39	1
91	39	1
92	39	1
93	39	1
94	39	1
95	39	1
96	39	1
97	39	1
98	39	1
99	39	1

0	40	1
1	40	1
2	40	1
3	40	1
4	40	1
5	40	1
6	40	1
7	40	1
8	40	1
9	40	1
10	40	1
11	40	1
12	40	1
13	40	1
14	40	1
15	40	1
16	40	1
17	40	1
18	40	1
19	40	1
20	40	1
21	40	1
22	40	1
23	40	1
24	40	1
25	40	1
26	40	1
27	40	1
28	40	1
29	40	1
30	40	1
31	40	1
32	40	1
33	40	1
34	40	1
35	40	1
36	40	0
37	40	0
38	40	0
39	40	0
40	40	0
41	40	0
42	40	0
43	40	0
44	40	0
45	40	0
46	40	0
47	40	0
48	40	0
49	40	0
50	40	0
51	40	0
52	40	0
53	40	0
54	40	0
55	40	0
56	40	0
57	40	0
58	40	0
59	40	0
60	40	0
61	40	0
62	40	0
63	40	0
64	40	0
65	40	0
66	40	0
67	40	0
68	40	0
69	40	0
70	40	0
71	40	0
72	40	0
73	40	0
74	40	0
75	40	0
76	40	0
77	40	0
78	40	0
79	40	0
80	40	0
81	40	0
82	40	0
83	40	0
84	40	0
85	40	0
86	40	0
87	40	0
88	40	1
89	40	1
90	40	1
91	40	1
92	40	1
93	40	1
94	40	1
95	40	1
96	40	1
97	40	1
98	40	1
99	40	1

0	41	1
1	41	1
2	41	1
3	41	1
4	41	1
5	41	1
6	41	1
7	41	1
8	41	1
9	41	1
10	41	1
11	41	1
12	41	1
13	41	1
14	41	1
15	41	1
16	41	1
17	41	1
18	41	1
19	41	1
20	41	1
21	41	1
22	41	1
23	41	1
24	41	1
25	41	1
26	41	1
27	41	1
28	41	1
29	41	1
30	41	1
31	41	1
32	41	1
33	41	1
34	41	1
35	41	1
36	41	0
37	41	0
38	41	0
39	41	0
40	41	0
41	41	0
42	41	0
43	41	0
44	41	0
45	41	0
46	41	0
47	41	0
48	41	0
49	41	0
50	41	0
51	41	0
52	41	0
53	41	0
54	41	0
55	41	0
56	41	0
57	41	0
58	41	0
59	41	0
60	41	0
61	41	0
62	41	0
63	41	0
64	41	0
65	41	0
66	41	0
67	41	0
68	41	0
69	41	0
70	41	0
71	41	0
72	41	0
73	41	0
74	41	0
75	41	0
76	41	0
77	41	0
78	41	0
79	41	0
80	41	0
81	41	0
82	41	0
83	41	0
84	41	0
85	41	0
86	41	0
87	41	1
88	41	0
89	41	1
90	41	1
91	41	1
92	41	1
93	41	1
94	41	1
95	41	1
96	41	1
97	41	1
98	41	1
99	41	1

0	42	1
1	42	1
2	42	1
3	42	1
4	42	1
5	42	1
6	42	1
7	42	1
8	42	1
9	42	1
10	42	1
11	42	1
12	42	1
13	42	1
14	42	1
15	42	1
16	42	1
17	42	1
18	42	1
19	42	1
20	42	1
21	42	1
22	42	1
23	42	1
24	42	1
25	42	1
26	42	1
27	42	1
28	42	1
29	42	1
30	42	1
31	42	1
32	42	1
33	42	1
34	42	1
35	42	1
36	42	1
37	42	0
38	42	0
39	42	0
40	42	0
41	42	0
42	42	0
43	42	0
44	42	0
45	42	0
46	42	0
47	42	0
48	42	0
49	42	0
50	42	0
51	42	0
52	42	0
53	42	0
54	42	0
55	42	0
56	42	0
57	42	0
58	42	0
59	42	0
60	42	0
61	42	0
62	42	0
63	42	0
64	42	0
65	42	0
66	42	0
67	42	0
68	42	0
69	42	0
70	42	0
71	42	0
72	42	0
73	42	0
74	42	0
75	42	0
76	42	0
77	42	0
78	42	0
79	42	0
80	42	0
81	42	0
82	42	0
83	42	0
84	42	0
85	42	0
86	42	0
87	42	0
88	42	0
89	42	1
90	42	1
91	42	1
92	42	1
93	42	1
94	42	1
95	42	1
96	42	1
97	42	1
98	42	1
99	42	1

0	43	1
1	43	1
2	43	1
3	43	1
4	43	1
5	43	1
6	43	1
7	43	1
8	43	1
9	43	1
10	43	1
11	43	1
12	43	1
13	43	1
14	43	1
15	43	1
16	43	1
17	43	1
18	43	1
19	43	1
20	43	1
21	43	1
22	43	1
23	43	1
24	43	1
25	43	1
26	43	1
27	43	1
28	43	1
29	43	1
30	43	1
31	43	1
32	43	1
33	43	1
34	43	1
35	43	1
36	43	1
37	43	0
38	43	0
39	43	0
40	43	0
41	43	0
42	43	0
43	43	0
44	43	0
45	43	0
46	43	0
47	43	0
48	43	0
49	43	0
50	43	0
51	43	0
52	43	0
53	43	0
54	43	0
55	43	0
56	43	0
57	43	0
58	43	0
59	43	0
60	43	0
61	43	0
62	43	0
63	43	0
64	43	0
65	43	0
66	43	0
67	43	0
68	43	0
69	43	0
70	43	0
71	43	0
72	43	0
73	43	0
74	43	0
75	43	0
76	43	0
77	43	0
78	43	0
79	43	0
80	43	0
81	43	0
82	43	0
83	43	0
84	43	0
85	43	0
86	43	0
87	43	0
88	43	0
89	43	1
90	43	1
91	43	1
92	43	1
93	43	1
94	43	1
95	43	1
96	43	1
97	43	1
98	43	1
99	43	1

0	44	1
1	44	1
2	44	1
3	44	1
4	44	1
5	44	1
6	44	1
7	44	1
8	44	1
9	44	1
10	44	1
11	44	1
12	44	1
13	44	1
14	44	1
15	44	1
16	44	1
17	44	1
18	44	1
19	44	1
20	44	1
21	44	1
22	44	1
23	44	1
24	44	1
25	44	1
26	44	1
27	44	1
28	44	1
29	44	1
30	44	1
31	44	1
32	44	1
33	44	1
34	44	1
35	44	1
36	44	1
37	44	0
38	44	0
39	44	0
40	44	0
41	44	0
42	44	0
43	44	0
44	44	0
45	44	0
46	44	0
47	44	0
48	44	0
49	44	0
50	44	0
51	44	0
52	44	0
53	44	0
54	44	0
55	44	0
56	44	0
57	44	0
58	44	0
59	44	0
60	44	0
61	44	0
62	44	0
63	44	0
64	44	0
65	44	0
66	44	0
67	44	0
68	44	0
69	44	0
70	44	0
71	44	0
72	44	0
73	44	0
74	44	0
75	44	0
76	44	0
77	44	0
78	44	0
79	44	0
80	44	0
81	44	0
82	44	0
83	44	0
84	44	0
85	44	0
86	44	0
87	44	0
88	44	1
89	44	1
90	44	1
91	44	1
92	44	1
93	44	1
94	44	1
95	44	1
96	44	1
97	44	1
98	44	1
99	44	1

0	45	1
1	45	1
2	45	1
3	45	1
4	45	1
5	45	1
6	45	1
7	45	1
8	45	1
9	45	1
10	45	1
11	45	1
12	45	1
13	45	1
14	45	1
15	45	1
16	45	1
17	45	1
18	45	1
19	45	1
20	45	1
21	45	1
22	45	1
23	45	1
24	45	1
25	45	1
26	45	1
27	45	1
28	45	1
29	45	1
30	45	1
31	45	1
32	45	1
33	45	1
34	45	1
35	45	1
36	45	1
37	45	0
38	45	0
39	45	0
40	45	0
41	45	0
42	45	0
43	45	0
44	45	0
45	45	0
46	45	0
47	45	0
48	45	0
49	45	0
50	45	0
51	45	0
52	45	0
53	45	0
54	45	0
55	45	0
56	45	0
57	45	0
58	45	0
59	45	0
60	45	0
61	45	0
62	45	0
63	45	0
64	45	0
65	45	0
66	45	0
67	45	0
68	45	0
69	45	0
70	45	0
71	45	0
72	45	0
73	45	0
74	45	0
75	45	0
76	45	0
77	45	0
78	45	0
79	45	0
80	45	0
81	45	0
82	45	0
83	45	0
84	45	0
85	45	0
86	45	0
87	45	0
88	45	1
89	45	1
90	45	1
91	45	1
92	45	1
93	45	1
94	45	1
95	45	1
96	45	1
97	45	1
98	45	1
99	45	1

0	46	1
1	46	1
2	46	1
3	46	1
4	46	1
5	46	1
6	46	1
7	46	1
8	46	1
9	46	1
10	46	1
11	46	1
12	46	1
13	46	1
14	46	1
15	46	1
16	46	1
17	46	1
18	46	1
19	46	1
20	46	1
21	46	1
22	46	1
23	46	1
24	46	1
25	46	1
26	46	1
27	46	1
28	46	1
29	46	1
30	46	1
31	46	1
32	46	1
33	46	1
34	46	1
35	46	1
36	46	1
37	46	0
38	46	0
39	46	0
40	46	0
41	46	0
42	46	0
43	46	0
44	46	0
45	46	0
46	46	0
47	46	0
48	46	0
49	46	0
50	46	0
51	46	0
52	46	0
53	46	0
54	46	0
55	46	0
56	46	0
57	46	0
58	46	0
59	46	0
60	46	0
61	46	0
62	46	0
63	46	0
64	46	0
65	46	0
66	46	0
67	46	0
68	46	0
69	46	0
70	46	0
71	46	0
72	46	0
73	46	0
74	46	0
75	46	0
76	46	0
77	46	0
78	46	0
79	46	0
80	46	0
81	46	0
82	46	0
83	46	0
84	46	0
85	46	0
86	46	0
87	46	0
88	46	1
89	46	1
90	46	1
91	46	1
92	46	1
93	46	1
94	46	1
95	46	1
96	46	1
97	46	1
98	46	1
99	46	1

0	47	1
1	47	1
2	47	1
3	47	1
4	47	1
5	47	1
6	47	1
7	47	1
8	47	1
9	47	1
10	47	1
11	47	1
12	47	1
13	47	1
14	47	1
15	47	1
16	47	1
17	47	1
18	47	1
19	47	1
20	47	1
21	47	1
22	47	1
23	47	1
24	47	1
25	47	1
26	47	1
27	47	1
28	47	1
29	47	1
30	47	1
31	47	1
32	47	1
33	47	1
34	47	1
35	47	1
36	47	1
37	47	1
38	47	0
39	47	0
40	47	0
41	47	0
42	47	0
43	47	0
44	47	0
45	47	0
46	47	0
47	47	0
48	47	0
49	47	0
50	47	0
51	47	0
52	47	0
53	47	0
54	47	0
55	47	0
56	47	0
57	47	0
58	47	0
59	47	0
60	47	0
61	47	0
62	47	0
63	47	0
64	47	0
65	47	0
66	47	0
67	47	0
68	47	0
69	47	0
70	47	0
71	47	0
72	47	0
73	47	0
74	47	0
75	47	0
76	47	0
77	47	0
78	47	0
79	47	0
80	47	0
81	47	0
82	47	0
83	47	0
84	47	0
85	47	0
86	47	0
87	47	0
88	47	1
89	47	1
90	47	1
91	47	1
92	47	1
93	47	1
94	47	1
95	47	1
96	47	1
97	47	1
98	47	1
99	47	1

0	48	1
1	48	1
2	48	1
3	48	1
4	48	1
5	48	1
6	48	1
7	48	1
8	48	1
9	48	1
10	48	1
11	48	1
12	48	1
13	48	1
14	48	1
15	48	1
16	48	1
17	48	1
18	48	1
19	48	1
20	48	1
21	48	1
22	48	1
23	48	1
24	48	1
25	48	1
26	48	1
27	48	1
28	48	1
29	48	1
30	48	1
31	48	1
32	48	1
33	48	1
34	48	1
35	48	1
36	48	1
37	48	1
38	48	0
39	48	0
40	48	0
41	48	0
42	48	0
43	48	0
44	48	0
45	48	0
46	48	0
47	48	0
48	48	0
49	48	0
50	48	0
51	48	0
52	48	0
53	48	0
54	48	0
55	48	0
56	48	0
57	48	0
58	48	0
59	48	0
60	48	0
61	48	0
62	48	0
63	48	0
64	48	0
65	48	0
66	48	0
67	48	0
68	48	0
69	48	0
70	48	0
71	48	0
72	48	0
73	48	0
74	48	0
75	48	0
76	48	0
77	48	0
78	48	0
79	48	0
80	48	0
81	48	0
82	48	0
83	48	0
84	48	0
85	48	0
86	48	0
87	48	0
88	48	1
89	48	1
90	48	1
91	48	1
92	48	1
93	48	1
94	48	1
95	48	1
96	48	1
97	48	1
98	48	1
99	48	1

0	49	1
1	49	1
2	49	1
3	49	1
4	49	1
5	49	1
6	49	1
7	49	1
8	49	1
9	49	1
10	49	1
11	49	1
12	49	1
13	49	1
14	49	1
15	49	1
16	49	1
17	49	1
18	49	1
19	49	1
20	49	1
21	49	1
22	49	1
23	49	1
24	49	1
25	49	1
26	49	1
27	49	1
28	49	1
29	49	1
30	49	1
31	49	1
32	49	1
33	49	1
34	49	1
35	49	1
36	49	1
37	49	0
38	49	0
39	49	0
40	49	0
41	49	0
42	49	0
43	49	0
44	49	0
45	49	0
46	49	0
47	49	0
48	49	0
49	49	0
50	49	0
51	49	0
52	49	0
53	49	0
54	49	0
55	49	0
56	49	0
57	49	0
58	49	0
59	49	0
60	49	0
61	49	0
62	49	0
63	49	0
64	49	0
65	49	0
66	49	0
67	49	0
68	49	0
69	49	0
70	49	0
71	49	0
72	49	0
73	49	0
74	49	0
75	49	0
76	49	0
77	49	0
78	49	0
79	49	0
80	49	0
81	49	0
82	49	0
83	49	0
84	49	0
85	49	0
86	49	0
87	49	0
88	49	1
89	49	1
90	49	1
91	49	1
92	49	1
93	49	1
94	49	1
95	49	1
96	49	1
97	49	1
98	49	1
99	49	1

0	50	1
1	50	1
2	50	1
3	50	1
4	50	1
5	50	1
6	50	1
7	50	1
8	50	1
9	50	1
10	50	1
11	50	1
12	50	1
13	50	1
14	50	1
15	50	1
16	50	1
17	50	1
18	50	1
19	50	1
20	50	0
21	50	1
22	50	1
23	50	1
24	50	1
25	50	1
26	50	1
27	50	1
28	50	1
29	50	1
30	50	1
31	50	1
32	50	1
33	50	1
34	50	1
35	50	1
36	50	1
37	50	1
38	50	0
39	50	0
40	50	0
41	50	0
42	50	0
43	50	0
44	50	0
45	50	0
46	50	0
47	50	0
48	50	0
49	50	0
50	50	0
51	50	0
52	50	0
53	50	0
54	50	0
55	50	0
56	50	0
57	50	0
58	50	0
59	50	0
60	50	0
61	50	0
62	50	0
63	50	0
64	50	0
65	50	0
66	50	0
67	50	0
68	50	0
69	50	0
70	50	0
71	50	0
72	50	0
73	50	0
74	50	0
75	50	0
76	50	0
77	50	0
78	50	0
79	50	0
80	50	0
81	50	0
82	50	0
83	50	0
84	50	0
85	50	0
86	50	0
87	50	0
88	50	1
89	50	1
90	50	1
91	50	1
92	50	1
93	50	1
94	50	1
95	50	1
96	50	1
97	50	1
98	50	1
99	50	1

0	51	1
1	51	1
2	51	1
3	51	1
4	51	1
5	51	1
6	51	1
7	51	1
8	51	1
9	51	1
10	51	1
11	51	1
12	51	1
13	51	1
14	51	1
15	51	1
16	51	1
17	51	1
18	51	1
19	51	1
20	51	1
21	51	1
22	51	1
23	51	1
24	51	1
25	51	1
26	51	1
27	51	1
28	51	1
29	51	1
30	51	1
31	51	1
32	51	1
33	51	1
34	51	1
35	51	1
36	51	1
37	51	1
38	51	0
39	51	0
40	51	0
41	51	0
42	51	0
43	51	0
44	51	0
45	51	0
46	51	0
47	51	0
48	51	0
49	51	0
50	51	0
51	51	0
52	51	0
53	51	0
54	51	0
55	51	0
56	51	0
57	51	0
58	51	0
59	51	0
60	51	0
61	51	0
62	51	0
63	51	0
64	51	0
65	51	0
66	51	0
67	51	0
68	51	0
69	51	0
70	51	0
71	51	0
72	51	0
73	51	0
74	51	0
75	51	0
76	51	0
77	51	0
78	51	0
79	51	0
80	51	0
81	51	0
82	51	0
83	51	0
84	51	0
85	51	0
86	51	0
87	51	1
88	51	1
89	51	1
90	51	1
91	51	1
92	51	1
93	51	1
94	51	1
95	51	1
96	51	1
97	51	1
98	51	1
99	51	1

0	52	1
1	52	1
2	52	1
3	52	1
4	52	1
5	52	1
6	52	1
7	52	1
8	52	1
9	52	1
10	52	1
11	52	1
12	52	1
13	52	1
14	52	1
15	52	1
16	52	1
17	52	1
18	52	1
19	52	1
20	52	1
21	52	1
22	52	1
23	52	1
24	52	1
25	52	1
26	52	1
27	52	1
28	52	1
29	52	1
30	52	1
31	52	1
32	52	1
33	52	1
34	52	1
35	52	1
36	52	1
37	52	1
38	52	0
39	52	0
40	52	0
41	52	0
42	52	0
43	52	0
44	52	0
45	52	0
46	52	0
47	52	0
48	52	0
49	52	0
50	52	0
51	52	0
52	52	0
53	52	0
54	52	0
55	52	0
56	52	0
57	52	0
58	52	0
59	52	0
60	52	0
61	52	0
62	52	0
63	52	0
64	52	0
65	52	0
66	52	0
67	52	0
68	52	0
69	52	0
70	52	0
71	52	0
72	52	0
73	52	1
74	52	0
75	52	0
76	52	0
77	52	0
78	52	0
79	52	0
80	52	0
81	52	0
82	52	0
83	52	0
84	52	0
85	52	0
86	52	0
87	52	1
88	52	1
89	52	1
90	52	1
91	52	1
92	52	1
93	52	1
94	52	1
95	52	1
96	52	1
97	52	1
98	52	1
99	52	1

0	53	1
1	53	1
2	53	1
3	53	1
4	53	1
5	53	1
6	53	1
7	53	1
8	53	1
9	53	1
10	53	1
11	53	1
12	53	1
13	53	1
14	53	1
15	53	1
16	53	1
17	53	1
18	53	1
19	53	1
20	53	1
21	53	1
22	53	1
23	53	1
24	53	1
25	53	1
26	53	1
27	53	1
28	53	1
29	53	1
30	53	1
31	53	1
32	53	1
33	53	1
34	53	1
35	53	1
36	53	1
37	53	1
38	53	0
39	53	0
40	53	0
41	53	0
42	53	0
43	53	0
44	53	0
45	53	0
46	53	0
47	53	0
48	53	0
49	53	0
50	53	0
51	53	0
52	53	0
53	53	0
54	53	0
55	53	0
56	53	0
57	53	0
58	53	0
59	53	0
60	53	0
61	53	0
62	53	0
63	53	0
64	53	0
65	53	0
66	53	0
67	53	0
68	53	0
69	53	1
70	53	0
71	53	0
72	53	0
73	53	0
74	53	0
75	53	0
76	53	0
77	53	0
78	53	0
79	53	0
80	53	0
81	53	0
82	53	0
83	53	0
84	53	0
85	53	0
86	53	0
87	53	1
88	53	1
89	53	1
90	53	1
91	53	1
92	53	1
93	53	1
94	53	1
95	53	1
96	53	1
97	53	1
98	53	1
99	53	1

0	54	1
1	54	1
2	54	1
3	54	1
4	54	1
5	54	1
6	54	1
7	54	1
8	54	1
9	54	1
10	54	1
11	54	1
12	54	1
13	54	1
14	54	1
15	54	1
16	54	1
17	54	1
18	54	1
19	54	1
20	54	1
21	54	1
22	54	1
23	54	1
24	54	1
25	54	1
26	54	1
27	54	1
28	54	1
29	54	1
30	54	1
31	54	1
32	54	1
33	54	1
34	54	1
35	54	1
36	54	1
37	54	1
38	54	0
39	54	0
40	54	0
41	54	0
42	54	0
43	54	0
44	54	0
45	54	0
46	54	0
47	54	0
48	54	0
49	54	0
50	54	0
51	54	0
52	54	0
53	54	0
54	54	0
55	54	0
56	54	0
57	54	0
58	54	0
59	54	0
60	54	0
61	54	0
62	54	0
63	54	0
64	54	0
65	54	0
66	54	0
67	54	0
68	54	0
69	54	0
70	54	0
71	54	0
72	54	0
73	54	0
74	54	0
75	54	0
76	54	0
77	54	0
78	54	0
79	54	0
80	54	0
81	54	0
82	54	0
83	54	0
84	54	0
85	54	0
86	54	1
87	54	1
88	54	1
89	54	1
90	54	1
91	54	1
92	54	1
93	54	1
94	54	1
95	54	1
96	54	1
97	54	1
98	54	1
99	54	1

0	55	1
1	55	1
2	55	1
3	55	1
4	55	1
5	55	1
6	55	1
7	55	1
8	55	1
9	55	1
10	55	1
11	55	1
12	55	1
13	55	1
14	55	1
15	55	1
16	55	1
17	55	1
18	55	1
19	55	1
20	55	1
21	55	1
22	55	1
23	55	1
24	55	1
25	55	1
26	55	1
27	55	1
28	55	1
29	55	1
30	55	1
31	55	1
32	55	1
33	55	1
34	55	1
35	55	1
36	55	1
37	55	1
38	55	0
39	55	0
40	55	0
41	55	0
42	55	0
43	55	0
44	55	0
45	55	0
46	55	0
47	55	0
48	55	0
49	55	0
50	55	0
51	55	0
52	55	0
53	55	0
54	55	0
55	55	0
56	55	0
57	55	0
58	55	0
59	55	0
60	55	0
61	55	0
62	55	0
63	55	0
64	55	0
65	55	0
66	55	0
67	55	0
68	55	0
69	55	0
70	55	0
71	55	0
72	55	0
73	55	0
74	55	0
75	55	0
76	55	0
77	55	0
78	55	0
79	55	0
80	55	0
81	55	0
82	55	0
83	55	0
84	55	0
85	55	1
86	55	1
87	55	1
88	55	1
89	55	1
90	55	1
91	55	1
92	55	1
93	55	1
94	55	1
95	55	1
96	55	1
97	55	1
98	55	1
99	55	1

0	56	1
1	56	1
2	56	1
3	56	1
4	56	1
5	56	1
6	56	1
7	56	1
8	56	1
9	56	1
10	56	1
11	56	1
12	56	1
13	56	1
14	56	1
15	56	1
16	56	1
17	56	1
18	56	1
19	56	1
20	56	1
21	56	1
22	56	1
23	56	1
24	56	1
25	56	1
26	56	1
27	56	1
28	56	1
29	56	1
30	56	1
31	56	1
32	56	1
33	56	1
34	56	1
35	56	1
36	56	1
37	56	1
38	56	0
39	56	0
40	56	0
41	56	0
42	56	0
43	56	0
44	56	0
45	56	0
46	56	0
47	56	0
48	56	0
49	56	0
50	56	0
51	56	0
52	56	0
53	56	0
54	56	0
55	56	0
56	56	0
57	56	0
58	56	0
59	56	0
60	56	0
61	56	0
62	56	0
63	56	0
64	56	0
65	56	0
66	56	0
67	56	0
68	56	0
69	56	0
70	56	0
71	56	0
72	56	0
73	56	0
74	56	0
75	56	0
76	56	0
77	56	0
78	56	0
79	56	0
80	56	0
81	56	0
82	56	0
83	56	1
84	56	1
85	56	1
86	56	1
87	56	1
88	56	1
89	56	1
90	56	1
91	56	1
92	56	1
93	56	1
94	56	1
95	56	1
96	56	1
97	56	1
98	56	1
99	56	1

0	57	1
1	57	1
2	57	1
3	57	1
4	57	1
5	57	1
6	57	1
7	57	1
8	57	1
9	57	1
10	57	1
11	57	1
12	57	1
13	57	1
14	57	1
15	57	1
16	57	1
17	57	1
18	57	1
19	57	1
20	57	1
21	57	1
22	57	1
23	57	1
24	57	1
25	57	1
26	57	1
27	57	1
28	57	1
29	57	1
30	57	1
31	57	1
32	57	1
33	57	1
34	57	1
35	57	1
36	57	1
37	57	0
38	57	0
39	57	0
40	57	0
41	57	0
42	57	0
43	57	0
44	57	0
45	57	0
46	57	0
47	57	0
48	57	0
49	57	0
50	57	0
51	57	0
52	57	0
53	57	0
54	57	0
55	57	0
56	57	0
57	57	0
58	57	0
59	57	0
60	57	0
61	57	0
62	57	0
63	57	0
64	57	0
65	57	0
66	57	0
67	57	0
68	57	0
69	57	0
70	57	0
71	57	0
72	57	0
73	57	0
74	57	0
75	57	0
76	57	0
77	57	0
78	57	0
79	57	0
80	57	0
81	57	0
82	57	0
83	57	1
84	57	1
85	57	1
86	57	1
87	57	1
88	57	1
89	57	1
90	57	1
91	57	1
92	57	1
93	57	1
94	57	1
95	57	1
96	57	1
97	57	1
98	57	1
99	57	1

0	58	1
1	58	1
2	58	1
3	58	1
4	58	1
5	58	1
6	58	1
7	58	1
8	58	1
9	58	1
10	58	1
11	58	1
12	58	1
13	58	1
14	58	1
15	58	1
16	58	1
17	58	1
18	58	1
19	58	1
20	58	1
21	58	1
22	58	1
23	58	1
24	58	1
25	58	1
26	58	1
27	58	1
28	58	1
29	58	1
30	58	1
31	58	1
32	58	1
33	58	1
34	58	1
35	58	1
36	58	1
37	58	0
38	58	0
39	58	0
40	58	0
41	58	0
42	58	0
43	58	0
44	58	0
45	58	0
46	58	0
47	58	0
48	58	0
49	58	0
50	58	0
51	58	0
52	58	0
53	58	0
54	58	0
55	58	0
56	58	0
57	58	0
58	58	0
59	58	0
60	58	0
61	58	0
62	58	0
63	58	0
64	58	0
65	58	0
66	58	0
67	58	0
68	58	0
69	58	0
70	58	0
71	58	0
72	58	0
73	58	0
74	58	0
75	58	0
76	58	0
77	58	0
78	58	0
79	58	0
80	58	0
81	58	0
82	58	0
83	58	1
84	58	1
85	58	1
86	58	1
87	58	1
88	58	1
89	58	1
90	58	1
91	58	1
92	58	1
93	58	1
94	58	1
95	58	1
96	58	1
97	58	1
98	58	1
99	58	1

0	59	1
1	59	1
2	59	1
3	59	1
4	59	1
5	59	1
6	59	1
7	59	1
8	59	1
9	59	1
10	59	1
11	59	1
12	59	1
13	59	1
14	59	1
15	59	1
16	59	1
17	59	1
18	59	1
19	59	1
20	59	1
21	59	1
22	59	1
23	59	1
24	59	1
25	59	1
26	59	1
27	59	1
28	59	1
29	59	1
30	59	1
31	59	1
32	59	1
33	59	1
34	59	1
35	59	1
36	59	1
37	59	1
38	59	0
39	59	0
40	59	0
41	59	0
42	59	0
43	59	0
44	59	0
45	59	0
46	59	0
47	59	0
48	59	0
49	59	0
50	59	0
51	59	0
52	59	0
53	59	0
54	59	0
55	59	0
56	59	0
57	59	0
58	59	0
59	59	0
60	59	0
61	59	0
62	59	0
63	59	0
64	59	0
65	59	0
66	59	0
67	59	0
68	59	0
69	59	0
70	59	0
71	59	0
72	59	0
73	59	0
74	59	0
75	59	0
76	59	0
77	59	0
78	59	0
79	59	0
80	59	0
81	59	0
82	59	0
83	59	0
84	59	0
85	59	1
86	59	1
87	59	1
88	59	1
89	59	1
90	59	1
91	59	1
92	59	1
93	59	1
94	59	0
95	59	1
96	59	1
97	59	1
98	59	1
99	59	1

0	60	1
1	60	1
2	60	1
3	60	1
4	60	1
5	60	1
6	60	1
7	60	1
8	60	1
9	60	1
10	60	1
11	60	1
12	60	1
13	60	1
14	60	1
15	60	1
16	60	1
17	60	1
18	60	1
19	60	1
20	60	1
21	60	1
22	60	1
23	60	1
24	60	1
25	60	1
26	60	1
27	60	1
28	60	1
29	60	1
30	60	1
31	60	1
32	60	1
33	60	1
34	60	1
35	60	1
36	60	1
37	60	1
38	60	0
39	60	0
40	60	0
41	60	0
42	60	0
43	60	0
44	60	0
45	60	0
46	60	0
47	60	0
48	60	0
49	60	0
50	60	0
51	60	0
52	60	0
53	60	0
54	60	0
55	60	0
56	60	0
57	60	0
58	60	0
59	60	0
60	60	0
61	60	0
62	60	0
63	60	0
64	60	0
65	60	0
66	60	0
67	60	0
68	60	0
69	60	0
70	60	0
71	60	0
72	60	0
73	60	0
74	60	0
75	60	0
76	60	0
77	60	0
78	60	0
79	60	0
80	60	0
81	60	0
82	60	0
83	60	0
84	60	0
85	60	1
86	60	1
87	60	1
88	60	1
89	60	1
90	60	1
91	60	1
92	60	1
93	60	1
94	60	1
95	60	1
96	60	1
97	60	1
98	60	1
99	60	1

0	61	1
1	61	1
2	61	1
3	61	1
4	61	1
5	61	1
6	61	1
7	61	1
8	61	1
9	61	1
10	61	1
11	61	1
12	61	1
13	61	1
14	61	1
15	61	1
16	61	1
17	61	1
18	61	1
19	61	1
20	61	1
21	61	1
22	61	1
23	61	1
24	61	1
25	61	1
26	61	1
27	61	1
28	61	1
29	61	1
30	61	1
31	61	1
32	61	1
33	61	1
34	61	1
35	61	1
36	61	1
37	61	1
38	61	1
39	61	0
40	61	0
41	61	0
42	61	0
43	61	0
44	61	0
45	61	0
46	61	0
47	61	0
48	61	0
49	61	0
50	61	0
51	61	0
52	61	0
53	61	0
54	61	0
55	61	0
56	61	0
57	61	0
58	61	0
59	61	0
60	61	0
61	61	0
62	61	0
63	61	0
64	61	0
65	61	0
66	61	0
67	61	0
68	61	0
69	61	0
70	61	0
71	61	0
72	61	0
73	61	0
74	61	0
75	61	0
76	61	0
77	61	0
78	61	0
79	61	0
80	61	0
81	61	0
82	61	0
83	61	0
84	61	0
85	61	0
86	61	1
87	61	1
88	61	1
89	61	1
90	61	1
91	61	1
92	61	1
93	61	1
94	61	1
95	61	1
96	61	1
97	61	1
98	61	1
99	61	1

0	62	1
1	62	1
2	62	1
3	62	1
4	62	1
5	62	1
6	62	1
7	62	1
8	62	1
9	62	1
10	62	1
11	62	1
12	62	1
13	62	1
14	62	1
15	62	1
16	62	0
17	62	1
18	62	1
19	62	1
20	62	1
21	62	1
22	62	1
23	62	1
24	62	1
25	62	1
26	62	1
27	62	1
28	62	1
29	62	1
30	62	1
31	62	1
32	62	1
33	62	1
34	62	1
35	62	1
36	62	1
37	62	1
38	62	1
39	62	0
40	62	0
41	62	0
42	62	0
43	62	0
44	62	0
45	62	0
46	62	0
47	62	0
48	62	0
49	62	0
50	62	0
51	62	0
52	62	0
53	62	0
54	62	0
55	62	0
56	62	0
57	62	0
58	62	0
59	62	0
60	62	0
61	62	0
62	62	0
63	62	0
64	62	0
65	62	0
66	62	0
67	62	0
68	62	0
69	62	0
70	62	0
71	62	0
72	62	0
73	62	0
74	62	0
75	62	0
76	62	0
77	62	0
78	62	0
79	62	0
80	62	0
81	62	0
82	62	0
83	62	0
84	62	0
85	62	0
86	62	0
87	62	1
88	62	1
89	62	1
90	62	1
91	62	1
92	62	1
93	62	1
94	62	1
95	62	1
96	62	1
97	62	1
98	62	1
99	62	1

0	63	1
1	63	1
2	63	1
3	63	1
4	63	1
5	63	1
6	63	1
7	63	1
8	63	1
9	63	1
10	63	1
11	63	1
12	63	1
13	63	1
14	63	1
15	63	1
16	63	0
17	63	1
18	63	1
19	63	1
20	63	1
21	63	1
22	63	1
23	63	1
24	63	1
25	63	1
26	63	1
27	63	1
28	63	1
29	63	1
30	63	1
31	63	1
32	63	1
33	63	1
34	63	1
35	63	1
36	63	1
37	63	1
38	63	1
39	63	1
40	63	0
41	63	0
42	63	0
43	63	0
44	63	0
45	63	0
46	63	0
47	63	0
48	63	0
49	63	0
50	63	0
51	63	0
52	63	0
53	63	0
54	63	0
55	63	0
56	63	0
57	63	0
58	63	0
59	63	0
60	63	0
61	63	0
62	63	0
63	63	0
64	63	0
65	63	0
66	63	0
67	63	0
68	63	0
69	63	0
70	63	0
71	63	0
72	63	0
73	63	0
74	63	0
75	63	0
76	63	0
77	63	0
78	63	0
79	63	0
80	63	0
81	63	0
82	63	0
83	63	0
84	63	0
85	63	0
86	63	0
87	63	1
88	63	1
89	63	1
90	63	1
91	63	1
92	63	1
93	63	1
94	63	1
95	63	1
96	63	1
97	63	1
98	63	1
99	63	1

0	64	1
1	64	1
2	64	1
3	64	1
4	64	1
5	64	1
6	64	1
7	64	1
8	64	1
9	64	1
10	64	1
11	64	1
12	64	1
13	64	1
14	64	1
15	64	1
16	64	1
17	64	1
18	64	1
19	64	1
20	64	1
21	64	1
22	64	1
23	64	1
24	64	1
25	64	1
26	64	1
27	64	1
28	64	1
29	64	1
30	64	1
31	64	1
32	64	1
33	64	1
34	64	1
35	64	1
36	64	1
37	64	1
38	64	1
39	64	1
40	64	0
41	64	0
42	64	0
43	64	0
44	64	0
45	64	0
46	64	0
47	64	0
48	64	0
49	64	0
50	64	0
51	64	0
52	64	0
53	64	0
54	64	0
55	64	0
56	64	0
57	64	0
58	64	0
59	64	0
60	64	0
61	64	0
62	64	0
63	64	0
64	64	0
65	64	0
66	64	0
67	64	0
68	64	0
69	64	0
70	64	0
71	64	0
72	64	0
73	64	0
74	64	0
75	64	0
76	64	0
77	64	0
78	64	0
79	64	0
80	64	0
81	64	0
82	64	0
83	64	0
84	64	0
85	64	0
86	64	1
87	64	1
88	64	1
89	64	1
90	64	1
91	64	1
92	64	1
93	64	1
94	64	1
95	64	1
96	64	1
97	64	1
98	64	1
99	64	0

0	65	1
1	65	1
2	65	1
3	65	1
4	65	1
5	65	1
6	65	1
7	65	1
8	65	1
9	65	1
10	65	1
11	65	1
12	65	1
13	65	1
14	65	1
15	65	1
16	65	1
17	65	0
18	65	1
19	65	1
20	65	1
21	65	1
22	65	1
23	65	1
24	65	1
25	65	1
26	65	1
27	65	1
28	65	1
29	65	1
30	65	1
31	65	1
32	65	1
33	65	1
34	65	1
35	65	1
36	65	1
37	65	1
38	65	1
39	65	1
40	65	0
41	65	0
42	65	0
43	65	0
44	65	0
45	65	0
46	65	0
47	65	0
48	65	0
49	65	0
50	65	0
51	65	0
52	65	0
53	65	0
54	65	0
55	65	0
56	65	0
57	65	0
58	65	0
59	65	0
60	65	0
61	65	0
62	65	0
63	65	0
64	65	0
65	65	0
66	65	0
67	65	0
68	65	0
69	65	0
70	65	0
71	65	0
72	65	0
73	65	0
74	65	0
75	65	0
76	65	0
77	65	0
78	65	0
79	65	0
80	65	0
81	65	0
82	65	0
83	65	0
84	65	0
85	65	0
86	65	1
87	65	1
88	65	1
89	65	1
90	65	1
91	65	1
92	65	1
93	65	1
94	65	1
95	65	1
96	65	1
97	65	1
98	65	1
99	65	1

0	66	1
1	66	1
2	66	1
3	66	1
4	66	1
5	66	1
6	66	1
7	66	1
8	66	1
9	66	1
10	66	1
11	66	1
12	66	1
13	66	1
14	66	1
15	66	1
16	66	1
17	66	1
18	66	1
19	66	1
20	66	1
21	66	1
22	66	1
23	66	1
24	66	1
25	66	1
26	66	1
27	66	1
28	66	1
29	66	1
30	66	1
31	66	1
32	66	1
33	66	1
34	66	1
35	66	1
36	66	1
37	66	1
38	66	1
39	66	1
40	66	0
41	66	0
42	66	0
43	66	0
44	66	0
45	66	0
46	66	0
47	66	0
48	66	0
49	66	0
50	66	0
51	66	0
52	66	0
53	66	0
54	66	0
55	66	0
56	66	0
57	66	0
58	66	0
59	66	0
60	66	0
61	66	0
62	66	0
63	66	0
64	66	0
65	66	0
66	66	0
67	66	0
68	66	0
69	66	0
70	66	0
71	66	0
72	66	0
73	66	0
74	66	0
75	66	0
76	66	0
77	66	0
78	66	0
79	66	0
80	66	0
81	66	0
82	66	0
83	66	0
84	66	0
85	66	0
86	66	1
87	66	1
88	66	1
89	66	1
90	66	1
91	66	1
92	66	1
93	66	1
94	66	1
95	66	1
96	66	1
97	66	1
98	66	1
99	66	1

0	67	1
1	67	1
2	67	1
3	67	1
4	67	1
5	67	1
6	67	1
7	67	1
8	67	1
9	67	1
10	67	1
11	67	1
12	67	1
13	67	1
14	67	1
15	67	1
16	67	1
17	67	1
18	67	1
19	67	1
20	67	1
21	67	1
22	67	1
23	67	1
24	67	1
25	67	1
26	67	1
27	67	1
28	67	1
29	67	1
30	67	1
31	67	1
32	67	1
33	67	1
34	67	1
35	67	1
36	67	1
37	67	1
38	67	1
39	67	1
40	67	0
41	67	0
42	67	0
43	67	0
44	67	0
45	67	0
46	67	0
47	67	0
48	67	0
49	67	0
50	67	0
51	67	0
52	67	0
53	67	0
54	67	0
55	67	0
56	67	0
57	67	0
58	67	0
59	67	0
60	67	0
61	67	0
62	67	0
63	67	0
64	67	0
65	67	0
66	67	0
67	67	0
68	67	0
69	67	0
70	67	0
71	67	0
72	67	0
73	67	0
74	67	0
75	67	0
76	67	0
77	67	0
78	67	0
79	67	0
80	67	0
81	67	0
82	67	0
83	67	0
84	67	0
85	67	0
86	67	1
87	67	1
88	67	1
89	67	1
90	67	1
91	67	1
92	67	1
93	67	1
94	67	1
95	67	1
96	67	1
97	67	1
98	67	1
99	67	1

0	68	1
1	68	1
2	68	1
3	68	1
4	68	1
5	68	1
6	68	1
7	68	1
8	68	1
9	68	1
10	68	1
11	68	1
12	68	1
13	68	1
14	68	1
15	68	1
16	68	1
17	68	1
18	68	1
19	68	1
20	68	1
21	68	1
22	68	1
23	68	1
24	68	1
25	68	1
26	68	1
27	68	1
28	68	1
29	68	1
30	68	1
31	68	1
32	68	1
33	68	1
34	68	1
35	68	1
36	68	1
37	68	1
38	68	1
39	68	1
40	68	0
41	68	0
42	68	0
43	68	0
44	68	0
45	68	0
46	68	0
47	68	0
48	68	0
49	68	0
50	68	0
51	68	0
52	68	0
53	68	0
54	68	0
55	68	0
56	68	0
57	68	0
58	68	0
59	68	0
60	68	0
61	68	0
62	68	0
63	68	0
64	68	0
65	68	0
66	68	0
67	68	0
68	68	0
69	68	0
70	68	0
71	68	0
72	68	0
73	68	0
74	68	0
75	68	0
76	68	0
77	68	0
78	68	0
79	68	0
80	68	0
81	68	0
82	68	0
83	68	0
84	68	0
85	68	0
86	68	1
87	68	1
88	68	1
89	68	1
90	68	1
91	68	1
92	68	1
93	68	1
94	68	1
95	68	1
96	68	1
97	68	1
98	68	1
99	68	1

0	69	1
1	69	1
2	69	1
3	69	1
4	69	1
5	69	1
6	69	1
7	69	1
8	69	1
9	69	1
10	69	1
11	69	1
12	69	1
13	69	1
14	69	1
15	69	1
16	69	1
17	69	1
18	69	1
19	69	1
20	69	1
21	69	1
22	69	1
23	69	1
24	69	1
25	69	1
26	69	1
27	69	1
28	69	1
29	69	1
30	69	1
31	69	1
32	69	1
33	69	1
34	69	1
35	69	1
36	69	1
37	69	1
38	69	0
39	69	0
40	69	0
41	69	0
42	69	0
43	69	0
44	69	0
45	69	0
46	69	0
47	69	0
48	69	0
49	69	0
50	69	0
51	69	0
52	69	0
53	69	0
54	69	0
55	69	0
56	69	0
57	69	0
58	69	0
59	69	0
60	69	0
61	69	0
62	69	0
63	69	0
64	69	0
65	69	0
66	69	0
67	69	0
68	69	0
69	69	0
70	69	0
71	69	0
72	69	0
73	69	0
74	69	0
75	69	0
76	69	0
77	69	0
78	69	0
79	69	0
80	69	0
81	69	0
82	69	0
83	69	1
84	69	1
85	69	1
86	69	1
87	69	1
88	69	1
89	69	1
90	69	1
91	69	1
92	69	1
93	69	1
94	69	1
95	69	1
96	69	1
97	69	1
98	69	1
99	69	1

0	70	1
1	70	1
2	70	1
3	70	1
4	70	1
5	70	1
6	70	1
7	70	1
8	70	1
9	70	1
10	70	1
11	70	1
12	70	1
13	70	1
14	70	1
15	70	1
16	70	1
17	70	1
18	70	1
19	70	1
20	70	1
21	70	1
22	70	1
23	70	1
24	70	1
25	70	1
26	70	1
27	70	1
28	70	1
29	70	1
30	70	1
31	70	1
32	70	1
33	70	1
34	70	1
35	70	1
36	70	1
37	70	1
38	70	1
39	70	0
40	70	0
41	70	0
42	70	0
43	70	0
44	70	0
45	70	0
46	70	0
47	70	0
48	70	0
49	70	0
50	70	0
51	70	0
52	70	0
53	70	0
54	70	0
55	70	0
56	70	0
57	70	0
58	70	0
59	70	0
60	70	0
61	70	0
62	70	0
63	70	0
64	70	0
65	70	0
66	70	0
67	70	0
68	70	0
69	70	0
70	70	0
71	70	0
72	70	0
73	70	0
74	70	0
75	70	0
76	70	0
77	70	0
78	70	0
79	70	0
80	70	0
81	70	0
82	70	0
83	70	1
84	70	1
85	70	1
86	70	1
87	70	1
88	70	1
89	70	1
90	70	1
91	70	1
92	70	1
93	70	1
94	70	1
95	70	1
96	70	1
97	70	1
98	70	1
99	70	1

0	71	1
1	71	1
2	71	1
3	71	1
4	71	1
5	71	1
6	71	1
7	71	1
8	71	1
9	71	1
10	71	1
11	71	1
12	71	1
13	71	1
14	71	1
15	71	1
16	71	1
17	71	1
18	71	1
19	71	1
20	71	1
21	71	1
22	71	1
23	71	1
24	71	1
25	71	1
26	71	1
27	71	1
28	71	1
29	71	1
30	71	1
31	71	1
32	71	1
33	71	1
34	71	1
35	71	1
36	71	1
37	71	1
38	71	1
39	71	0
40	71	0
41	71	0
42	71	0
43	71	0
44	71	0
45	71	0
46	71	0
47	71	0
48	71	0
49	71	0
50	71	0
51	71	0
52	71	0
53	71	0
54	71	0
55	71	0
56	71	0
57	71	0
58	71	0
59	71	0
60	71	0
61	71	0
62	71	0
63	71	0
64	71	0
65	71	0
66	71	0
67	71	0
68	71	0
69	71	0
70	71	0
71	71	0
72	71	0
73	71	0
74	71	0
75	71	0
76	71	0
77	71	0
78	71	0
79	71	0
80	71	0
81	71	0
82	71	0
83	71	1
84	71	1
85	71	1
86	71	1
87	71	1
88	71	1
89	71	1
90	71	1
91	71	0
92	71	0
93	71	1
94	71	1
95	71	1
96	71	1
97	71	1
98	71	1
99	71	1

0	72	1
1	72	1
2	72	1
3	72	1
4	72	1
5	72	1
6	72	1
7	72	1
8	72	1
9	72	1
10	72	1
11	72	1
12	72	1
13	72	1
14	72	1
15	72	1
16	72	1
17	72	1
18	72	1
19	72	1
20	72	1
21	72	1
22	72	1
23	72	1
24	72	1
25	72	1
26	72	1
27	72	1
28	72	1
29	72	1
30	72	1
31	72	1
32	72	1
33	72	1
34	72	1
35	72	1
36	72	1
37	72	1
38	72	1
39	72	0
40	72	0
41	72	0
42	72	0
43	72	0
44	72	0
45	72	0
46	72	0
47	72	0
48	72	0
49	72	0
50	72	0
51	72	0
52	72	0
53	72	0
54	72	0
55	72	0
56	72	0
57	72	0
58	72	0
59	72	0
60	72	0
61	72	0
62	72	0
63	72	0
64	72	0
65	72	0
66	72	0
67	72	0
68	72	0
69	72	0
70	72	0
71	72	0
72	72	0
73	72	0
74	72	0
75	72	0
76	72	0
77	72	0
78	72	0
79	72	0
80	72	0
81	72	0
82	72	0
83	72	0
84	72	1
85	72	1
86	72	1
87	72	1
88	72	1
89	72	1
90	72	1
91	72	1
92	72	1
93	72	1
94	72	1
95	72	1
96	72	1
97	72	1
98	72	1
99	72	1

0	73	1
1	73	1
2	73	1
3	73	1
4	73	1
5	73	1
6	73	1
7	73	1
8	73	1
9	73	1
10	73	1
11	73	1
12	73	1
13	73	1
14	73	1
15	73	1
16	73	1
17	73	1
18	73	1
19	73	1
20	73	1
21	73	1
22	73	1
23	73	1
24	73	1
25	73	1
26	73	1
27	73	1
28	73	1
29	73	1
30	73	1
31	73	1
32	73	1
33	73	1
34	73	1
35	73	1
36	73	1
37	73	1
38	73	1
39	73	1
40	73	0
41	73	0
42	73	0
43	73	0
44	73	0
45	73	0
46	73	0
47	73	0
48	73	1
49	73	0
50	73	0
51	73	0
52	73	0
53	73	0
54	73	0
55	73	0
56	73	0
57	73	0
58	73	0
59	73	0
60	73	0
61	73	0
62	73	0
63	73	0
64	73	0
65	73	0
66	73	0
67	73	0
68	73	0
69	73	0
70	73	0
71	73	0
72	73	0
73	73	0
74	73	0
75	73	0
76	73	0
77	73	0
78	73	0
79	73	0
80	73	0
81	73	0
82	73	0
83	73	0
84	73	0
85	73	1
86	73	0
87	73	1
88	73	1
89	73	1
90	73	1
91	73	1
92	73	1
93	73	1
94	73	1
95	73	1
96	73	1
97	73	1
98	73	1
99	73	1

0	74	1
1	74	1
2	74	1
3	74	1
4	74	1
5	74	1
6	74	1
7	74	1
8	74	1
9	74	1
10	74	1
11	74	1
12	74	1
13	74	1
14	74	1
15	74	1
16	74	1
17	74	1
18	74	1
19	74	1
20	74	1
21	74	1
22	74	1
23	74	1
24	74	1
25	74	1
26	74	1
27	74	1
28	74	1
29	74	1
30	74	1
31	74	1
32	74	1
33	74	1
34	74	1
35	74	1
36	74	1
37	74	1
38	74	1
39	74	1
40	74	0
41	74	0
42	74	0
43	74	0
44	74	0
45	74	0
46	74	0
47	74	0
48	74	0
49	74	0
50	74	0
51	74	0
52	74	0
53	74	0
54	74	0
55	74	1
56	74	0
57	74	0
58	74	0
59	74	0
60	74	0
61	74	0
62	74	0
63	74	0
64	74	0
65	74	0
66	74	0
67	74	0
68	74	0
69	74	0
70	74	0
71	74	0
72	74	0
73	74	0
74	74	0
75	74	0
76	74	0
77	74	0
78	74	0
79	74	0
80	74	0
81	74	0
82	74	0
83	74	0
84	74	0
85	74	0
86	74	0
87	74	1
88	74	1
89	74	1
90	74	1
91	74	1
92	74	1
93	74	1
94	74	1
95	74	1
96	74	1
97	74	1
98	74	1
99	74	1

0	75	1
1	75	1
2	75	1
3	75	1
4	75	1
5	75	1
6	75	1
7	75	1
8	75	1
9	75	1
10	75	1
11	75	1
12	75	1
13	75	1
14	75	1
15	75	1
16	75	1
17	75	1
18	75	1
19	75	1
20	75	1
21	75	1
22	75	1
23	75	1
24	75	1
25	75	1
26	75	1
27	75	1
28	75	1
29	75	1
30	75	1
31	75	1
32	75	1
33	75	1
34	75	1
35	75	1
36	75	1
37	75	1
38	75	1
39	75	1
40	75	0
41	75	0
42	75	0
43	75	0
44	75	0
45	75	0
46	75	0
47	75	0
48	75	0
49	75	0
50	75	0
51	75	0
52	75	0
53	75	0
54	75	0
55	75	0
56	75	0
57	75	0
58	75	0
59	75	0
60	75	0
61	75	0
62	75	0
63	75	0
64	75	0
65	75	0
66	75	0
67	75	0
68	75	0
69	75	0
70	75	0
71	75	0
72	75	0
73	75	0
74	75	0
75	75	0
76	75	0
77	75	0
78	75	0
79	75	0
80	75	0
81	75	0
82	75	0
83	75	0
84	75	0
85	75	0
86	75	0
87	75	0
88	75	1
89	75	1
90	75	1
91	75	1
92	75	1
93	75	1
94	75	1
95	75	1
96	75	1
97	75	1
98	75	1
99	75	1

0	76	1
1	76	1
2	76	1
3	76	1
4	76	1
5	76	1
6	76	1
7	76	1
8	76	1
9	76	1
10	76	1
11	76	1
12	76	1
13	76	1
14	76	1
15	76	1
16	76	1
17	76	1
18	76	1
19	76	1
20	76	1
21	76	1
22	76	1
23	76	1
24	76	1
25	76	1
26	76	1
27	76	1
28	76	1
29	76	1
30	76	1
31	76	1
32	76	1
33	76	1
34	76	1
35	76	1
36	76	1
37	76	1
38	76	1
39	76	1
40	76	1
41	76	1
42	76	0
43	76	0
44	76	0
45	76	0
46	76	0
47	76	0
48	76	0
49	76	0
50	76	0
51	76	0
52	76	0
53	76	0
54	76	0
55	76	0
56	76	0
57	76	0
58	76	0
59	76	0
60	76	0
61	76	0
62	76	0
63	76	1
64	76	0
65	76	0
66	76	0
67	76	0
68	76	0
69	76	0
70	76	0
71	76	0
72	76	0
73	76	0
74	76	0
75	76	0
76	76	0
77	76	0
78	76	0
79	76	0
80	76	0
81	76	0
82	76	0
83	76	0
84	76	0
85	76	0
86	76	0
87	76	0
88	76	1
89	76	1
90	76	1
91	76	1
92	76	1
93	76	1
94	76	1
95	76	1
96	76	1
97	76	1
98	76	1
99	76	1

0	77	1
1	77	1
2	77	1
3	77	1
4	77	1
5	77	1
6	77	1
7	77	1
8	77	1
9	77	1
10	77	1
11	77	1
12	77	1
13	77	1
14	77	1
15	77	1
16	77	1
17	77	1
18	77	1
19	77	1
20	77	1
21	77	1
22	77	1
23	77	1
24	77	1
25	77	1
26	77	1
27	77	1
28	77	1
29	77	1
30	77	0
31	77	1
32	77	1
33	77	1
34	77	1
35	77	1
36	77	1
37	77	1
38	77	1
39	77	1
40	77	1
41	77	1
42	77	0
43	77	0
44	77	0
45	77	0
46	77	0
47	77	0
48	77	0
49	77	0
50	77	0
51	77	0
52	77	0
53	77	0
54	77	0
55	77	0
56	77	0
57	77	0
58	77	0
59	77	0
60	77	0
61	77	0
62	77	0
63	77	0
64	77	0
65	77	0
66	77	0
67	77	0
68	77	0
69	77	0
70	77	0
71	77	0
72	77	0
73	77	0
74	77	0
75	77	0
76	77	0
77	77	0
78	77	0
79	77	0
80	77	0
81	77	0
82	77	0
83	77	0
84	77	0
85	77	0
86	77	0
87	77	0
88	77	1
89	77	1
90	77	1
91	77	1
92	77	1
93	77	1
94	77	1
95	77	1
96	77	1
97	77	1
98	77	1
99	77	1

0	78	1
1	78	1
2	78	1
3	78	1
4	78	1
5	78	1
6	78	1
7	78	1
8	78	1
9	78	1
10	78	1
11	78	1
12	78	1
13	78	1
14	78	1
15	78	1
16	78	1
17	78	1
18	78	1
19	78	1
20	78	1
21	78	1
22	78	1
23	78	1
24	78	1
25	78	1
26	78	1
27	78	1
28	78	1
29	78	1
30	78	1
31	78	1
32	78	1
33	78	1
34	78	1
35	78	1
36	78	1
37	78	1
38	78	1
39	78	1
40	78	1
41	78	1
42	78	0
43	78	0
44	78	0
45	78	0
46	78	0
47	78	0
48	78	0
49	78	0
50	78	0
51	78	0
52	78	0
53	78	0
54	78	0
55	78	0
56	78	0
57	78	0
58	78	0
59	78	0
60	78	0
61	78	0
62	78	0
63	78	0
64	78	0
65	78	0
66	78	0
67	78	0
68	78	0
69	78	0
70	78	0
71	78	0
72	78	0
73	78	0
74	78	0
75	78	0
76	78	0
77	78	0
78	78	0
79	78	0
80	78	0
81	78	0
82	78	0
83	78	0
84	78	0
85	78	0
86	78	0
87	78	0
88	78	1
89	78	1
90	78	1
91	78	1
92	78	1
93	78	1
94	78	1
95	78	1
96	78	1
97	78	1
98	78	1
99	78	1

0	79	1
1	79	1
2	79	1
3	79	1
4	79	1
5	79	1
6	79	1
7	79	1
8	79	1
9	79	1
10	79	1
11	79	1
12	79	1
13	79	1
14	79	1
15	79	1
16	79	1
17	79	1
18	79	1
19	79	1
20	79	1
21	79	1
22	79	1
23	79	1
24	79	1
25	79	1
26	79	1
27	79	1
28	79	1
29	79	1
30	79	1
31	79	1
32	79	1
33	79	1
34	79	1
35	79	1
36	79	1
37	79	1
38	79	1
39	79	1
40	79	1
41	79	1
42	79	1
43	79	1
44	79	1
45	79	0
46	79	0
47	79	0
48	79	0
49	79	0
50	79	0
51	79	0
52	79	0
53	79	0
54	79	0
55	79	0
56	79	0
57	79	0
58	79	0
59	79	0
60	79	0
61	79	0
62	79	0
63	79	0
64	79	0
65	79	0
66	79	0
67	79	0
68	79	0
69	79	0
70	79	0
71	79	0
72	79	0
73	79	0
74	79	0
75	79	0
76	79	0
77	79	0
78	79	0
79	79	0
80	79	0
81	79	0
82	79	0
83	79	0
84	79	0
85	79	0
86	79	0
87	79	0
88	79	0
89	79	0
90	79	1
91	79	1
92	79	1
93	79	1
94	79	1
95	79	1
96	79	1
97	79	1
98	79	1
99	79	1

0	80	1
1	80	1
2	80	1
3	80	1
4	80	1
5	80	1
6	80	1
7	80	1
8	80	1
9	80	1
10	80	1
11	80	1
12	80	1
13	80	0
14	80	1
15	80	1
16	80	1
17	80	1
18	80	1
19	80	1
20	80	1
21	80	1
22	80	1
23	80	1
24	80	1
25	80	1
26	80	1
27	80	1
28	80	1
29	80	1
30	80	1
31	80	1
32	80	1
33	80	1
34	80	1
35	80	1
36	80	1
37	80	1
38	80	1
39	80	1
40	80	1
41	80	1
42	80	1
43	80	1
44	80	1
45	80	0
46	80	0
47	80	0
48	80	0
49	80	0
50	80	0
51	80	0
52	80	0
53	80	0
54	80	0
55	80	0
56	80	0
57	80	0
58	80	0
59	80	0
60	80	0
61	80	0
62	80	0
63	80	0
64	80	0
65	80	0
66	80	0
67	80	0
68	80	0
69	80	0
70	80	0
71	80	0
72	80	0
73	80	0
74	80	0
75	80	0
76	80	0
77	80	0
78	80	0
79	80	0
80	80	0
81	80	0
82	80	0
83	80	0
84	80	0
85	80	0
86	80	0
87	80	0
88	80	0
89	80	0
90	80	1
91	80	1
92	80	1
93	80	1
94	80	1
95	80	1
96	80	1
97	80	1
98	80	1
99	80	1

0	81	1
1	81	1
2	81	1
3	81	1
4	81	1
5	81	1
6	81	1
7	81	1
8	81	1
9	81	1
10	81	1
11	81	1
12	81	1
13	81	1
14	81	1
15	81	1
16	81	1
17	81	1
18	81	1
19	81	1
20	81	1
21	81	1
22	81	1
23	81	1
24	81	1
25	81	1
26	81	1
27	81	1
28	81	1
29	81	1
30	81	1
31	81	1
32	81	1
33	81	1
34	81	1
35	81	1
36	81	1
37	81	1
38	81	1
39	81	1
40	81	1
41	81	1
42	81	1
43	81	1
44	81	1
45	81	0
46	81	0
47	81	0
48	81	0
49	81	0
50	81	0
51	81	0
52	81	0
53	81	0
54	81	0
55	81	0
56	81	0
57	81	0
58	81	0
59	81	0
60	81	0
61	81	0
62	81	0
63	81	0
64	81	0
65	81	0
66	81	0
67	81	0
68	81	0
69	81	0
70	81	0
71	81	0
72	81	0
73	81	0
74	81	0
75	81	0
76	81	0
77	81	0
78	81	0
79	81	0
80	81	0
81	81	0
82	81	0
83	81	0
84	81	0
85	81	0
86	81	0
87	81	0
88	81	0
89	81	0
90	81	0
91	81	0
92	81	0
93	81	0
94	81	1
95	81	1
96	81	1
97	81	1
98	81	1
99	81	1

0	82	1
1	82	1
2	82	1
3	82	1
4	82	1
5	82	1
6	82	1
7	82	1
8	82	1
9	82	1
10	82	1
11	82	1
12	82	1
13	82	1
14	82	1
15	82	1
16	82	1
17	82	1
18	82	1
19	82	1
20	82	1
21	82	1
22	82	1
23	82	1
24	82	1
25	82	1
26	82	1
27	82	1
28	82	1
29	82	1
30	82	1
31	82	1
32	82	1
33	82	1
34	82	1
35	82	1
36	82	1
37	82	1
38	82	1
39	82	1
40	82	1
41	82	1
42	82	1
43	82	1
44	82	1
45	82	0
46	82	0
47	82	0
48	82	0
49	82	0
50	82	0
51	82	0
52	82	0
53	82	0
54	82	0
55	82	0
56	82	0
57	82	0
58	82	0
59	82	0
60	82	0
61	82	0
62	82	0
63	82	0
64	82	0
65	82	0
66	82	0
67	82	0
68	82	0
69	82	0
70	82	1
71	82	0
72	82	0
73	82	0
74	82	0
75	82	0
76	82	0
77	82	0
78	82	0
79	82	0
80	82	0
81	82	0
82	82	0
83	82	0
84	82	0
85	82	0
86	82	0
87	82	0
88	82	0
89	82	0
90	82	0
91	82	0
92	82	0
93	82	1
94	82	1
95	82	1
96	82	1
97	82	1
98	82	1
99	82	1

0	83	1
1	83	1
2	83	1
3	83	1
4	83	1
5	83	1
6	83	1
7	83	1
8	83	1
9	83	1
10	83	1
11	83	1
12	83	1
13	83	1
14	83	1
15	83	1
16	83	1
17	83	1
18	83	1
19	83	1
20	83	1
21	83	1
22	83	1
23	83	1
24	83	1
25	83	1
26	83	1
27	83	0
28	83	0
29	83	1
30	83	1
31	83	1
32	83	1
33	83	1
34	83	1
35	83	1
36	83	1
37	83	1
38	83	1
39	83	1
40	83	1
41	83	1
42	83	1
43	83	1
44	83	1
45	83	1
46	83	0
47	83	0
48	83	0
49	83	0
50	83	0
51	83	0
52	83	0
53	83	0
54	83	0
55	83	0
56	83	0
57	83	0
58	83	0
59	83	0
60	83	0
61	83	0
62	83	0
63	83	0
64	83	0
65	83	0
66	83	0
67	83	0
68	83	0
69	83	0
70	83	0
71	83	0
72	83	0
73	83	0
74	83	0
75	83	0
76	83	0
77	83	1
78	83	0
79	83	0
80	83	0
81	83	0
82	83	0
83	83	0
84	83	0
85	83	0
86	83	0
87	83	0
88	83	0
89	83	0
90	83	0
91	83	0
92	83	0
93	83	1
94	83	1
95	83	1
96	83	1
97	83	1
98	83	1
99	83	1

0	84	1
1	84	1
2	84	1
3	84	1
4	84	1
5	84	1
6	84	1
7	84	1
8	84	1
9	84	1
10	84	1
11	84	1
12	84	1
13	84	1
14	84	1
15	84	1
16	84	1
17	84	1
18	84	1
19	84	1
20	84	1
21	84	1
22	84	1
23	84	1
24	84	1
25	84	1
26	84	1
27	84	1
28	84	1
29	84	1
30	84	1
31	84	1
32	84	1
33	84	1
34	84	1
35	84	1
36	84	1
37	84	1
38	84	1
39	84	1
40	84	1
41	84	1
42	84	1
43	84	1
44	84	1
45	84	1
46	84	0
47	84	0
48	84	0
49	84	0
50	84	0
51	84	0
52	84	0
53	84	0
54	84	0
55	84	0
56	84	0
57	84	0
58	84	0
59	84	0
60	84	0
61	84	0
62	84	0
63	84	0
64	84	0
65	84	0
66	84	0
67	84	0
68	84	0
69	84	1
70	84	0
71	84	0
72	84	0
73	84	0
74	84	0
75	84	0
76	84	0
77	84	0
78	84	0
79	84	0
80	84	0
81	84	0
82	84	0
83	84	0
84	84	0
85	84	0
86	84	0
87	84	0
88	84	0
89	84	0
90	84	0
91	84	0
92	84	0
93	84	1
94	84	1
95	84	1
96	84	1
97	84	1
98	84	1
99	84	1

0	85	1
1	85	1
2	85	1
3	85	1
4	85	1
5	85	1
6	85	1
7	85	1
8	85	1
9	85	1
10	85	1
11	85	1
12	85	1
13	85	1
14	85	1
15	85	1
16	85	1
17	85	1
18	85	1
19	85	1
20	85	1
21	85	1
22	85	1
23	85	1
24	85	1
25	85	1
26	85	1
27	85	1
28	85	1
29	85	1
30	85	1
31	85	1
32	85	1
33	85	1
34	85	1
35	85	1
36	85	1
37	85	1
38	85	1
39	85	1
40	85	1
41	85	1
42	85	1
43	85	1
44	85	1
45	85	1
46	85	0
47	85	0
48	85	0
49	85	0
50	85	0
51	85	0
52	85	0
53	85	0
54	85	0
55	85	0
56	85	0
57	85	0
58	85	0
59	85	0
60	85	0
61	85	0
62	85	0
63	85	0
64	85	0
65	85	0
66	85	0
67	85	0
68	85	0
69	85	0
70	85	0
71	85	0
72	85	0
73	85	0
74	85	0
75	85	0
76	85	1
77	85	0
78	85	0
79	85	0
80	85	0
81	85	0
82	85	0
83	85	0
84	85	0
85	85	0
86	85	0
87	85	0
88	85	0
89	85	0
90	85	0
91	85	0
92	85	0
93	85	1
94	85	1
95	85	1
96	85	1
97	85	1
98	85	1
99	85	1

0	86	1
1	86	1
2	86	1
3	86	1
4	86	1
5	86	1
6	86	1
7	86	1
8	86	1
9	86	1
10	86	1
11	86	1
12	86	1
13	86	1
14	86	1
15	86	1
16	86	1
17	86	1
18	86	1
19	86	1
20	86	1
21	86	1
22	86	1
23	86	1
24	86	1
25	86	1
26	86	1
27	86	1
28	86	1
29	86	1
30	86	1
31	86	1
32	86	1
33	86	1
34	86	1
35	86	1
36	86	1
37	86	1
38	86	1
39	86	1
40	86	1
41	86	1
42	86	1
43	86	1
44	86	1
45	86	1
46	86	0
47	86	0
48	86	0
49	86	0
50	86	0
51	86	0
52	86	0
53	86	0
54	86	0
55	86	0
56	86	0
57	86	0
58	86	0
59	86	0
60	86	0
61	86	0
62	86	0
63	86	0
64	86	0
65	86	0
66	86	0
67	86	0
68	86	0
69	86	0
70	86	0
71	86	0
72	86	0
73	86	0
74	86	0
75	86	0
76	86	0
77	86	0
78	86	0
79	86	0
80	86	0
81	86	0
82	86	0
83	86	0
84	86	0
85	86	0
86	86	0
87	86	0
88	86	0
89	86	0
90	86	0
91	86	0
92	86	0
93	86	1
94	86	1
95	86	1
96	86	1
97	86	1
98	86	1
99	86	1

0	87	1
1	87	1
2	87	1
3	87	1
4	87	1
5	87	1
6	87	1
7	87	1
8	87	1
9	87	1
10	87	1
11	87	1
12	87	1
13	87	1
14	87	1
15	87	1
16	87	1
17	87	1
18	87	1
19	87	1
20	87	1
21	87	1
22	87	1
23	87	1
24	87	1
25	87	1
26	87	1
27	87	1
28	87	1
29	87	1
30	87	1
31	87	1
32	87	1
33	87	1
34	87	1
35	87	1
36	87	1
37	87	1
38	87	1
39	87	1
40	87	1
41	87	1
42	87	1
43	87	1
44	87	1
45	87	1
46	87	0
47	87	0
48	87	1
49	87	1
50	87	0
51	87	0
52	87	0
53	87	0
54	87	0
55	87	0
56	87	0
57	87	0
58	87	0
59	87	0
60	87	0
61	87	0
62	87	0
63	87	0
64	87	0
65	87	0
66	87	0
67	87	0
68	87	0
69	87	0
70	87	0
71	87	0
72	87	0
73	87	0
74	87	0
75	87	1
76	87	1
77	87	0
78	87	0
79	87	0
80	87	0
81	87	0
82	87	0
83	87	0
84	87	0
85	87	0
86	87	0
87	87	0
88	87	0
89	87	0
90	87	0
91	87	0
92	87	0
93	87	0
94	87	1
95	87	1
96	87	1
97	87	1
98	87	1
99	87	1

0	88	0
1	88	1
2	88	1
3	88	1
4	88	1
5	88	1
6	88	1
7	88	1
8	88	1
9	88	1
10	88	1
11	88	1
12	88	1
13	88	1
14	88	1
15	88	1
16	88	1
17	88	1
18	88	1
19	88	1
20	88	1
21	88	1
22	88	1
23	88	1
24	88	1
25	88	1
26	88	1
27	88	1
28	88	1
29	88	1
30	88	1
31	88	1
32	88	1
33	88	1
34	88	1
35	88	1
36	88	1
37	88	1
38	88	1
39	88	1
40	88	1
41	88	1
42	88	1
43	88	1
44	88	1
45	88	0
46	88	0
47	88	0
48	88	1
49	88	1
50	88	0
51	88	0
52	88	0
53	88	0
54	88	0
55	88	0
56	88	0
57	88	0
58	88	0
59	88	0
60	88	0
61	88	0
62	88	0
63	88	0
64	88	0
65	88	0
66	88	0
67	88	1
68	88	0
69	88	0
70	88	0
71	88	0
72	88	0
73	88	0
74	88	0
75	88	0
76	88	0
77	88	0
78	88	0
79	88	0
80	88	0
81	88	0
82	88	0
83	88	0
84	88	0
85	88	0
86	88	0
87	88	0
88	88	0
89	88	0
90	88	0
91	88	0
92	88	0
93	88	0
94	88	0
95	88	1
96	88	1
97	88	1
98	88	1
99	88	1

0	89	1
1	89	1
2	89	1
3	89	1
4	89	1
5	89	1
6	89	1
7	89	1
8	89	1
9	89	1
10	89	1
11	89	1
12	89	1
13	89	1
14	89	1
15	89	1
16	89	1
17	89	1
18	89	1
19	89	1
20	89	1
21	89	1
22	89	1
23	89	1
24	89	1
25	89	1
26	89	1
27	89	1
28	89	1
29	89	1
30	89	1
31	89	1
32	89	1
33	89	1
34	89	1
35	89	1
36	89	1
37	89	1
38	89	1
39	89	1
40	89	1
41	89	1
42	89	1
43	89	1
44	89	1
45	89	1
46	89	1
47	89	1
48	89	1
49	89	0
50	89	0
51	89	0
52	89	0
53	89	0
54	89	0
55	89	0
56	89	0
57	89	0
58	89	0
59	89	0
60	89	0
61	89	0
62	89	0
63	89	0
64	89	0
65	89	0
66	89	0
67	89	0
68	89	0
69	89	0
70	89	0
71	89	0
72	89	0
73	89	0
74	89	0
75	89	0
76	89	0
77	89	0
78	89	0
79	89	0
80	89	0
81	89	0
82	89	0
83	89	0
84	89	0
85	89	0
86	89	0
87	89	0
88	89	0
89	89	0
90	89	0
91	89	0
92	89	0
93	89	0
94	89	0
95	89	1
96	89	1
97	89	1
98	89	1
99	89	1

0	90	1
1	90	1
2	90	1
3	90	1
4	90	1
5	90	1
6	90	1
7	90	1
8	90	1
9	90	1
10	90	1
11	90	1
12	90	1
13	90	1
14	90	1
15	90	1
16	90	1
17	90	1
18	90	1
19	90	1
20	90	1
21	90	1
22	90	1
23	90	1
24	90	1
25	90	1
26	90	1
27	90	1
28	90	1
29	90	1
30	90	1
31	90	1
32	90	1
33	90	1
34	90	1
35	90	1
36	90	1
37	90	1
38	90	1
39	90	1
40	90	1
41	90	1
42	90	1
43	90	1
44	90	1
45	90	1
46	90	1
47	90	1
48	90	0
49	90	0
50	90	0
51	90	0
52	90	0
53	90	0
54	90	0
55	90	0
56	90	0
57	90	0
58	90	0
59	90	0
60	90	0
61	90	0
62	90	0
63	90	0
64	90	0
65	90	0
66	90	0
67	90	0
68	90	0
69	90	0
70	90	0
71	90	0
72	90	0
73	90	0
74	90	0
75	90	0
76	90	0
77	90	0
78	90	0
79	90	0
80	90	0
81	90	0
82	90	0
83	90	0
84	90	0
85	90	0
86	90	0
87	90	0
88	90	0
89	90	0
90	90	0
91	90	0
92	90	0
93	90	0
94	90	0
95	90	1
96	90	1
97	90	1
98	90	1
99	90	1

0	91	1
1	91	1
2	91	1
3	91	1
4	91	1
5	91	1
6	91	1
7	91	1
8	91	1
9	91	1
10	91	1
11	91	1
12	91	1
13	91	1
14	91	1
15	91	1
16	91	1
17	91	1
18	91	1
19	91	1
20	91	1
21	91	1
22	91	1
23	91	1
24	91	1
25	91	1
26	91	1
27	91	1
28	91	1
29	91	1
30	91	1
31	91	1
32	91	1
33	91	1
34	91	1
35	91	1
36	91	1
37	91	1
38	91	1
39	91	1
40	91	1
41	91	1
42	91	1
43	91	1
44	91	1
45	91	1
46	91	1
47	91	0
48	91	0
49	91	0
50	91	0
51	91	0
52	91	0
53	91	0
54	91	0
55	91	0
56	91	0
57	91	0
58	91	0
59	91	0
60	91	0
61	91	0
62	91	0
63	91	0
64	91	0
65	91	0
66	91	0
67	91	0
68	91	0
69	91	0
70	91	0
71	91	0
72	91	0
73	91	0
74	91	0
75	91	0
76	91	0
77	91	0
78	91	0
79	91	0
80	91	0
81	91	0
82	91	0
83	91	0
84	91	0
85	91	0
86	91	0
87	91	0
88	91	0
89	91	0
90	91	0
91	91	0
92	91	0
93	91	0
94	91	0
95	91	0
96	91	1
97	91	1
98	91	1
99	91	1

0	92	1
1	92	1
2	92	1
3	92	1
4	92	1
5	92	1
6	92	1
7	92	1
8	92	1
9	92	1
10	92	1
11	92	1
12	92	1
13	92	1
14	92	1
15	92	1
16	92	1
17	92	1
18	92	1
19	92	1
20	92	1
21	92	1
22	92	1
23	92	1
24	92	1
25	92	1
26	92	1
27	92	1
28	92	1
29	92	1
30	92	1
31	92	1
32	92	1
33	92	1
34	92	1
35	92	1
36	92	1
37	92	1
38	92	1
39	92	1
40	92	1
41	92	1
42	92	1
43	92	1
44	92	1
45	92	1
46	92	1
47	92	0
48	92	0
49	92	0
50	92	0
51	92	0
52	92	0
53	92	0
54	92	0
55	92	0
56	92	0
57	92	0
58	92	0
59	92	0
60	92	0
61	92	0
62	92	0
63	92	0
64	92	0
65	92	0
66	92	0
67	92	0
68	92	0
69	92	0
70	92	0
71	92	0
72	92	0
73	92	0
74	92	0
75	92	0
76	92	0
77	92	0
78	92	0
79	92	0
80	92	0
81	92	0
82	92	0
83	92	0
84	92	0
85	92	0
86	92	0
87	92	0
88	92	0
89	92	0
90	92	0
91	92	0
92	92	0
93	92	0
94	92	0
95	92	0
96	92	1
97	92	1
98	92	1
99	92	1

0	93	1
1	93	1
2	93	1
3	93	1
4	93	1
5	93	1
6	93	1
7	93	1
8	93	1
9	93	1
10	93	1
11	93	1
12	93	1
13	93	1
14	93	1
15	93	1
16	93	1
17	93	1
18	93	1
19	93	1
20	93	1
21	93	1
22	93	1
23	93	1
24	93	1
25	93	1
26	93	1
27	93	1
28	93	1
29	93	1
30	93	1
31	93	1
32	93	1
33	93	1
34	93	1
35	93	1
36	93	1
37	93	1
38	93	1
39	93	1
40	93	1
41	93	1
42	93	1
43	93	1
44	93	1
45	93	1
46	93	0
47	93	0
48	93	0
49	93	0
50	93	0
51	93	0
52	93	0
53	93	0
54	93	0
55	93	0
56	93	0
57	93	0
58	93	0
59	93	0
60	93	0
61	93	0
62	93	0
63	93	0
64	93	0
65	93	0
66	93	0
67	93	0
68	93	0
69	93	0
70	93	0
71	93	0
72	93	0
73	93	0
74	93	0
75	93	0
76	93	0
77	93	0
78	93	0
79	93	0
80	93	0
81	93	0
82	93	0
83	93	0
84	93	0
85	93	0
86	93	0
87	93	0
88	93	0
89	93	0
90	93	0
91	93	0
92	93	0
93	93	0
94	93	0
95	93	0
96	93	1
97	93	1
98	93	1
99	93	1

0	94	1
1	94	1
2	94	1
3	94	1
4	94	1
5	94	1
6	94	1
7	94	1
8	94	1
9	94	1
10	94	1
11	94	1
12	94	1
13	94	1
14	94	1
15	94	1
16	94	1
17	94	1
18	94	1
19	94	1
20	94	1
21	94	1
22	94	0
23	94	1
24	94	1
25	94	1
26	94	1
27	94	1
28	94	1
29	94	1
30	94	1
31	94	1
32	94	1
33	94	1
34	94	1
35	94	1
36	94	1
37	94	1
38	94	1
39	94	1
40	94	1
41	94	1
42	94	1
43	94	1
44	94	1
45	94	1
46	94	0
47	94	0
48	94	0
49	94	0
50	94	0
51	94	0
52	94	0
53	94	0
54	94	0
55	94	0
56	94	0
57	94	0
58	94	0
59	94	0
60	94	0
61	94	0
62	94	0
63	94	0
64	94	0
65	94	0
66	94	0
67	94	0
68	94	0
69	94	0
70	94	0
71	94	0
72	94	0
73	94	0
74	94	0
75	94	0
76	94	0
77	94	0
78	94	0
79	94	0
80	94	0
81	94	0
82	94	0
83	94	0
84	94	0
85	94	0
86	94	0
87	94	0
88	94	0
89	94	0
90	94	0
91	94	0
92	94	0
93	94	0
94	94	0
95	94	0
96	94	1
97	94	1
98	94	1
99	94	1

0	95	1
1	95	1
2	95	1
3	95	0
4	95	1
5	95	1
6	95	1
7	95	1
8	95	1
9	95	1
10	95	1
11	95	1
12	95	1
13	95	1
14	95	1
15	95	1
16	95	1
17	95	1
18	95	1
19	95	1
20	95	1
21	95	1
22	95	1
23	95	1
24	95	1
25	95	1
26	95	1
27	95	1
28	95	1
29	95	1
30	95	1
31	95	1
32	95	1
33	95	1
34	95	1
35	95	1
36	95	1
37	95	1
38	95	1
39	95	1
40	95	1
41	95	1
42	95	1
43	95	1
44	95	1
45	95	1
46	95	1
47	95	1
48	95	0
49	95	0
50	95	0
51	95	0
52	95	0
53	95	0
54	95	0
55	95	0
56	95	0
57	95	0
58	95	0
59	95	0
60	95	0
61	95	0
62	95	0
63	95	0
64	95	0
65	95	0
66	95	0
67	95	0
68	95	0
69	95	0
70	95	0
71	95	0
72	95	0
73	95	0
74	95	0
75	95	0
76	95	0
77	95	0
78	95	0
79	95	0
80	95	0
81	95	0
82	95	0
83	95	0
84	95	0
85	95	0
86	95	0
87	95	0
88	95	0
89	95	0
90	95	0
91	95	0
92	95	0
93	95	0
94	95	0
95	95	0
96	95	1
97	95	1
98	95	1
99	95	1

0	96	1
1	96	1
2	96	1
3	96	1
4	96	1
5	96	1
6	96	1
7	96	1
8	96	1
9	96	1
10	96	1
11	96	1
12	96	1
13	96	1
14	96	1
15	96	1
16	96	1
17	96	1
18	96	1
19	96	1
20	96	1
21	96	1
22	96	1
23	96	1
24	96	1
25	96	1
26	96	1
27	96	1
28	96	1
29	96	1
30	96	1
31	96	1
32	96	1
33	96	1
34	96	1
35	96	1
36	96	1
37	96	1
38	96	1
39	96	1
40	96	1
41	96	1
42	96	1
43	96	1
44	96	1
45	96	1
46	96	1
47	96	1
48	96	0
49	96	0
50	96	0
51	96	0
52	96	0
53	96	0
54	96	0
55	96	0
56	96	0
57	96	0
58	96	0
59	96	0
60	96	0
61	96	0
62	96	0
63	96	0
64	96	0
65	96	0
66	96	0
67	96	0
68	96	0
69	96	0
70	96	0
71	96	0
72	96	0
73	96	0
74	96	0
75	96	0
76	96	0
77	96	0
78	96	0
79	96	0
80	96	0
81	96	0
82	96	0
83	96	0
84	96	0
85	96	0
86	96	0
87	96	0
88	96	0
89	96	0
90	96	0
91	96	0
92	96	0
93	96	0
94	96	0
95	96	0
96	96	1
97	96	1
98	96	1
99	96	1

0	97	1
1	97	1
2	97	1
3	97	1
4	97	1
5	97	1
6	97	1
7	97	1
8	97	1
9	97	1
10	97	1
11	97	1
12	97	1
13	97	1
14	97	1
15	97	1
16	97	1
17	97	1
18	97	1
19	97	1
20	97	1
21	97	1
22	97	1
23	97	1
24	97	1
25	97	1
26	97	1
27	97	1
28	97	1
29	97	1
30	97	1
31	97	1
32	97	1
33	97	1
34	97	1
35	97	1
36	97	1
37	97	1
38	97	1
39	97	1
40	97	1
41	97	1
42	97	1
43	97	1
44	97	1
45	97	1
46	97	1
47	97	1
48	97	0
49	97	0
50	97	0
51	97	0
52	97	0
53	97	0
54	97	0
55	97	0
56	97	0
57	97	0
58	97	0
59	97	0
60	97	0
61	97	0
62	97	0
63	97	1
64	97	0
65	97	0
66	97	0
67	97	0
68	97	0
69	97	0
70	97	0
71	97	0
72	97	0
73	97	0
74	97	0
75	97	0
76	97	0
77	97	0
78	97	0
79	97	0
80	97	0
81	97	0
82	97	0
83	97	0
84	97	0
85	97	0
86	97	0
87	97	0
88	97	0
89	97	0
90	97	0
91	97	0
92	97	0
93	97	0
94	97	0
95	97	0
96	97	1
97	97	1
98	97	1
99	97	1

0	98	1
1	98	1
2	98	1
3	98	1
4	98	1
5	98	1
6	98	1
7	98	1
8	98	1
9	98	1
10	98	1
11	98	1
12	98	1
13	98	1
14	98	1
15	98	1
16	98	1
17	98	1
18	98	1
19	98	1
20	98	1
21	98	1
22	98	1
23	98	1
24	98	1
25	98	1
26	98	1
27	98	1
28	98	1
29	98	1
30	98	1
31	98	1
32	98	1
33	98	1
34	98	1
35	98	1
36	98	1
37	98	1
38	98	1
39	98	1
40	98	1
41	98	1
42	98	1
43	98	1
44	98	1
45	98	1
46	98	1
47	98	1
48	98	0
49	98	0
50	98	0
51	98	0
52	98	0
53	98	0
54	98	0
55	98	0
56	98	0
57	98	0
58	98	0
59	98	0
60	98	0
61	98	0
62	98	0
63	98	0
64	98	0
65	98	0
66	98	0
67	98	0
68	98	0
69	98	0
70	98	0
71	98	0
72	98	0
73	98	0
74	98	0
75	98	0
76	98	0
77	98	0
78	98	0
79	98	0
80	98	0
81	98	0
82	98	0
83	98	0
84	98	0
85	98	0
86	98	0
87	98	0
88	98	0
89	98	0
90	98	0
91	98	0
92	98	0
93	98	0
94	98	0
95	98	0
96	98	0
97	98	1
98	98	1
99	98	1

0	99	1
1	99	1
2	99	1
3	99	1
4	99	1
5	99	1
6	99	1
7	99	1
8	99	1
9	99	1
10	99	1
11	99	1
12	99	1
13	99	1
14	99	1
15	99	1
16	99	1
17	99	1
18	99	1
19	99	1
20	99	1
21	99	1
22	99	1
23	99	1
24	99	1
25	99	1
26	99	1
27	99	1
28	99	1
29	99	1
30	99	1
31	99	1
32	99	1
33	99	1
34	99	1
35	99	1
36	99	1
37	99	1
38	99	1
39	99	1
40	99	1
41	99	1
42	99	1
43	99	1
44	99	1
45	99	1
46	99	1
47	99	1
48	99	1
49	99	0
50	99	0
51	99	0
52	99	0
53	99	0
54	99	0
55	99	0
56	99	0
57	99	0
58	99	0
59	99	0
60	99	0
61	99	0
62	99	0
63	99	0
64	99	0
65	99	0
66	99	0
67	99	0
68	99	0
69	99	0
70	99	0
71	99	0
72	99	0
73	99	0
74	99	0
75	99	0
76	99	0
77	99	0
78	99	0
79	99	0
80	99	0
81	99	0
82	99	0
83	99	0
84	99	0
85	99	0
86	99	0
87	99	0
88	99	0
89	99	0
90	99	0
91	99	0
92	99	0
93	99	0
94	99	0
95	99	0
96	99	0
97	99	1
98	99	1
99	99	1

