0	0	0
1	0	1
2	0	1
3	0	0
4	0	0
5	0	0
6	0	0
7	0	0
8	0	0
9	0	0
10	0	0
11	0	0
12	0	0
13	0	0
14	0	0
15	0	0
16	0	1
17	0	1
18	0	1
19	0	1
20	0	1
21	0	1
22	0	1
23	0	0
24	0	0
25	0	1
26	0	1
27	0	1
28	0	1
29	0	1
30	0	1
31	0	0
32	0	0
33	0	0
34	0	1
35	0	1
36	0	1
37	0	0
38	0	0
39	0	0
40	0	1
41	0	0
42	0	0
43	0	0
44	0	0
45	0	1
46	0	1
47	0	1
48	0	0
49	0	0
50	0	1
51	0	1
52	0	0
53	0	0
54	0	0
55	0	0
56	0	0
57	0	0
58	0	0
59	0	0
60	0	0
61	0	0
62	0	0
63	0	1
64	0	1
65	0	1
66	0	1
67	0	1
68	0	1
69	0	0
70	0	0
71	0	0
72	0	1
73	0	0
74	0	1
75	0	0
76	0	0
77	0	0
78	0	1
79	0	1
80	0	1
81	0	1
82	0	1
83	0	1
84	0	1
85	0	0
86	0	1
87	0	1
88	0	1
89	0	1
90	0	1
91	0	1
92	0	1
93	0	0
94	0	1
95	0	1
96	0	1
97	0	1
98	0	1
99	0	0

0	1	0
1	1	1
2	1	1
3	1	1
4	1	0
5	1	0
6	1	1
7	1	1
8	1	0
9	1	0
10	1	0
11	1	1
12	1	0
13	1	0
14	1	0
15	1	1
16	1	1
17	1	0
18	1	0
19	1	1
20	1	1
21	1	1
22	1	1
23	1	0
24	1	0
25	1	1
26	1	1
27	1	1
28	1	1
29	1	1
30	1	0
31	1	0
32	1	1
33	1	1
34	1	0
35	1	0
36	1	0
37	1	0
38	1	0
39	1	0
40	1	1
41	1	0
42	1	0
43	1	0
44	1	0
45	1	1
46	1	1
47	1	1
48	1	1
49	1	0
50	1	0
51	1	0
52	1	1
53	1	0
54	1	0
55	1	0
56	1	0
57	1	0
58	1	0
59	1	0
60	1	0
61	1	1
62	1	0
63	1	0
64	1	0
65	1	1
66	1	1
67	1	1
68	1	1
69	1	1
70	1	1
71	1	1
72	1	1
73	1	0
74	1	0
75	1	0
76	1	0
77	1	1
78	1	1
79	1	1
80	1	1
81	1	1
82	1	1
83	1	1
84	1	1
85	1	1
86	1	1
87	1	1
88	1	0
89	1	1
90	1	1
91	1	1
92	1	1
93	1	1
94	1	1
95	1	0
96	1	0
97	1	1
98	1	1
99	1	0

0	2	1
1	2	1
2	2	1
3	2	1
4	2	1
5	2	1
6	2	1
7	2	1
8	2	0
9	2	0
10	2	0
11	2	0
12	2	0
13	2	0
14	2	0
15	2	1
16	2	1
17	2	0
18	2	0
19	2	1
20	2	1
21	2	0
22	2	0
23	2	0
24	2	0
25	2	1
26	2	0
27	2	1
28	2	0
29	2	0
30	2	0
31	2	0
32	2	1
33	2	1
34	2	0
35	2	0
36	2	0
37	2	0
38	2	1
39	2	1
40	2	1
41	2	1
42	2	0
43	2	0
44	2	1
45	2	1
46	2	1
47	2	1
48	2	0
49	2	0
50	2	0
51	2	0
52	2	1
53	2	0
54	2	0
55	2	0
56	2	0
57	2	0
58	2	0
59	2	0
60	2	0
61	2	0
62	2	1
63	2	0
64	2	0
65	2	1
66	2	0
67	2	0
68	2	0
69	2	0
70	2	1
71	2	0
72	2	1
73	2	1
74	2	1
75	2	0
76	2	1
77	2	1
78	2	1
79	2	1
80	2	1
81	2	1
82	2	1
83	2	1
84	2	0
85	2	0
86	2	0
87	2	0
88	2	0
89	2	1
90	2	0
91	2	0
92	2	1
93	2	0
94	2	0
95	2	1
96	2	1
97	2	0
98	2	1
99	2	1

0	3	0
1	3	0
2	3	0
3	3	0
4	3	0
5	3	1
6	3	1
7	3	1
8	3	1
9	3	0
10	3	0
11	3	0
12	3	0
13	3	0
14	3	0
15	3	1
16	3	1
17	3	1
18	3	0
19	3	1
20	3	0
21	3	0
22	3	0
23	3	0
24	3	0
25	3	0
26	3	0
27	3	0
28	3	0
29	3	0
30	3	0
31	3	0
32	3	0
33	3	1
34	3	1
35	3	1
36	3	1
37	3	1
38	3	1
39	3	1
40	3	1
41	3	0
42	3	0
43	3	0
44	3	1
45	3	1
46	3	1
47	3	0
48	3	0
49	3	0
50	3	0
51	3	0
52	3	0
53	3	0
54	3	0
55	3	0
56	3	0
57	3	0
58	3	0
59	3	0
60	3	0
61	3	1
62	3	1
63	3	1
64	3	1
65	3	0
66	3	0
67	3	0
68	3	0
69	3	0
70	3	0
71	3	0
72	3	1
73	3	1
74	3	1
75	3	1
76	3	1
77	3	1
78	3	1
79	3	1
80	3	1
81	3	0
82	3	0
83	3	0
84	3	0
85	3	0
86	3	1
87	3	0
88	3	1
89	3	1
90	3	1
91	3	1
92	3	1
93	3	1
94	3	0
95	3	1
96	3	1
97	3	1
98	3	1
99	3	1

0	4	0
1	4	0
2	4	0
3	4	0
4	4	0
5	4	1
6	4	1
7	4	0
8	4	1
9	4	1
10	4	0
11	4	0
12	4	0
13	4	1
14	4	1
15	4	0
16	4	0
17	4	0
18	4	1
19	4	1
20	4	1
21	4	0
22	4	0
23	4	0
24	4	0
25	4	0
26	4	0
27	4	0
28	4	0
29	4	0
30	4	1
31	4	1
32	4	1
33	4	1
34	4	1
35	4	0
36	4	1
37	4	1
38	4	1
39	4	1
40	4	1
41	4	0
42	4	0
43	4	0
44	4	1
45	4	0
46	4	0
47	4	0
48	4	0
49	4	0
50	4	0
51	4	0
52	4	0
53	4	0
54	4	0
55	4	0
56	4	0
57	4	0
58	4	0
59	4	0
60	4	0
61	4	0
62	4	1
63	4	1
64	4	1
65	4	1
66	4	1
67	4	0
68	4	0
69	4	0
70	4	0
71	4	0
72	4	0
73	4	0
74	4	1
75	4	1
76	4	1
77	4	0
78	4	0
79	4	0
80	4	0
81	4	0
82	4	1
83	4	0
84	4	0
85	4	1
86	4	0
87	4	1
88	4	1
89	4	1
90	4	1
91	4	1
92	4	1
93	4	1
94	4	0
95	4	1
96	4	0
97	4	1
98	4	1
99	4	0

0	5	0
1	5	0
2	5	0
3	5	0
4	5	0
5	5	0
6	5	0
7	5	0
8	5	1
9	5	1
10	5	1
11	5	0
12	5	1
13	5	1
14	5	1
15	5	1
16	5	1
17	5	1
18	5	1
19	5	1
20	5	1
21	5	1
22	5	1
23	5	1
24	5	0
25	5	0
26	5	0
27	5	1
28	5	0
29	5	0
30	5	1
31	5	0
32	5	0
33	5	1
34	5	1
35	5	1
36	5	1
37	5	1
38	5	1
39	5	1
40	5	1
41	5	1
42	5	1
43	5	1
44	5	1
45	5	0
46	5	0
47	5	0
48	5	0
49	5	1
50	5	1
51	5	1
52	5	1
53	5	0
54	5	0
55	5	1
56	5	1
57	5	0
58	5	0
59	5	0
60	5	0
61	5	0
62	5	0
63	5	0
64	5	1
65	5	0
66	5	0
67	5	0
68	5	0
69	5	0
70	5	1
71	5	1
72	5	1
73	5	1
74	5	0
75	5	0
76	5	0
77	5	0
78	5	0
79	5	0
80	5	0
81	5	0
82	5	1
83	5	1
84	5	0
85	5	1
86	5	0
87	5	0
88	5	1
89	5	0
90	5	0
91	5	1
92	5	1
93	5	1
94	5	1
95	5	0
96	5	0
97	5	1
98	5	1
99	5	0

0	6	0
1	6	0
2	6	0
3	6	0
4	6	0
5	6	0
6	6	0
7	6	0
8	6	1
9	6	1
10	6	1
11	6	1
12	6	1
13	6	1
14	6	1
15	6	1
16	6	1
17	6	1
18	6	1
19	6	1
20	6	1
21	6	1
22	6	1
23	6	1
24	6	0
25	6	1
26	6	0
27	6	1
28	6	1
29	6	0
30	6	1
31	6	1
32	6	0
33	6	0
34	6	0
35	6	0
36	6	1
37	6	1
38	6	0
39	6	0
40	6	0
41	6	1
42	6	1
43	6	1
44	6	0
45	6	0
46	6	0
47	6	0
48	6	0
49	6	0
50	6	0
51	6	1
52	6	1
53	6	1
54	6	1
55	6	1
56	6	1
57	6	1
58	6	0
59	6	0
60	6	0
61	6	0
62	6	0
63	6	0
64	6	1
65	6	1
66	6	1
67	6	0
68	6	0
69	6	0
70	6	0
71	6	0
72	6	1
73	6	0
74	6	0
75	6	0
76	6	0
77	6	0
78	6	0
79	6	0
80	6	0
81	6	0
82	6	0
83	6	0
84	6	0
85	6	0
86	6	0
87	6	0
88	6	0
89	6	0
90	6	1
91	6	1
92	6	1
93	6	1
94	6	1
95	6	1
96	6	1
97	6	1
98	6	0
99	6	0

0	7	0
1	7	0
2	7	0
3	7	1
4	7	1
5	7	0
6	7	0
7	7	0
8	7	1
9	7	0
10	7	1
11	7	1
12	7	1
13	7	1
14	7	1
15	7	1
16	7	1
17	7	1
18	7	1
19	7	1
20	7	1
21	7	1
22	7	1
23	7	1
24	7	0
25	7	0
26	7	1
27	7	1
28	7	1
29	7	1
30	7	1
31	7	1
32	7	0
33	7	0
34	7	0
35	7	0
36	7	1
37	7	1
38	7	0
39	7	0
40	7	0
41	7	1
42	7	1
43	7	0
44	7	1
45	7	0
46	7	0
47	7	1
48	7	0
49	7	0
50	7	0
51	7	1
52	7	0
53	7	0
54	7	1
55	7	1
56	7	1
57	7	1
58	7	0
59	7	1
60	7	0
61	7	0
62	7	0
63	7	1
64	7	1
65	7	1
66	7	0
67	7	0
68	7	0
69	7	1
70	7	0
71	7	0
72	7	0
73	7	0
74	7	0
75	7	0
76	7	0
77	7	0
78	7	0
79	7	0
80	7	0
81	7	0
82	7	0
83	7	0
84	7	0
85	7	0
86	7	0
87	7	1
88	7	0
89	7	0
90	7	1
91	7	1
92	7	1
93	7	1
94	7	1
95	7	1
96	7	1
97	7	0
98	7	1
99	7	1

0	8	0
1	8	0
2	8	0
3	8	1
4	8	1
5	8	0
6	8	0
7	8	1
8	8	1
9	8	1
10	8	1
11	8	1
12	8	1
13	8	0
14	8	0
15	8	1
16	8	1
17	8	1
18	8	1
19	8	1
20	8	1
21	8	1
22	8	1
23	8	1
24	8	1
25	8	0
26	8	1
27	8	1
28	8	1
29	8	1
30	8	1
31	8	1
32	8	0
33	8	0
34	8	0
35	8	0
36	8	0
37	8	0
38	8	1
39	8	0
40	8	0
41	8	1
42	8	1
43	8	0
44	8	1
45	8	0
46	8	0
47	8	0
48	8	0
49	8	1
50	8	1
51	8	1
52	8	0
53	8	1
54	8	1
55	8	1
56	8	1
57	8	1
58	8	1
59	8	1
60	8	0
61	8	0
62	8	0
63	8	1
64	8	1
65	8	1
66	8	0
67	8	0
68	8	1
69	8	0
70	8	0
71	8	0
72	8	0
73	8	0
74	8	0
75	8	0
76	8	0
77	8	0
78	8	0
79	8	0
80	8	0
81	8	0
82	8	0
83	8	0
84	8	0
85	8	0
86	8	0
87	8	0
88	8	0
89	8	0
90	8	1
91	8	1
92	8	1
93	8	1
94	8	1
95	8	1
96	8	1
97	8	1
98	8	0
99	8	0

0	9	1
1	9	1
2	9	1
3	9	1
4	9	0
5	9	0
6	9	1
7	9	1
8	9	0
9	9	0
10	9	0
11	9	0
12	9	0
13	9	1
14	9	1
15	9	1
16	9	1
17	9	1
18	9	0
19	9	0
20	9	1
21	9	0
22	9	0
23	9	0
24	9	0
25	9	1
26	9	1
27	9	1
28	9	1
29	9	1
30	9	1
31	9	1
32	9	0
33	9	0
34	9	0
35	9	0
36	9	1
37	9	0
38	9	0
39	9	0
40	9	0
41	9	1
42	9	1
43	9	0
44	9	0
45	9	0
46	9	1
47	9	1
48	9	0
49	9	1
50	9	1
51	9	0
52	9	0
53	9	0
54	9	1
55	9	1
56	9	1
57	9	1
58	9	0
59	9	1
60	9	1
61	9	1
62	9	1
63	9	1
64	9	1
65	9	1
66	9	1
67	9	0
68	9	1
69	9	1
70	9	1
71	9	0
72	9	0
73	9	0
74	9	0
75	9	1
76	9	1
77	9	0
78	9	0
79	9	0
80	9	0
81	9	0
82	9	0
83	9	0
84	9	0
85	9	0
86	9	0
87	9	0
88	9	1
89	9	1
90	9	1
91	9	0
92	9	0
93	9	0
94	9	1
95	9	1
96	9	1
97	9	1
98	9	0
99	9	0

0	10	0
1	10	1
2	10	1
3	10	1
4	10	1
5	10	1
6	10	1
7	10	0
8	10	0
9	10	0
10	10	0
11	10	0
12	10	0
13	10	1
14	10	0
15	10	0
16	10	0
17	10	0
18	10	0
19	10	1
20	10	1
21	10	0
22	10	0
23	10	1
24	10	1
25	10	1
26	10	0
27	10	1
28	10	0
29	10	0
30	10	0
31	10	0
32	10	0
33	10	0
34	10	0
35	10	0
36	10	0
37	10	0
38	10	0
39	10	0
40	10	0
41	10	0
42	10	1
43	10	1
44	10	1
45	10	1
46	10	1
47	10	1
48	10	1
49	10	1
50	10	1
51	10	0
52	10	1
53	10	1
54	10	1
55	10	1
56	10	1
57	10	1
58	10	0
59	10	0
60	10	0
61	10	1
62	10	1
63	10	1
64	10	1
65	10	0
66	10	0
67	10	0
68	10	1
69	10	1
70	10	1
71	10	0
72	10	1
73	10	0
74	10	0
75	10	0
76	10	1
77	10	0
78	10	0
79	10	1
80	10	1
81	10	1
82	10	0
83	10	0
84	10	0
85	10	0
86	10	0
87	10	0
88	10	1
89	10	1
90	10	0
91	10	0
92	10	0
93	10	0
94	10	0
95	10	0
96	10	1
97	10	0
98	10	1
99	10	1

0	11	0
1	11	1
2	11	1
3	11	1
4	11	1
5	11	1
6	11	0
7	11	0
8	11	0
9	11	0
10	11	0
11	11	0
12	11	0
13	11	0
14	11	0
15	11	0
16	11	0
17	11	0
18	11	1
19	11	1
20	11	1
21	11	1
22	11	1
23	11	1
24	11	1
25	11	0
26	11	0
27	11	0
28	11	0
29	11	0
30	11	0
31	11	0
32	11	0
33	11	0
34	11	0
35	11	0
36	11	0
37	11	0
38	11	0
39	11	1
40	11	1
41	11	0
42	11	1
43	11	1
44	11	1
45	11	1
46	11	1
47	11	1
48	11	0
49	11	0
50	11	1
51	11	1
52	11	1
53	11	1
54	11	1
55	11	1
56	11	1
57	11	0
58	11	0
59	11	0
60	11	0
61	11	0
62	11	0
63	11	1
64	11	1
65	11	0
66	11	0
67	11	0
68	11	0
69	11	1
70	11	1
71	11	1
72	11	0
73	11	1
74	11	0
75	11	0
76	11	0
77	11	1
78	11	0
79	11	0
80	11	0
81	11	1
82	11	1
83	11	0
84	11	0
85	11	1
86	11	1
87	11	0
88	11	0
89	11	0
90	11	0
91	11	0
92	11	0
93	11	0
94	11	0
95	11	0
96	11	1
97	11	1
98	11	1
99	11	1

0	12	0
1	12	1
2	12	1
3	12	1
4	12	1
5	12	1
6	12	1
7	12	0
8	12	0
9	12	0
10	12	0
11	12	0
12	12	0
13	12	0
14	12	0
15	12	1
16	12	0
17	12	0
18	12	1
19	12	1
20	12	1
21	12	1
22	12	1
23	12	1
24	12	1
25	12	0
26	12	0
27	12	0
28	12	0
29	12	1
30	12	1
31	12	1
32	12	1
33	12	0
34	12	0
35	12	0
36	12	0
37	12	0
38	12	0
39	12	1
40	12	1
41	12	0
42	12	0
43	12	1
44	12	1
45	12	1
46	12	1
47	12	1
48	12	0
49	12	0
50	12	0
51	12	1
52	12	1
53	12	1
54	12	1
55	12	1
56	12	1
57	12	1
58	12	0
59	12	0
60	12	0
61	12	0
62	12	0
63	12	0
64	12	0
65	12	0
66	12	0
67	12	0
68	12	0
69	12	1
70	12	1
71	12	1
72	12	0
73	12	0
74	12	0
75	12	0
76	12	1
77	12	1
78	12	0
79	12	0
80	12	0
81	12	1
82	12	0
83	12	0
84	12	0
85	12	1
86	12	1
87	12	0
88	12	0
89	12	0
90	12	0
91	12	0
92	12	0
93	12	0
94	12	0
95	12	0
96	12	0
97	12	0
98	12	0
99	12	1

0	13	1
1	13	1
2	13	1
3	13	1
4	13	0
5	13	0
6	13	0
7	13	0
8	13	0
9	13	1
10	13	1
11	13	0
12	13	0
13	13	0
14	13	0
15	13	0
16	13	0
17	13	1
18	13	1
19	13	1
20	13	1
21	13	0
22	13	0
23	13	0
24	13	1
25	13	0
26	13	0
27	13	0
28	13	0
29	13	1
30	13	1
31	13	1
32	13	1
33	13	0
34	13	0
35	13	0
36	13	0
37	13	0
38	13	0
39	13	1
40	13	1
41	13	0
42	13	0
43	13	0
44	13	1
45	13	1
46	13	1
47	13	1
48	13	1
49	13	0
50	13	0
51	13	0
52	13	0
53	13	1
54	13	0
55	13	1
56	13	1
57	13	1
58	13	1
59	13	0
60	13	1
61	13	0
62	13	0
63	13	0
64	13	0
65	13	0
66	13	0
67	13	0
68	13	0
69	13	1
70	13	1
71	13	1
72	13	1
73	13	0
74	13	0
75	13	0
76	13	0
77	13	1
78	13	0
79	13	0
80	13	0
81	13	0
82	13	0
83	13	0
84	13	0
85	13	1
86	13	0
87	13	1
88	13	1
89	13	0
90	13	0
91	13	0
92	13	0
93	13	0
94	13	0
95	13	0
96	13	1
97	13	0
98	13	0
99	13	0

0	14	1
1	14	1
2	14	1
3	14	1
4	14	0
5	14	0
6	14	0
7	14	0
8	14	0
9	14	1
10	14	1
11	14	1
12	14	0
13	14	0
14	14	0
15	14	0
16	14	0
17	14	1
18	14	1
19	14	1
20	14	1
21	14	1
22	14	0
23	14	0
24	14	1
25	14	1
26	14	1
27	14	0
28	14	0
29	14	0
30	14	0
31	14	0
32	14	1
33	14	1
34	14	1
35	14	0
36	14	0
37	14	1
38	14	1
39	14	1
40	14	1
41	14	0
42	14	0
43	14	1
44	14	1
45	14	1
46	14	1
47	14	0
48	14	1
49	14	1
50	14	1
51	14	1
52	14	0
53	14	0
54	14	0
55	14	0
56	14	1
57	14	1
58	14	1
59	14	0
60	14	0
61	14	0
62	14	0
63	14	0
64	14	0
65	14	0
66	14	0
67	14	0
68	14	0
69	14	1
70	14	1
71	14	1
72	14	1
73	14	0
74	14	0
75	14	0
76	14	0
77	14	0
78	14	0
79	14	1
80	14	0
81	14	0
82	14	1
83	14	0
84	14	0
85	14	1
86	14	1
87	14	1
88	14	1
89	14	0
90	14	1
91	14	0
92	14	0
93	14	1
94	14	0
95	14	0
96	14	1
97	14	0
98	14	0
99	14	1

0	15	1
1	15	1
2	15	1
3	15	1
4	15	1
5	15	1
6	15	1
7	15	1
8	15	1
9	15	1
10	15	0
11	15	0
12	15	0
13	15	0
14	15	0
15	15	0
16	15	0
17	15	0
18	15	0
19	15	1
20	15	1
21	15	1
22	15	1
23	15	1
24	15	1
25	15	1
26	15	1
27	15	0
28	15	0
29	15	0
30	15	0
31	15	0
32	15	1
33	15	0
34	15	0
35	15	0
36	15	0
37	15	1
38	15	1
39	15	1
40	15	0
41	15	0
42	15	1
43	15	1
44	15	0
45	15	1
46	15	1
47	15	0
48	15	0
49	15	0
50	15	0
51	15	0
52	15	0
53	15	0
54	15	0
55	15	0
56	15	1
57	15	1
58	15	1
59	15	1
60	15	0
61	15	1
62	15	1
63	15	0
64	15	0
65	15	0
66	15	0
67	15	0
68	15	0
69	15	0
70	15	1
71	15	0
72	15	0
73	15	0
74	15	0
75	15	0
76	15	0
77	15	0
78	15	1
79	15	1
80	15	0
81	15	1
82	15	1
83	15	0
84	15	0
85	15	0
86	15	0
87	15	1
88	15	0
89	15	1
90	15	1
91	15	1
92	15	1
93	15	1
94	15	0
95	15	0
96	15	1
97	15	0
98	15	0
99	15	1

0	16	1
1	16	1
2	16	1
3	16	1
4	16	1
5	16	0
6	16	0
7	16	1
8	16	0
9	16	0
10	16	1
11	16	1
12	16	0
13	16	0
14	16	0
15	16	0
16	16	1
17	16	0
18	16	0
19	16	0
20	16	0
21	16	1
22	16	1
23	16	1
24	16	1
25	16	1
26	16	0
27	16	0
28	16	0
29	16	0
30	16	0
31	16	0
32	16	0
33	16	0
34	16	0
35	16	1
36	16	0
37	16	1
38	16	1
39	16	0
40	16	1
41	16	0
42	16	0
43	16	0
44	16	1
45	16	0
46	16	1
47	16	1
48	16	0
49	16	0
50	16	0
51	16	0
52	16	0
53	16	0
54	16	0
55	16	1
56	16	1
57	16	1
58	16	0
59	16	0
60	16	0
61	16	0
62	16	0
63	16	0
64	16	0
65	16	0
66	16	0
67	16	0
68	16	1
69	16	1
70	16	1
71	16	0
72	16	0
73	16	0
74	16	1
75	16	0
76	16	0
77	16	0
78	16	0
79	16	1
80	16	1
81	16	0
82	16	0
83	16	0
84	16	0
85	16	0
86	16	1
87	16	0
88	16	0
89	16	0
90	16	1
91	16	1
92	16	0
93	16	0
94	16	0
95	16	0
96	16	1
97	16	0
98	16	0
99	16	1

0	17	1
1	17	1
2	17	1
3	17	1
4	17	1
5	17	1
6	17	1
7	17	1
8	17	1
9	17	0
10	17	0
11	17	0
12	17	0
13	17	0
14	17	0
15	17	0
16	17	0
17	17	1
18	17	1
19	17	0
20	17	0
21	17	1
22	17	0
23	17	1
24	17	0
25	17	0
26	17	0
27	17	0
28	17	0
29	17	0
30	17	0
31	17	0
32	17	0
33	17	0
34	17	0
35	17	0
36	17	0
37	17	1
38	17	1
39	17	1
40	17	1
41	17	0
42	17	0
43	17	0
44	17	0
45	17	1
46	17	1
47	17	1
48	17	0
49	17	0
50	17	0
51	17	0
52	17	0
53	17	0
54	17	0
55	17	0
56	17	0
57	17	0
58	17	0
59	17	0
60	17	0
61	17	1
62	17	0
63	17	0
64	17	0
65	17	0
66	17	0
67	17	0
68	17	0
69	17	1
70	17	1
71	17	0
72	17	0
73	17	1
74	17	1
75	17	1
76	17	1
77	17	1
78	17	0
79	17	0
80	17	1
81	17	1
82	17	1
83	17	1
84	17	0
85	17	0
86	17	1
87	17	0
88	17	0
89	17	0
90	17	1
91	17	1
92	17	1
93	17	1
94	17	0
95	17	0
96	17	1
97	17	0
98	17	0
99	17	1

0	18	0
1	18	1
2	18	1
3	18	0
4	18	1
5	18	1
6	18	0
7	18	1
8	18	0
9	18	0
10	18	0
11	18	0
12	18	0
13	18	0
14	18	1
15	18	0
16	18	0
17	18	1
18	18	0
19	18	0
20	18	0
21	18	1
22	18	0
23	18	0
24	18	0
25	18	0
26	18	0
27	18	0
28	18	0
29	18	0
30	18	0
31	18	0
32	18	0
33	18	0
34	18	0
35	18	0
36	18	0
37	18	1
38	18	1
39	18	1
40	18	1
41	18	1
42	18	0
43	18	1
44	18	0
45	18	1
46	18	1
47	18	0
48	18	0
49	18	0
50	18	0
51	18	1
52	18	0
53	18	0
54	18	0
55	18	0
56	18	1
57	18	1
58	18	1
59	18	0
60	18	1
61	18	1
62	18	0
63	18	0
64	18	0
65	18	0
66	18	0
67	18	0
68	18	0
69	18	0
70	18	0
71	18	0
72	18	0
73	18	0
74	18	0
75	18	1
76	18	1
77	18	0
78	18	0
79	18	1
80	18	1
81	18	1
82	18	0
83	18	1
84	18	0
85	18	0
86	18	1
87	18	1
88	18	1
89	18	0
90	18	1
91	18	1
92	18	0
93	18	0
94	18	0
95	18	1
96	18	1
97	18	0
98	18	0
99	18	0

0	19	0
1	19	1
2	19	1
3	19	1
4	19	0
5	19	1
6	19	0
7	19	0
8	19	1
9	19	1
10	19	0
11	19	0
12	19	0
13	19	0
14	19	1
15	19	0
16	19	0
17	19	0
18	19	0
19	19	1
20	19	1
21	19	1
22	19	0
23	19	0
24	19	0
25	19	0
26	19	0
27	19	0
28	19	0
29	19	0
30	19	0
31	19	0
32	19	0
33	19	0
34	19	0
35	19	0
36	19	0
37	19	1
38	19	0
39	19	1
40	19	0
41	19	0
42	19	0
43	19	1
44	19	1
45	19	1
46	19	1
47	19	1
48	19	1
49	19	1
50	19	0
51	19	0
52	19	0
53	19	0
54	19	1
55	19	1
56	19	0
57	19	0
58	19	0
59	19	0
60	19	0
61	19	0
62	19	0
63	19	0
64	19	0
65	19	0
66	19	0
67	19	0
68	19	0
69	19	0
70	19	0
71	19	0
72	19	0
73	19	0
74	19	0
75	19	1
76	19	0
77	19	0
78	19	0
79	19	0
80	19	0
81	19	0
82	19	0
83	19	0
84	19	0
85	19	1
86	19	1
87	19	1
88	19	1
89	19	1
90	19	1
91	19	1
92	19	1
93	19	1
94	19	1
95	19	1
96	19	0
97	19	1
98	19	1
99	19	0

0	20	1
1	20	1
2	20	0
3	20	0
4	20	0
5	20	1
6	20	0
7	20	0
8	20	0
9	20	0
10	20	0
11	20	0
12	20	0
13	20	0
14	20	0
15	20	0
16	20	0
17	20	1
18	20	1
19	20	1
20	20	1
21	20	1
22	20	0
23	20	0
24	20	0
25	20	0
26	20	0
27	20	0
28	20	0
29	20	1
30	20	1
31	20	1
32	20	1
33	20	0
34	20	0
35	20	0
36	20	0
37	20	1
38	20	0
39	20	1
40	20	1
41	20	0
42	20	0
43	20	1
44	20	1
45	20	1
46	20	1
47	20	1
48	20	1
49	20	1
50	20	1
51	20	1
52	20	0
53	20	0
54	20	0
55	20	0
56	20	0
57	20	1
58	20	1
59	20	1
60	20	1
61	20	0
62	20	0
63	20	0
64	20	0
65	20	0
66	20	0
67	20	0
68	20	0
69	20	0
70	20	0
71	20	0
72	20	0
73	20	0
74	20	0
75	20	1
76	20	0
77	20	0
78	20	0
79	20	0
80	20	0
81	20	0
82	20	0
83	20	0
84	20	0
85	20	1
86	20	1
87	20	1
88	20	1
89	20	1
90	20	1
91	20	1
92	20	1
93	20	1
94	20	1
95	20	1
96	20	1
97	20	1
98	20	1
99	20	1

0	21	0
1	21	1
2	21	1
3	21	1
4	21	1
5	21	1
6	21	0
7	21	0
8	21	0
9	21	1
10	21	1
11	21	0
12	21	1
13	21	0
14	21	0
15	21	0
16	21	0
17	21	1
18	21	1
19	21	1
20	21	1
21	21	0
22	21	1
23	21	1
24	21	0
25	21	0
26	21	0
27	21	1
28	21	1
29	21	1
30	21	1
31	21	1
32	21	1
33	21	1
34	21	0
35	21	0
36	21	0
37	21	0
38	21	0
39	21	1
40	21	1
41	21	0
42	21	0
43	21	1
44	21	0
45	21	1
46	21	1
47	21	1
48	21	1
49	21	1
50	21	1
51	21	0
52	21	0
53	21	0
54	21	0
55	21	0
56	21	1
57	21	1
58	21	0
59	21	1
60	21	1
61	21	0
62	21	0
63	21	0
64	21	0
65	21	0
66	21	0
67	21	0
68	21	0
69	21	0
70	21	1
71	21	1
72	21	1
73	21	0
74	21	0
75	21	0
76	21	0
77	21	0
78	21	0
79	21	0
80	21	0
81	21	0
82	21	0
83	21	0
84	21	0
85	21	1
86	21	1
87	21	0
88	21	0
89	21	1
90	21	1
91	21	1
92	21	1
93	21	1
94	21	1
95	21	0
96	21	0
97	21	0
98	21	0
99	21	1

0	22	1
1	22	1
2	22	1
3	22	1
4	22	0
5	22	0
6	22	0
7	22	0
8	22	0
9	22	1
10	22	1
11	22	0
12	22	0
13	22	0
14	22	0
15	22	0
16	22	1
17	22	1
18	22	0
19	22	1
20	22	1
21	22	0
22	22	0
23	22	0
24	22	0
25	22	0
26	22	1
27	22	0
28	22	0
29	22	1
30	22	1
31	22	1
32	22	1
33	22	0
34	22	0
35	22	0
36	22	0
37	22	0
38	22	1
39	22	1
40	22	1
41	22	0
42	22	0
43	22	0
44	22	1
45	22	1
46	22	1
47	22	1
48	22	1
49	22	1
50	22	1
51	22	0
52	22	0
53	22	0
54	22	0
55	22	0
56	22	1
57	22	1
58	22	1
59	22	0
60	22	0
61	22	1
62	22	0
63	22	0
64	22	0
65	22	0
66	22	0
67	22	1
68	22	0
69	22	0
70	22	1
71	22	0
72	22	0
73	22	0
74	22	0
75	22	0
76	22	0
77	22	1
78	22	0
79	22	0
80	22	0
81	22	0
82	22	0
83	22	0
84	22	0
85	22	1
86	22	1
87	22	0
88	22	1
89	22	1
90	22	1
91	22	1
92	22	1
93	22	1
94	22	0
95	22	0
96	22	0
97	22	0
98	22	1
99	22	1

0	23	1
1	23	1
2	23	1
3	23	0
4	23	0
5	23	0
6	23	0
7	23	0
8	23	0
9	23	1
10	23	1
11	23	1
12	23	0
13	23	0
14	23	0
15	23	1
16	23	1
17	23	0
18	23	0
19	23	0
20	23	0
21	23	0
22	23	0
23	23	0
24	23	1
25	23	0
26	23	0
27	23	0
28	23	0
29	23	1
30	23	1
31	23	1
32	23	1
33	23	1
34	23	1
35	23	0
36	23	1
37	23	1
38	23	1
39	23	0
40	23	0
41	23	0
42	23	0
43	23	0
44	23	0
45	23	1
46	23	0
47	23	1
48	23	1
49	23	1
50	23	1
51	23	1
52	23	0
53	23	1
54	23	0
55	23	0
56	23	1
57	23	1
58	23	1
59	23	1
60	23	1
61	23	0
62	23	0
63	23	1
64	23	0
65	23	0
66	23	1
67	23	1
68	23	1
69	23	1
70	23	1
71	23	1
72	23	0
73	23	0
74	23	0
75	23	0
76	23	0
77	23	0
78	23	0
79	23	0
80	23	0
81	23	1
82	23	0
83	23	1
84	23	0
85	23	1
86	23	1
87	23	1
88	23	0
89	23	0
90	23	1
91	23	1
92	23	1
93	23	0
94	23	0
95	23	0
96	23	0
97	23	0
98	23	0
99	23	1

0	24	1
1	24	1
2	24	0
3	24	0
4	24	0
5	24	1
6	24	1
7	24	1
8	24	1
9	24	1
10	24	1
11	24	1
12	24	0
13	24	0
14	24	1
15	24	1
16	24	1
17	24	0
18	24	0
19	24	0
20	24	0
21	24	1
22	24	1
23	24	1
24	24	0
25	24	0
26	24	0
27	24	0
28	24	0
29	24	0
30	24	1
31	24	1
32	24	1
33	24	1
34	24	0
35	24	1
36	24	1
37	24	0
38	24	0
39	24	0
40	24	1
41	24	1
42	24	0
43	24	0
44	24	1
45	24	1
46	24	0
47	24	1
48	24	0
49	24	1
50	24	1
51	24	1
52	24	0
53	24	1
54	24	0
55	24	1
56	24	1
57	24	1
58	24	1
59	24	1
60	24	1
61	24	1
62	24	1
63	24	1
64	24	0
65	24	0
66	24	1
67	24	1
68	24	1
69	24	0
70	24	0
71	24	0
72	24	0
73	24	0
74	24	0
75	24	0
76	24	0
77	24	0
78	24	0
79	24	0
80	24	0
81	24	1
82	24	1
83	24	1
84	24	0
85	24	1
86	24	1
87	24	1
88	24	0
89	24	0
90	24	0
91	24	0
92	24	1
93	24	1
94	24	0
95	24	0
96	24	0
97	24	1
98	24	1
99	24	1

0	25	1
1	25	1
2	25	0
3	25	0
4	25	0
5	25	1
6	25	0
7	25	1
8	25	1
9	25	1
10	25	1
11	25	1
12	25	1
13	25	0
14	25	1
15	25	1
16	25	0
17	25	0
18	25	0
19	25	0
20	25	1
21	25	0
22	25	0
23	25	1
24	25	0
25	25	0
26	25	0
27	25	0
28	25	0
29	25	0
30	25	1
31	25	1
32	25	1
33	25	1
34	25	1
35	25	1
36	25	1
37	25	1
38	25	0
39	25	1
40	25	1
41	25	1
42	25	1
43	25	1
44	25	1
45	25	1
46	25	0
47	25	1
48	25	1
49	25	1
50	25	1
51	25	1
52	25	0
53	25	0
54	25	0
55	25	0
56	25	0
57	25	0
58	25	1
59	25	1
60	25	1
61	25	1
62	25	0
63	25	0
64	25	0
65	25	1
66	25	1
67	25	1
68	25	1
69	25	0
70	25	0
71	25	0
72	25	1
73	25	0
74	25	0
75	25	0
76	25	0
77	25	0
78	25	0
79	25	0
80	25	0
81	25	1
82	25	1
83	25	1
84	25	0
85	25	1
86	25	1
87	25	1
88	25	0
89	25	0
90	25	0
91	25	0
92	25	0
93	25	0
94	25	0
95	25	0
96	25	0
97	25	1
98	25	1
99	25	1

0	26	0
1	26	0
2	26	0
3	26	1
4	26	1
5	26	1
6	26	1
7	26	0
8	26	0
9	26	0
10	26	0
11	26	0
12	26	0
13	26	0
14	26	1
15	26	0
16	26	0
17	26	0
18	26	0
19	26	1
20	26	1
21	26	1
22	26	1
23	26	1
24	26	1
25	26	1
26	26	1
27	26	0
28	26	0
29	26	0
30	26	1
31	26	1
32	26	1
33	26	1
34	26	1
35	26	1
36	26	1
37	26	1
38	26	1
39	26	1
40	26	1
41	26	0
42	26	0
43	26	1
44	26	0
45	26	1
46	26	1
47	26	1
48	26	1
49	26	1
50	26	1
51	26	1
52	26	0
53	26	0
54	26	0
55	26	0
56	26	0
57	26	1
58	26	1
59	26	1
60	26	0
61	26	1
62	26	0
63	26	0
64	26	0
65	26	1
66	26	1
67	26	0
68	26	1
69	26	1
70	26	1
71	26	1
72	26	1
73	26	0
74	26	0
75	26	1
76	26	1
77	26	0
78	26	0
79	26	0
80	26	0
81	26	1
82	26	1
83	26	1
84	26	0
85	26	0
86	26	0
87	26	1
88	26	0
89	26	0
90	26	0
91	26	0
92	26	0
93	26	0
94	26	0
95	26	0
96	26	1
97	26	1
98	26	1
99	26	0

0	27	0
1	27	0
2	27	0
3	27	1
4	27	1
5	27	1
6	27	1
7	27	0
8	27	0
9	27	0
10	27	0
11	27	0
12	27	1
13	27	1
14	27	1
15	27	0
16	27	0
17	27	0
18	27	0
19	27	1
20	27	1
21	27	1
22	27	1
23	27	1
24	27	1
25	27	0
26	27	1
27	27	0
28	27	0
29	27	0
30	27	0
31	27	1
32	27	1
33	27	1
34	27	1
35	27	1
36	27	1
37	27	1
38	27	1
39	27	1
40	27	1
41	27	0
42	27	0
43	27	0
44	27	0
45	27	1
46	27	1
47	27	1
48	27	0
49	27	0
50	27	0
51	27	1
52	27	1
53	27	0
54	27	0
55	27	1
56	27	1
57	27	1
58	27	1
59	27	1
60	27	1
61	27	1
62	27	1
63	27	0
64	27	0
65	27	1
66	27	1
67	27	1
68	27	1
69	27	1
70	27	1
71	27	0
72	27	1
73	27	0
74	27	1
75	27	1
76	27	1
77	27	1
78	27	0
79	27	0
80	27	1
81	27	0
82	27	1
83	27	1
84	27	0
85	27	0
86	27	1
87	27	0
88	27	0
89	27	0
90	27	0
91	27	0
92	27	0
93	27	0
94	27	0
95	27	0
96	27	1
97	27	1
98	27	1
99	27	0

0	28	0
1	28	0
2	28	0
3	28	0
4	28	1
5	28	1
6	28	1
7	28	0
8	28	0
9	28	0
10	28	0
11	28	0
12	28	0
13	28	0
14	28	1
15	28	1
16	28	1
17	28	0
18	28	0
19	28	0
20	28	0
21	28	1
22	28	1
23	28	1
24	28	1
25	28	0
26	28	0
27	28	0
28	28	0
29	28	0
30	28	0
31	28	1
32	28	1
33	28	1
34	28	1
35	28	1
36	28	1
37	28	1
38	28	1
39	28	1
40	28	1
41	28	0
42	28	0
43	28	0
44	28	0
45	28	0
46	28	0
47	28	0
48	28	0
49	28	0
50	28	0
51	28	1
52	28	0
53	28	0
54	28	0
55	28	1
56	28	1
57	28	1
58	28	1
59	28	0
60	28	1
61	28	1
62	28	1
63	28	1
64	28	1
65	28	1
66	28	1
67	28	1
68	28	1
69	28	1
70	28	1
71	28	1
72	28	0
73	28	1
74	28	1
75	28	1
76	28	1
77	28	1
78	28	0
79	28	0
80	28	1
81	28	1
82	28	1
83	28	1
84	28	1
85	28	0
86	28	0
87	28	0
88	28	0
89	28	0
90	28	0
91	28	0
92	28	0
93	28	0
94	28	0
95	28	0
96	28	1
97	28	1
98	28	1
99	28	0

0	29	1
1	29	1
2	29	1
3	29	1
4	29	0
5	29	1
6	29	0
7	29	0
8	29	0
9	29	0
10	29	0
11	29	0
12	29	0
13	29	0
14	29	0
15	29	1
16	29	1
17	29	0
18	29	0
19	29	0
20	29	0
21	29	1
22	29	1
23	29	1
24	29	0
25	29	0
26	29	0
27	29	0
28	29	0
29	29	1
30	29	1
31	29	0
32	29	0
33	29	1
34	29	1
35	29	1
36	29	1
37	29	1
38	29	1
39	29	1
40	29	1
41	29	0
42	29	0
43	29	0
44	29	0
45	29	0
46	29	0
47	29	0
48	29	0
49	29	0
50	29	0
51	29	1
52	29	1
53	29	0
54	29	0
55	29	1
56	29	1
57	29	1
58	29	0
59	29	1
60	29	1
61	29	1
62	29	1
63	29	1
64	29	1
65	29	1
66	29	1
67	29	1
68	29	1
69	29	1
70	29	1
71	29	1
72	29	1
73	29	1
74	29	1
75	29	1
76	29	0
77	29	0
78	29	0
79	29	1
80	29	0
81	29	0
82	29	0
83	29	1
84	29	1
85	29	0
86	29	0
87	29	0
88	29	0
89	29	0
90	29	0
91	29	0
92	29	0
93	29	0
94	29	0
95	29	0
96	29	1
97	29	1
98	29	1
99	29	1

0	30	0
1	30	1
2	30	1
3	30	1
4	30	1
5	30	0
6	30	0
7	30	0
8	30	0
9	30	0
10	30	1
11	30	0
12	30	0
13	30	0
14	30	1
15	30	1
16	30	1
17	30	0
18	30	0
19	30	1
20	30	1
21	30	1
22	30	0
23	30	0
24	30	0
25	30	0
26	30	0
27	30	0
28	30	1
29	30	1
30	30	1
31	30	0
32	30	0
33	30	1
34	30	1
35	30	1
36	30	1
37	30	1
38	30	1
39	30	1
40	30	0
41	30	0
42	30	1
43	30	1
44	30	0
45	30	0
46	30	0
47	30	0
48	30	0
49	30	1
50	30	1
51	30	1
52	30	0
53	30	0
54	30	0
55	30	0
56	30	0
57	30	0
58	30	0
59	30	1
60	30	1
61	30	1
62	30	1
63	30	1
64	30	1
65	30	0
66	30	1
67	30	1
68	30	1
69	30	1
70	30	1
71	30	1
72	30	1
73	30	0
74	30	1
75	30	1
76	30	1
77	30	0
78	30	0
79	30	0
80	30	0
81	30	0
82	30	0
83	30	1
84	30	1
85	30	0
86	30	0
87	30	1
88	30	0
89	30	0
90	30	0
91	30	0
92	30	0
93	30	0
94	30	0
95	30	1
96	30	1
97	30	0
98	30	1
99	30	1

0	31	0
1	31	0
2	31	0
3	31	1
4	31	1
5	31	0
6	31	0
7	31	0
8	31	0
9	31	0
10	31	0
11	31	1
12	31	1
13	31	1
14	31	1
15	31	1
16	31	1
17	31	1
18	31	1
19	31	1
20	31	1
21	31	1
22	31	0
23	31	0
24	31	0
25	31	1
26	31	0
27	31	0
28	31	1
29	31	1
30	31	1
31	31	1
32	31	0
33	31	1
34	31	1
35	31	1
36	31	1
37	31	1
38	31	1
39	31	1
40	31	0
41	31	0
42	31	0
43	31	1
44	31	1
45	31	0
46	31	0
47	31	0
48	31	0
49	31	0
50	31	0
51	31	1
52	31	1
53	31	0
54	31	0
55	31	1
56	31	0
57	31	1
58	31	1
59	31	1
60	31	0
61	31	1
62	31	1
63	31	1
64	31	1
65	31	1
66	31	0
67	31	1
68	31	1
69	31	0
70	31	1
71	31	1
72	31	0
73	31	1
74	31	1
75	31	1
76	31	1
77	31	1
78	31	0
79	31	1
80	31	0
81	31	1
82	31	0
83	31	0
84	31	0
85	31	0
86	31	0
87	31	0
88	31	0
89	31	0
90	31	0
91	31	0
92	31	0
93	31	1
94	31	0
95	31	0
96	31	0
97	31	0
98	31	1
99	31	0

0	32	0
1	32	0
2	32	1
3	32	1
4	32	0
5	32	0
6	32	0
7	32	0
8	32	0
9	32	0
10	32	1
11	32	1
12	32	1
13	32	1
14	32	1
15	32	1
16	32	0
17	32	1
18	32	1
19	32	0
20	32	1
21	32	1
22	32	1
23	32	1
24	32	0
25	32	1
26	32	0
27	32	1
28	32	0
29	32	1
30	32	1
31	32	0
32	32	1
33	32	1
34	32	1
35	32	1
36	32	1
37	32	1
38	32	1
39	32	1
40	32	1
41	32	0
42	32	0
43	32	0
44	32	0
45	32	0
46	32	0
47	32	0
48	32	0
49	32	0
50	32	0
51	32	0
52	32	1
53	32	0
54	32	0
55	32	0
56	32	1
57	32	0
58	32	1
59	32	1
60	32	0
61	32	0
62	32	0
63	32	0
64	32	1
65	32	1
66	32	1
67	32	1
68	32	1
69	32	0
70	32	1
71	32	1
72	32	1
73	32	1
74	32	1
75	32	0
76	32	1
77	32	1
78	32	1
79	32	1
80	32	1
81	32	1
82	32	1
83	32	1
84	32	1
85	32	1
86	32	0
87	32	1
88	32	0
89	32	0
90	32	0
91	32	0
92	32	0
93	32	0
94	32	1
95	32	0
96	32	0
97	32	0
98	32	1
99	32	0

0	33	0
1	33	1
2	33	1
3	33	1
4	33	1
5	33	1
6	33	1
7	33	1
8	33	0
9	33	0
10	33	0
11	33	0
12	33	0
13	33	1
14	33	1
15	33	1
16	33	0
17	33	1
18	33	1
19	33	0
20	33	0
21	33	0
22	33	1
23	33	0
24	33	0
25	33	0
26	33	0
27	33	0
28	33	0
29	33	0
30	33	1
31	33	1
32	33	1
33	33	1
34	33	0
35	33	1
36	33	1
37	33	1
38	33	1
39	33	1
40	33	1
41	33	0
42	33	0
43	33	1
44	33	0
45	33	0
46	33	0
47	33	1
48	33	0
49	33	0
50	33	0
51	33	1
52	33	1
53	33	0
54	33	0
55	33	1
56	33	1
57	33	1
58	33	0
59	33	0
60	33	0
61	33	0
62	33	0
63	33	0
64	33	1
65	33	1
66	33	1
67	33	1
68	33	1
69	33	0
70	33	0
71	33	0
72	33	1
73	33	1
74	33	1
75	33	1
76	33	1
77	33	1
78	33	1
79	33	1
80	33	0
81	33	1
82	33	1
83	33	1
84	33	1
85	33	1
86	33	1
87	33	1
88	33	0
89	33	0
90	33	1
91	33	1
92	33	0
93	33	0
94	33	1
95	33	0
96	33	0
97	33	0
98	33	0
99	33	0

0	34	1
1	34	1
2	34	1
3	34	1
4	34	1
5	34	1
6	34	0
7	34	0
8	34	0
9	34	0
10	34	0
11	34	1
12	34	0
13	34	1
14	34	1
15	34	1
16	34	1
17	34	1
18	34	0
19	34	0
20	34	0
21	34	1
22	34	1
23	34	0
24	34	0
25	34	0
26	34	0
27	34	0
28	34	0
29	34	0
30	34	1
31	34	1
32	34	1
33	34	1
34	34	1
35	34	1
36	34	1
37	34	1
38	34	1
39	34	1
40	34	1
41	34	1
42	34	1
43	34	1
44	34	1
45	34	1
46	34	1
47	34	1
48	34	0
49	34	1
50	34	0
51	34	1
52	34	1
53	34	0
54	34	0
55	34	0
56	34	1
57	34	0
58	34	0
59	34	0
60	34	1
61	34	1
62	34	1
63	34	0
64	34	1
65	34	0
66	34	1
67	34	0
68	34	0
69	34	0
70	34	1
71	34	1
72	34	1
73	34	1
74	34	1
75	34	1
76	34	1
77	34	1
78	34	1
79	34	1
80	34	1
81	34	1
82	34	0
83	34	1
84	34	1
85	34	0
86	34	0
87	34	1
88	34	0
89	34	0
90	34	1
91	34	1
92	34	0
93	34	0
94	34	1
95	34	0
96	34	0
97	34	0
98	34	0
99	34	0

0	35	1
1	35	1
2	35	1
3	35	1
4	35	1
5	35	0
6	35	0
7	35	0
8	35	0
9	35	0
10	35	0
11	35	0
12	35	1
13	35	1
14	35	1
15	35	1
16	35	1
17	35	0
18	35	1
19	35	1
20	35	1
21	35	1
22	35	1
23	35	0
24	35	0
25	35	0
26	35	0
27	35	0
28	35	0
29	35	1
30	35	1
31	35	1
32	35	0
33	35	0
34	35	1
35	35	1
36	35	1
37	35	1
38	35	1
39	35	1
40	35	1
41	35	1
42	35	1
43	35	1
44	35	1
45	35	0
46	35	0
47	35	0
48	35	0
49	35	0
50	35	1
51	35	1
52	35	1
53	35	1
54	35	1
55	35	1
56	35	1
57	35	0
58	35	0
59	35	0
60	35	0
61	35	0
62	35	0
63	35	0
64	35	1
65	35	0
66	35	0
67	35	1
68	35	0
69	35	0
70	35	1
71	35	0
72	35	0
73	35	0
74	35	1
75	35	1
76	35	1
77	35	1
78	35	1
79	35	0
80	35	1
81	35	1
82	35	1
83	35	1
84	35	1
85	35	1
86	35	1
87	35	1
88	35	1
89	35	0
90	35	0
91	35	1
92	35	1
93	35	1
94	35	1
95	35	1
96	35	1
97	35	1
98	35	0
99	35	0

0	36	0
1	36	0
2	36	0
3	36	0
4	36	0
5	36	0
6	36	0
7	36	0
8	36	0
9	36	0
10	36	0
11	36	1
12	36	1
13	36	1
14	36	1
15	36	1
16	36	0
17	36	1
18	36	1
19	36	1
20	36	1
21	36	0
22	36	1
23	36	0
24	36	0
25	36	0
26	36	0
27	36	0
28	36	0
29	36	0
30	36	1
31	36	1
32	36	1
33	36	0
34	36	0
35	36	1
36	36	1
37	36	1
38	36	0
39	36	1
40	36	1
41	36	1
42	36	1
43	36	1
44	36	1
45	36	1
46	36	1
47	36	1
48	36	0
49	36	0
50	36	0
51	36	1
52	36	1
53	36	1
54	36	1
55	36	0
56	36	1
57	36	1
58	36	0
59	36	0
60	36	1
61	36	0
62	36	0
63	36	1
64	36	1
65	36	1
66	36	0
67	36	1
68	36	0
69	36	0
70	36	0
71	36	0
72	36	0
73	36	0
74	36	0
75	36	0
76	36	0
77	36	0
78	36	0
79	36	0
80	36	1
81	36	0
82	36	0
83	36	1
84	36	1
85	36	1
86	36	0
87	36	1
88	36	1
89	36	0
90	36	0
91	36	1
92	36	1
93	36	1
94	36	1
95	36	1
96	36	1
97	36	1
98	36	1
99	36	0

0	37	0
1	37	0
2	37	0
3	37	0
4	37	0
5	37	0
6	37	0
7	37	0
8	37	0
9	37	0
10	37	0
11	37	0
12	37	0
13	37	1
14	37	1
15	37	1
16	37	1
17	37	1
18	37	1
19	37	1
20	37	1
21	37	0
22	37	0
23	37	0
24	37	0
25	37	0
26	37	0
27	37	0
28	37	0
29	37	0
30	37	0
31	37	1
32	37	1
33	37	1
34	37	1
35	37	1
36	37	1
37	37	1
38	37	1
39	37	1
40	37	1
41	37	1
42	37	1
43	37	1
44	37	1
45	37	1
46	37	1
47	37	0
48	37	0
49	37	0
50	37	0
51	37	0
52	37	0
53	37	0
54	37	0
55	37	0
56	37	0
57	37	1
58	37	1
59	37	0
60	37	1
61	37	0
62	37	1
63	37	1
64	37	0
65	37	1
66	37	0
67	37	0
68	37	1
69	37	0
70	37	0
71	37	0
72	37	0
73	37	1
74	37	0
75	37	0
76	37	0
77	37	0
78	37	0
79	37	0
80	37	0
81	37	0
82	37	0
83	37	0
84	37	0
85	37	0
86	37	1
87	37	1
88	37	0
89	37	1
90	37	1
91	37	1
92	37	1
93	37	1
94	37	1
95	37	1
96	37	1
97	37	1
98	37	1
99	37	0

0	38	0
1	38	0
2	38	0
3	38	0
4	38	0
5	38	0
6	38	1
7	38	1
8	38	0
9	38	1
10	38	1
11	38	1
12	38	1
13	38	1
14	38	0
15	38	0
16	38	1
17	38	0
18	38	0
19	38	0
20	38	1
21	38	0
22	38	0
23	38	0
24	38	1
25	38	0
26	38	0
27	38	0
28	38	0
29	38	0
30	38	1
31	38	1
32	38	1
33	38	1
34	38	1
35	38	1
36	38	1
37	38	0
38	38	1
39	38	1
40	38	1
41	38	1
42	38	0
43	38	0
44	38	0
45	38	1
46	38	1
47	38	1
48	38	0
49	38	0
50	38	0
51	38	0
52	38	0
53	38	0
54	38	0
55	38	0
56	38	0
57	38	1
58	38	1
59	38	1
60	38	1
61	38	0
62	38	1
63	38	1
64	38	1
65	38	1
66	38	1
67	38	0
68	38	0
69	38	0
70	38	1
71	38	0
72	38	1
73	38	1
74	38	0
75	38	0
76	38	0
77	38	0
78	38	0
79	38	0
80	38	0
81	38	0
82	38	0
83	38	0
84	38	1
85	38	1
86	38	1
87	38	1
88	38	1
89	38	0
90	38	1
91	38	1
92	38	1
93	38	1
94	38	1
95	38	1
96	38	1
97	38	1
98	38	0
99	38	0

0	39	1
1	39	1
2	39	1
3	39	1
4	39	1
5	39	1
6	39	1
7	39	1
8	39	1
9	39	1
10	39	1
11	39	1
12	39	1
13	39	1
14	39	1
15	39	0
16	39	0
17	39	0
18	39	0
19	39	0
20	39	0
21	39	0
22	39	0
23	39	0
24	39	0
25	39	0
26	39	0
27	39	0
28	39	0
29	39	0
30	39	0
31	39	1
32	39	1
33	39	1
34	39	1
35	39	1
36	39	1
37	39	1
38	39	1
39	39	1
40	39	1
41	39	1
42	39	0
43	39	1
44	39	1
45	39	1
46	39	0
47	39	0
48	39	0
49	39	0
50	39	0
51	39	0
52	39	0
53	39	0
54	39	1
55	39	0
56	39	0
57	39	1
58	39	1
59	39	1
60	39	1
61	39	0
62	39	0
63	39	0
64	39	0
65	39	0
66	39	0
67	39	0
68	39	0
69	39	1
70	39	1
71	39	0
72	39	0
73	39	0
74	39	0
75	39	0
76	39	0
77	39	0
78	39	0
79	39	1
80	39	0
81	39	1
82	39	1
83	39	0
84	39	0
85	39	1
86	39	0
87	39	1
88	39	1
89	39	1
90	39	1
91	39	1
92	39	1
93	39	1
94	39	1
95	39	1
96	39	1
97	39	0
98	39	0
99	39	0

0	40	1
1	40	1
2	40	1
3	40	1
4	40	1
5	40	1
6	40	1
7	40	1
8	40	1
9	40	1
10	40	1
11	40	1
12	40	1
13	40	0
14	40	0
15	40	0
16	40	0
17	40	1
18	40	1
19	40	0
20	40	0
21	40	0
22	40	0
23	40	0
24	40	0
25	40	0
26	40	1
27	40	1
28	40	0
29	40	0
30	40	0
31	40	1
32	40	1
33	40	1
34	40	1
35	40	1
36	40	1
37	40	1
38	40	0
39	40	0
40	40	0
41	40	0
42	40	0
43	40	1
44	40	1
45	40	0
46	40	0
47	40	0
48	40	0
49	40	0
50	40	0
51	40	1
52	40	0
53	40	0
54	40	0
55	40	0
56	40	0
57	40	0
58	40	1
59	40	1
60	40	1
61	40	0
62	40	0
63	40	0
64	40	0
65	40	0
66	40	0
67	40	0
68	40	0
69	40	0
70	40	1
71	40	1
72	40	1
73	40	0
74	40	0
75	40	0
76	40	0
77	40	0
78	40	0
79	40	0
80	40	1
81	40	1
82	40	1
83	40	1
84	40	1
85	40	1
86	40	1
87	40	1
88	40	1
89	40	1
90	40	1
91	40	1
92	40	1
93	40	1
94	40	1
95	40	1
96	40	1
97	40	1
98	40	1
99	40	1

0	41	0
1	41	1
2	41	1
3	41	1
4	41	1
5	41	1
6	41	0
7	41	1
8	41	1
9	41	1
10	41	1
11	41	1
12	41	0
13	41	1
14	41	0
15	41	0
16	41	0
17	41	0
18	41	1
19	41	0
20	41	0
21	41	0
22	41	0
23	41	0
24	41	0
25	41	1
26	41	0
27	41	1
28	41	1
29	41	1
30	41	0
31	41	0
32	41	0
33	41	1
34	41	1
35	41	1
36	41	1
37	41	0
38	41	0
39	41	0
40	41	0
41	41	0
42	41	1
43	41	0
44	41	1
45	41	1
46	41	0
47	41	1
48	41	1
49	41	0
50	41	1
51	41	1
52	41	1
53	41	1
54	41	0
55	41	1
56	41	1
57	41	1
58	41	1
59	41	0
60	41	1
61	41	1
62	41	0
63	41	0
64	41	1
65	41	1
66	41	0
67	41	0
68	41	0
69	41	1
70	41	1
71	41	1
72	41	1
73	41	0
74	41	0
75	41	0
76	41	0
77	41	1
78	41	1
79	41	0
80	41	0
81	41	1
82	41	0
83	41	0
84	41	1
85	41	1
86	41	0
87	41	0
88	41	1
89	41	1
90	41	1
91	41	1
92	41	1
93	41	1
94	41	1
95	41	1
96	41	1
97	41	1
98	41	0
99	41	0

0	42	0
1	42	1
2	42	1
3	42	1
4	42	1
5	42	1
6	42	0
7	42	1
8	42	1
9	42	1
10	42	1
11	42	1
12	42	0
13	42	0
14	42	1
15	42	0
16	42	0
17	42	1
18	42	1
19	42	1
20	42	1
21	42	0
22	42	0
23	42	0
24	42	0
25	42	1
26	42	0
27	42	0
28	42	1
29	42	0
30	42	0
31	42	0
32	42	0
33	42	1
34	42	1
35	42	1
36	42	1
37	42	1
38	42	1
39	42	0
40	42	1
41	42	0
42	42	1
43	42	1
44	42	1
45	42	1
46	42	0
47	42	1
48	42	1
49	42	0
50	42	1
51	42	0
52	42	0
53	42	0
54	42	0
55	42	1
56	42	1
57	42	1
58	42	1
59	42	1
60	42	1
61	42	1
62	42	1
63	42	0
64	42	1
65	42	0
66	42	0
67	42	0
68	42	0
69	42	0
70	42	1
71	42	1
72	42	1
73	42	1
74	42	0
75	42	0
76	42	1
77	42	1
78	42	1
79	42	1
80	42	0
81	42	0
82	42	1
83	42	1
84	42	1
85	42	1
86	42	0
87	42	1
88	42	1
89	42	0
90	42	1
91	42	1
92	42	1
93	42	1
94	42	1
95	42	1
96	42	1
97	42	0
98	42	1
99	42	0

0	43	0
1	43	0
2	43	1
3	43	1
4	43	1
5	43	0
6	43	0
7	43	1
8	43	1
9	43	1
10	43	1
11	43	1
12	43	0
13	43	1
14	43	1
15	43	0
16	43	0
17	43	1
18	43	1
19	43	1
20	43	0
21	43	0
22	43	0
23	43	0
24	43	0
25	43	1
26	43	1
27	43	1
28	43	0
29	43	0
30	43	1
31	43	0
32	43	1
33	43	1
34	43	1
35	43	1
36	43	1
37	43	1
38	43	1
39	43	0
40	43	1
41	43	1
42	43	1
43	43	1
44	43	1
45	43	1
46	43	1
47	43	1
48	43	1
49	43	1
50	43	0
51	43	0
52	43	0
53	43	0
54	43	1
55	43	1
56	43	1
57	43	1
58	43	1
59	43	1
60	43	1
61	43	0
62	43	1
63	43	0
64	43	0
65	43	0
66	43	0
67	43	0
68	43	0
69	43	0
70	43	1
71	43	1
72	43	0
73	43	1
74	43	1
75	43	0
76	43	0
77	43	0
78	43	1
79	43	0
80	43	0
81	43	0
82	43	0
83	43	0
84	43	0
85	43	1
86	43	0
87	43	0
88	43	0
89	43	0
90	43	0
91	43	1
92	43	1
93	43	1
94	43	1
95	43	1
96	43	0
97	43	0
98	43	0
99	43	0

0	44	0
1	44	0
2	44	0
3	44	1
4	44	0
5	44	0
6	44	0
7	44	0
8	44	1
9	44	1
10	44	0
11	44	0
12	44	1
13	44	1
14	44	0
15	44	1
16	44	0
17	44	1
18	44	1
19	44	0
20	44	1
21	44	0
22	44	0
23	44	1
24	44	1
25	44	1
26	44	1
27	44	0
28	44	0
29	44	0
30	44	0
31	44	0
32	44	0
33	44	0
34	44	1
35	44	1
36	44	1
37	44	1
38	44	1
39	44	1
40	44	1
41	44	1
42	44	1
43	44	1
44	44	1
45	44	1
46	44	0
47	44	1
48	44	1
49	44	1
50	44	0
51	44	0
52	44	1
53	44	0
54	44	0
55	44	1
56	44	1
57	44	1
58	44	1
59	44	0
60	44	1
61	44	0
62	44	0
63	44	0
64	44	1
65	44	1
66	44	1
67	44	1
68	44	1
69	44	0
70	44	0
71	44	0
72	44	0
73	44	0
74	44	1
75	44	0
76	44	0
77	44	0
78	44	1
79	44	0
80	44	0
81	44	0
82	44	0
83	44	0
84	44	0
85	44	0
86	44	0
87	44	1
88	44	1
89	44	1
90	44	1
91	44	1
92	44	1
93	44	0
94	44	0
95	44	1
96	44	0
97	44	0
98	44	0
99	44	0

0	45	1
1	45	0
2	45	0
3	45	1
4	45	0
5	45	0
6	45	0
7	45	1
8	45	1
9	45	1
10	45	1
11	45	1
12	45	1
13	45	1
14	45	1
15	45	1
16	45	1
17	45	1
18	45	1
19	45	1
20	45	1
21	45	0
22	45	0
23	45	1
24	45	1
25	45	1
26	45	1
27	45	0
28	45	0
29	45	0
30	45	0
31	45	0
32	45	0
33	45	0
34	45	1
35	45	1
36	45	1
37	45	1
38	45	1
39	45	1
40	45	1
41	45	0
42	45	0
43	45	0
44	45	1
45	45	1
46	45	1
47	45	1
48	45	1
49	45	1
50	45	0
51	45	0
52	45	1
53	45	0
54	45	1
55	45	1
56	45	0
57	45	1
58	45	1
59	45	1
60	45	1
61	45	0
62	45	0
63	45	0
64	45	1
65	45	1
66	45	1
67	45	1
68	45	1
69	45	0
70	45	0
71	45	0
72	45	0
73	45	0
74	45	0
75	45	0
76	45	0
77	45	0
78	45	0
79	45	1
80	45	0
81	45	0
82	45	0
83	45	0
84	45	0
85	45	0
86	45	1
87	45	1
88	45	1
89	45	1
90	45	0
91	45	1
92	45	0
93	45	0
94	45	0
95	45	0
96	45	1
97	45	1
98	45	0
99	45	0

0	46	1
1	46	1
2	46	0
3	46	0
4	46	0
5	46	0
6	46	1
7	46	0
8	46	1
9	46	0
10	46	0
11	46	1
12	46	1
13	46	1
14	46	0
15	46	0
16	46	0
17	46	0
18	46	1
19	46	1
20	46	1
21	46	1
22	46	1
23	46	1
24	46	1
25	46	1
26	46	0
27	46	0
28	46	1
29	46	1
30	46	0
31	46	0
32	46	1
33	46	1
34	46	1
35	46	1
36	46	1
37	46	1
38	46	1
39	46	1
40	46	1
41	46	1
42	46	1
43	46	1
44	46	1
45	46	1
46	46	1
47	46	1
48	46	1
49	46	1
50	46	0
51	46	1
52	46	1
53	46	1
54	46	1
55	46	1
56	46	1
57	46	1
58	46	1
59	46	1
60	46	1
61	46	0
62	46	0
63	46	0
64	46	0
65	46	1
66	46	1
67	46	1
68	46	1
69	46	0
70	46	0
71	46	0
72	46	0
73	46	0
74	46	1
75	46	1
76	46	1
77	46	1
78	46	0
79	46	0
80	46	0
81	46	0
82	46	0
83	46	1
84	46	1
85	46	0
86	46	0
87	46	1
88	46	1
89	46	1
90	46	1
91	46	1
92	46	0
93	46	0
94	46	1
95	46	1
96	46	1
97	46	1
98	46	1
99	46	1

0	47	1
1	47	1
2	47	1
3	47	0
4	47	0
5	47	0
6	47	0
7	47	1
8	47	0
9	47	0
10	47	0
11	47	0
12	47	1
13	47	0
14	47	0
15	47	1
16	47	0
17	47	0
18	47	0
19	47	1
20	47	1
21	47	1
22	47	1
23	47	1
24	47	1
25	47	1
26	47	1
27	47	0
28	47	0
29	47	1
30	47	0
31	47	0
32	47	1
33	47	1
34	47	1
35	47	1
36	47	1
37	47	1
38	47	1
39	47	1
40	47	1
41	47	1
42	47	1
43	47	1
44	47	1
45	47	1
46	47	1
47	47	1
48	47	0
49	47	1
50	47	0
51	47	1
52	47	1
53	47	1
54	47	0
55	47	1
56	47	1
57	47	1
58	47	0
59	47	0
60	47	1
61	47	0
62	47	1
63	47	0
64	47	0
65	47	1
66	47	1
67	47	1
68	47	1
69	47	1
70	47	1
71	47	0
72	47	0
73	47	0
74	47	1
75	47	1
76	47	1
77	47	1
78	47	1
79	47	0
80	47	1
81	47	1
82	47	0
83	47	1
84	47	0
85	47	0
86	47	0
87	47	0
88	47	0
89	47	1
90	47	0
91	47	1
92	47	0
93	47	0
94	47	1
95	47	1
96	47	1
97	47	1
98	47	1
99	47	0

0	48	1
1	48	0
2	48	0
3	48	1
4	48	0
5	48	0
6	48	0
7	48	1
8	48	0
9	48	0
10	48	1
11	48	1
12	48	1
13	48	1
14	48	1
15	48	1
16	48	0
17	48	0
18	48	0
19	48	1
20	48	1
21	48	1
22	48	1
23	48	1
24	48	1
25	48	0
26	48	0
27	48	0
28	48	1
29	48	1
30	48	1
31	48	1
32	48	1
33	48	1
34	48	0
35	48	1
36	48	1
37	48	1
38	48	1
39	48	1
40	48	1
41	48	1
42	48	1
43	48	1
44	48	1
45	48	1
46	48	1
47	48	1
48	48	1
49	48	1
50	48	1
51	48	1
52	48	1
53	48	1
54	48	0
55	48	1
56	48	0
57	48	0
58	48	1
59	48	0
60	48	0
61	48	0
62	48	1
63	48	0
64	48	0
65	48	1
66	48	1
67	48	1
68	48	1
69	48	1
70	48	1
71	48	1
72	48	1
73	48	1
74	48	1
75	48	1
76	48	1
77	48	1
78	48	1
79	48	1
80	48	1
81	48	1
82	48	0
83	48	1
84	48	1
85	48	1
86	48	0
87	48	1
88	48	0
89	48	1
90	48	1
91	48	0
92	48	1
93	48	0
94	48	1
95	48	1
96	48	1
97	48	1
98	48	1
99	48	0

0	49	1
1	49	0
2	49	0
3	49	0
4	49	0
5	49	0
6	49	1
7	49	1
8	49	0
9	49	0
10	49	1
11	49	1
12	49	1
13	49	1
14	49	1
15	49	1
16	49	1
17	49	1
18	49	0
19	49	1
20	49	1
21	49	1
22	49	1
23	49	1
24	49	1
25	49	0
26	49	0
27	49	1
28	49	1
29	49	1
30	49	1
31	49	1
32	49	1
33	49	1
34	49	0
35	49	0
36	49	1
37	49	1
38	49	1
39	49	1
40	49	1
41	49	1
42	49	1
43	49	0
44	49	0
45	49	0
46	49	0
47	49	1
48	49	1
49	49	1
50	49	1
51	49	1
52	49	1
53	49	1
54	49	0
55	49	0
56	49	0
57	49	1
58	49	1
59	49	0
60	49	1
61	49	1
62	49	1
63	49	0
64	49	1
65	49	1
66	49	1
67	49	0
68	49	1
69	49	1
70	49	1
71	49	1
72	49	1
73	49	1
74	49	1
75	49	1
76	49	1
77	49	1
78	49	1
79	49	1
80	49	1
81	49	1
82	49	0
83	49	0
84	49	1
85	49	0
86	49	1
87	49	1
88	49	0
89	49	1
90	49	1
91	49	0
92	49	1
93	49	1
94	49	1
95	49	1
96	49	0
97	49	0
98	49	1
99	49	1

0	50	1
1	50	1
2	50	1
3	50	0
4	50	0
5	50	0
6	50	0
7	50	0
8	50	0
9	50	1
10	50	1
11	50	1
12	50	1
13	50	1
14	50	1
15	50	1
16	50	1
17	50	1
18	50	1
19	50	1
20	50	1
21	50	1
22	50	0
23	50	1
24	50	1
25	50	1
26	50	1
27	50	1
28	50	1
29	50	1
30	50	1
31	50	1
32	50	1
33	50	1
34	50	0
35	50	0
36	50	1
37	50	1
38	50	0
39	50	0
40	50	1
41	50	1
42	50	1
43	50	1
44	50	0
45	50	0
46	50	0
47	50	0
48	50	0
49	50	1
50	50	1
51	50	1
52	50	1
53	50	1
54	50	1
55	50	1
56	50	0
57	50	1
58	50	1
59	50	0
60	50	0
61	50	1
62	50	1
63	50	1
64	50	1
65	50	1
66	50	1
67	50	0
68	50	0
69	50	1
70	50	0
71	50	0
72	50	0
73	50	0
74	50	0
75	50	0
76	50	0
77	50	1
78	50	1
79	50	0
80	50	0
81	50	1
82	50	0
83	50	0
84	50	0
85	50	1
86	50	1
87	50	1
88	50	0
89	50	0
90	50	0
91	50	0
92	50	1
93	50	1
94	50	0
95	50	0
96	50	0
97	50	0
98	50	1
99	50	1

0	51	1
1	51	1
2	51	1
3	51	0
4	51	0
5	51	0
6	51	0
7	51	1
8	51	1
9	51	1
10	51	1
11	51	1
12	51	1
13	51	1
14	51	1
15	51	1
16	51	1
17	51	1
18	51	1
19	51	1
20	51	1
21	51	1
22	51	1
23	51	0
24	51	1
25	51	1
26	51	1
27	51	1
28	51	1
29	51	1
30	51	0
31	51	1
32	51	0
33	51	0
34	51	0
35	51	0
36	51	0
37	51	0
38	51	0
39	51	0
40	51	1
41	51	1
42	51	1
43	51	1
44	51	0
45	51	0
46	51	0
47	51	0
48	51	0
49	51	0
50	51	1
51	51	1
52	51	1
53	51	1
54	51	1
55	51	1
56	51	1
57	51	1
58	51	1
59	51	1
60	51	0
61	51	1
62	51	1
63	51	1
64	51	1
65	51	1
66	51	1
67	51	1
68	51	1
69	51	1
70	51	1
71	51	1
72	51	0
73	51	0
74	51	0
75	51	0
76	51	0
77	51	0
78	51	0
79	51	0
80	51	1
81	51	1
82	51	0
83	51	0
84	51	0
85	51	0
86	51	0
87	51	0
88	51	0
89	51	0
90	51	0
91	51	0
92	51	0
93	51	0
94	51	0
95	51	0
96	51	1
97	51	1
98	51	1
99	51	1

0	52	1
1	52	1
2	52	0
3	52	0
4	52	0
5	52	0
6	52	0
7	52	0
8	52	0
9	52	1
10	52	1
11	52	1
12	52	1
13	52	1
14	52	0
15	52	0
16	52	1
17	52	1
18	52	1
19	52	1
20	52	1
21	52	1
22	52	1
23	52	0
24	52	0
25	52	1
26	52	1
27	52	1
28	52	1
29	52	1
30	52	1
31	52	0
32	52	0
33	52	0
34	52	0
35	52	0
36	52	1
37	52	1
38	52	1
39	52	1
40	52	1
41	52	0
42	52	0
43	52	0
44	52	0
45	52	1
46	52	1
47	52	0
48	52	0
49	52	0
50	52	1
51	52	1
52	52	1
53	52	0
54	52	1
55	52	0
56	52	1
57	52	1
58	52	1
59	52	1
60	52	0
61	52	1
62	52	1
63	52	1
64	52	1
65	52	1
66	52	1
67	52	1
68	52	1
69	52	1
70	52	1
71	52	0
72	52	0
73	52	0
74	52	0
75	52	0
76	52	0
77	52	1
78	52	1
79	52	1
80	52	1
81	52	0
82	52	0
83	52	0
84	52	0
85	52	0
86	52	0
87	52	0
88	52	0
89	52	0
90	52	0
91	52	0
92	52	0
93	52	0
94	52	0
95	52	0
96	52	0
97	52	1
98	52	1
99	52	1

0	53	1
1	53	0
2	53	0
3	53	0
4	53	0
5	53	0
6	53	0
7	53	0
8	53	0
9	53	0
10	53	0
11	53	1
12	53	1
13	53	0
14	53	0
15	53	1
16	53	1
17	53	0
18	53	1
19	53	0
20	53	0
21	53	0
22	53	0
23	53	0
24	53	0
25	53	0
26	53	0
27	53	1
28	53	1
29	53	0
30	53	0
31	53	0
32	53	0
33	53	0
34	53	0
35	53	1
36	53	0
37	53	0
38	53	0
39	53	0
40	53	0
41	53	0
42	53	0
43	53	0
44	53	0
45	53	0
46	53	0
47	53	0
48	53	0
49	53	0
50	53	1
51	53	1
52	53	1
53	53	1
54	53	1
55	53	1
56	53	1
57	53	1
58	53	1
59	53	0
60	53	0
61	53	1
62	53	1
63	53	0
64	53	1
65	53	1
66	53	1
67	53	1
68	53	1
69	53	1
70	53	1
71	53	1
72	53	1
73	53	0
74	53	0
75	53	0
76	53	0
77	53	1
78	53	1
79	53	1
80	53	1
81	53	0
82	53	0
83	53	0
84	53	0
85	53	1
86	53	0
87	53	0
88	53	0
89	53	0
90	53	0
91	53	0
92	53	0
93	53	0
94	53	1
95	53	0
96	53	0
97	53	1
98	53	1
99	53	1

0	54	1
1	54	0
2	54	0
3	54	0
4	54	0
5	54	0
6	54	0
7	54	0
8	54	1
9	54	1
10	54	1
11	54	1
12	54	1
13	54	0
14	54	1
15	54	1
16	54	1
17	54	0
18	54	1
19	54	1
20	54	0
21	54	0
22	54	0
23	54	0
24	54	0
25	54	0
26	54	0
27	54	0
28	54	0
29	54	0
30	54	1
31	54	0
32	54	0
33	54	0
34	54	0
35	54	0
36	54	0
37	54	0
38	54	0
39	54	0
40	54	0
41	54	0
42	54	0
43	54	0
44	54	0
45	54	1
46	54	0
47	54	1
48	54	0
49	54	0
50	54	0
51	54	1
52	54	1
53	54	1
54	54	1
55	54	0
56	54	0
57	54	0
58	54	1
59	54	1
60	54	1
61	54	1
62	54	1
63	54	0
64	54	0
65	54	0
66	54	0
67	54	1
68	54	1
69	54	1
70	54	1
71	54	1
72	54	1
73	54	0
74	54	1
75	54	1
76	54	0
77	54	1
78	54	1
79	54	1
80	54	1
81	54	1
82	54	1
83	54	1
84	54	0
85	54	1
86	54	1
87	54	0
88	54	0
89	54	0
90	54	0
91	54	0
92	54	0
93	54	0
94	54	0
95	54	0
96	54	0
97	54	0
98	54	1
99	54	1

0	55	1
1	55	0
2	55	0
3	55	0
4	55	0
5	55	0
6	55	0
7	55	1
8	55	1
9	55	1
10	55	1
11	55	1
12	55	0
13	55	0
14	55	0
15	55	1
16	55	1
17	55	0
18	55	1
19	55	0
20	55	0
21	55	0
22	55	0
23	55	0
24	55	0
25	55	0
26	55	0
27	55	0
28	55	0
29	55	0
30	55	1
31	55	1
32	55	1
33	55	0
34	55	0
35	55	0
36	55	0
37	55	0
38	55	0
39	55	1
40	55	1
41	55	0
42	55	0
43	55	0
44	55	1
45	55	1
46	55	1
47	55	1
48	55	0
49	55	0
50	55	0
51	55	0
52	55	1
53	55	1
54	55	1
55	55	1
56	55	0
57	55	0
58	55	1
59	55	1
60	55	1
61	55	1
62	55	0
63	55	0
64	55	0
65	55	0
66	55	0
67	55	1
68	55	1
69	55	1
70	55	1
71	55	1
72	55	1
73	55	1
74	55	0
75	55	1
76	55	1
77	55	1
78	55	1
79	55	1
80	55	1
81	55	1
82	55	1
83	55	1
84	55	0
85	55	1
86	55	1
87	55	1
88	55	0
89	55	0
90	55	1
91	55	0
92	55	0
93	55	0
94	55	0
95	55	1
96	55	0
97	55	1
98	55	1
99	55	1

0	56	1
1	56	0
2	56	0
3	56	0
4	56	0
5	56	0
6	56	0
7	56	0
8	56	0
9	56	1
10	56	1
11	56	1
12	56	0
13	56	0
14	56	0
15	56	0
16	56	1
17	56	1
18	56	1
19	56	0
20	56	0
21	56	0
22	56	0
23	56	0
24	56	0
25	56	0
26	56	0
27	56	0
28	56	0
29	56	1
30	56	1
31	56	1
32	56	1
33	56	1
34	56	0
35	56	0
36	56	0
37	56	0
38	56	0
39	56	0
40	56	0
41	56	0
42	56	0
43	56	0
44	56	0
45	56	0
46	56	1
47	56	1
48	56	1
49	56	1
50	56	1
51	56	1
52	56	1
53	56	1
54	56	1
55	56	1
56	56	1
57	56	1
58	56	1
59	56	1
60	56	1
61	56	0
62	56	0
63	56	0
64	56	0
65	56	0
66	56	0
67	56	1
68	56	1
69	56	0
70	56	1
71	56	1
72	56	1
73	56	1
74	56	1
75	56	1
76	56	1
77	56	1
78	56	1
79	56	0
80	56	1
81	56	1
82	56	1
83	56	1
84	56	0
85	56	1
86	56	1
87	56	1
88	56	1
89	56	0
90	56	1
91	56	1
92	56	1
93	56	1
94	56	1
95	56	1
96	56	1
97	56	1
98	56	1
99	56	0

0	57	1
1	57	1
2	57	0
3	57	0
4	57	0
5	57	0
6	57	0
7	57	0
8	57	1
9	57	0
10	57	1
11	57	1
12	57	0
13	57	0
14	57	0
15	57	0
16	57	1
17	57	1
18	57	1
19	57	1
20	57	0
21	57	0
22	57	0
23	57	0
24	57	0
25	57	0
26	57	1
27	57	0
28	57	0
29	57	1
30	57	0
31	57	0
32	57	0
33	57	1
34	57	1
35	57	1
36	57	0
37	57	0
38	57	1
39	57	1
40	57	0
41	57	0
42	57	0
43	57	0
44	57	0
45	57	0
46	57	0
47	57	1
48	57	1
49	57	1
50	57	1
51	57	1
52	57	1
53	57	1
54	57	1
55	57	1
56	57	1
57	57	1
58	57	1
59	57	1
60	57	1
61	57	0
62	57	1
63	57	0
64	57	0
65	57	1
66	57	1
67	57	1
68	57	1
69	57	1
70	57	1
71	57	1
72	57	1
73	57	1
74	57	1
75	57	1
76	57	1
77	57	1
78	57	0
79	57	0
80	57	0
81	57	1
82	57	1
83	57	0
84	57	0
85	57	1
86	57	1
87	57	1
88	57	0
89	57	0
90	57	0
91	57	1
92	57	1
93	57	1
94	57	1
95	57	0
96	57	1
97	57	1
98	57	1
99	57	0

0	58	1
1	58	1
2	58	0
3	58	1
4	58	0
5	58	0
6	58	0
7	58	0
8	58	1
9	58	1
10	58	1
11	58	1
12	58	1
13	58	0
14	58	0
15	58	0
16	58	1
17	58	1
18	58	1
19	58	1
20	58	1
21	58	1
22	58	0
23	58	0
24	58	0
25	58	0
26	58	0
27	58	0
28	58	0
29	58	1
30	58	1
31	58	1
32	58	0
33	58	0
34	58	0
35	58	0
36	58	0
37	58	0
38	58	0
39	58	0
40	58	0
41	58	0
42	58	0
43	58	1
44	58	1
45	58	1
46	58	0
47	58	1
48	58	1
49	58	1
50	58	1
51	58	1
52	58	1
53	58	1
54	58	1
55	58	0
56	58	1
57	58	1
58	58	1
59	58	1
60	58	1
61	58	0
62	58	1
63	58	0
64	58	0
65	58	0
66	58	0
67	58	0
68	58	1
69	58	1
70	58	1
71	58	1
72	58	0
73	58	1
74	58	1
75	58	1
76	58	1
77	58	1
78	58	0
79	58	1
80	58	0
81	58	1
82	58	1
83	58	1
84	58	1
85	58	1
86	58	1
87	58	1
88	58	0
89	58	1
90	58	0
91	58	1
92	58	1
93	58	1
94	58	1
95	58	0
96	58	1
97	58	1
98	58	1
99	58	1

0	59	1
1	59	1
2	59	1
3	59	0
4	59	0
5	59	0
6	59	0
7	59	1
8	59	1
9	59	1
10	59	1
11	59	0
12	59	1
13	59	1
14	59	1
15	59	1
16	59	1
17	59	1
18	59	1
19	59	1
20	59	1
21	59	1
22	59	1
23	59	1
24	59	0
25	59	1
26	59	0
27	59	0
28	59	0
29	59	0
30	59	1
31	59	0
32	59	1
33	59	0
34	59	0
35	59	1
36	59	1
37	59	1
38	59	0
39	59	0
40	59	1
41	59	0
42	59	0
43	59	0
44	59	1
45	59	1
46	59	1
47	59	1
48	59	1
49	59	1
50	59	1
51	59	1
52	59	1
53	59	1
54	59	1
55	59	1
56	59	1
57	59	1
58	59	1
59	59	1
60	59	1
61	59	1
62	59	1
63	59	0
64	59	0
65	59	0
66	59	0
67	59	0
68	59	1
69	59	1
70	59	1
71	59	1
72	59	0
73	59	0
74	59	0
75	59	0
76	59	0
77	59	0
78	59	0
79	59	0
80	59	1
81	59	1
82	59	0
83	59	1
84	59	1
85	59	1
86	59	1
87	59	1
88	59	1
89	59	1
90	59	0
91	59	1
92	59	1
93	59	1
94	59	0
95	59	1
96	59	1
97	59	1
98	59	1
99	59	1

0	60	0
1	60	1
2	60	1
3	60	1
4	60	1
5	60	0
6	60	0
7	60	0
8	60	1
9	60	1
10	60	1
11	60	1
12	60	1
13	60	1
14	60	1
15	60	0
16	60	0
17	60	0
18	60	1
19	60	1
20	60	0
21	60	0
22	60	1
23	60	1
24	60	1
25	60	1
26	60	0
27	60	0
28	60	0
29	60	1
30	60	1
31	60	1
32	60	1
33	60	1
34	60	0
35	60	0
36	60	1
37	60	1
38	60	1
39	60	1
40	60	1
41	60	0
42	60	1
43	60	1
44	60	1
45	60	1
46	60	1
47	60	1
48	60	1
49	60	1
50	60	1
51	60	1
52	60	0
53	60	1
54	60	1
55	60	1
56	60	0
57	60	1
58	60	1
59	60	1
60	60	1
61	60	1
62	60	1
63	60	1
64	60	0
65	60	0
66	60	0
67	60	0
68	60	0
69	60	1
70	60	1
71	60	1
72	60	0
73	60	0
74	60	1
75	60	0
76	60	0
77	60	0
78	60	0
79	60	0
80	60	1
81	60	1
82	60	1
83	60	1
84	60	1
85	60	1
86	60	1
87	60	1
88	60	0
89	60	0
90	60	0
91	60	1
92	60	1
93	60	1
94	60	0
95	60	1
96	60	1
97	60	1
98	60	1
99	60	1

0	61	0
1	61	0
2	61	1
3	61	0
4	61	0
5	61	0
6	61	0
7	61	0
8	61	1
9	61	1
10	61	1
11	61	1
12	61	0
13	61	0
14	61	0
15	61	0
16	61	0
17	61	0
18	61	0
19	61	0
20	61	0
21	61	0
22	61	1
23	61	1
24	61	1
25	61	0
26	61	0
27	61	0
28	61	0
29	61	1
30	61	0
31	61	1
32	61	1
33	61	1
34	61	1
35	61	1
36	61	1
37	61	1
38	61	1
39	61	1
40	61	1
41	61	1
42	61	1
43	61	1
44	61	1
45	61	1
46	61	0
47	61	1
48	61	1
49	61	1
50	61	1
51	61	1
52	61	1
53	61	1
54	61	1
55	61	1
56	61	1
57	61	1
58	61	1
59	61	1
60	61	1
61	61	1
62	61	0
63	61	0
64	61	0
65	61	0
66	61	0
67	61	0
68	61	0
69	61	1
70	61	0
71	61	0
72	61	0
73	61	1
74	61	1
75	61	0
76	61	0
77	61	0
78	61	1
79	61	1
80	61	1
81	61	1
82	61	1
83	61	1
84	61	0
85	61	0
86	61	0
87	61	1
88	61	0
89	61	0
90	61	0
91	61	0
92	61	1
93	61	1
94	61	1
95	61	1
96	61	1
97	61	1
98	61	1
99	61	1

0	62	0
1	62	0
2	62	1
3	62	0
4	62	0
5	62	0
6	62	1
7	62	0
8	62	0
9	62	0
10	62	1
11	62	1
12	62	0
13	62	0
14	62	0
15	62	0
16	62	0
17	62	0
18	62	0
19	62	0
20	62	0
21	62	0
22	62	1
23	62	1
24	62	1
25	62	0
26	62	0
27	62	0
28	62	0
29	62	1
30	62	1
31	62	1
32	62	1
33	62	0
34	62	1
35	62	1
36	62	1
37	62	1
38	62	1
39	62	0
40	62	1
41	62	1
42	62	1
43	62	1
44	62	1
45	62	1
46	62	1
47	62	1
48	62	1
49	62	1
50	62	1
51	62	1
52	62	1
53	62	1
54	62	1
55	62	1
56	62	1
57	62	1
58	62	1
59	62	1
60	62	1
61	62	0
62	62	0
63	62	0
64	62	0
65	62	0
66	62	0
67	62	0
68	62	0
69	62	1
70	62	0
71	62	0
72	62	0
73	62	1
74	62	1
75	62	1
76	62	0
77	62	0
78	62	0
79	62	1
80	62	1
81	62	1
82	62	1
83	62	1
84	62	1
85	62	1
86	62	0
87	62	1
88	62	1
89	62	0
90	62	1
91	62	1
92	62	0
93	62	1
94	62	1
95	62	1
96	62	0
97	62	0
98	62	0
99	62	0

0	63	1
1	63	0
2	63	0
3	63	0
4	63	0
5	63	0
6	63	0
7	63	0
8	63	1
9	63	1
10	63	1
11	63	1
12	63	0
13	63	0
14	63	0
15	63	0
16	63	1
17	63	0
18	63	0
19	63	1
20	63	1
21	63	1
22	63	0
23	63	0
24	63	0
25	63	0
26	63	0
27	63	0
28	63	1
29	63	1
30	63	0
31	63	1
32	63	1
33	63	0
34	63	1
35	63	1
36	63	1
37	63	1
38	63	1
39	63	1
40	63	1
41	63	0
42	63	0
43	63	0
44	63	1
45	63	0
46	63	1
47	63	1
48	63	1
49	63	1
50	63	1
51	63	1
52	63	1
53	63	1
54	63	1
55	63	1
56	63	1
57	63	1
58	63	1
59	63	1
60	63	1
61	63	0
62	63	0
63	63	0
64	63	1
65	63	0
66	63	0
67	63	0
68	63	0
69	63	0
70	63	0
71	63	0
72	63	0
73	63	0
74	63	1
75	63	1
76	63	1
77	63	1
78	63	1
79	63	1
80	63	1
81	63	1
82	63	1
83	63	1
84	63	1
85	63	1
86	63	1
87	63	1
88	63	1
89	63	0
90	63	0
91	63	1
92	63	1
93	63	0
94	63	1
95	63	1
96	63	0
97	63	0
98	63	0
99	63	0

0	64	0
1	64	0
2	64	1
3	64	0
4	64	0
5	64	0
6	64	0
7	64	0
8	64	1
9	64	1
10	64	1
11	64	1
12	64	1
13	64	1
14	64	0
15	64	0
16	64	0
17	64	0
18	64	0
19	64	0
20	64	0
21	64	0
22	64	1
23	64	1
24	64	0
25	64	0
26	64	1
27	64	1
28	64	1
29	64	1
30	64	1
31	64	1
32	64	1
33	64	1
34	64	1
35	64	1
36	64	1
37	64	0
38	64	1
39	64	0
40	64	0
41	64	1
42	64	0
43	64	1
44	64	0
45	64	0
46	64	0
47	64	1
48	64	1
49	64	1
50	64	1
51	64	1
52	64	1
53	64	1
54	64	1
55	64	1
56	64	1
57	64	1
58	64	0
59	64	1
60	64	1
61	64	1
62	64	1
63	64	1
64	64	0
65	64	0
66	64	0
67	64	0
68	64	0
69	64	0
70	64	1
71	64	0
72	64	0
73	64	0
74	64	0
75	64	1
76	64	1
77	64	0
78	64	1
79	64	1
80	64	1
81	64	1
82	64	1
83	64	1
84	64	1
85	64	1
86	64	1
87	64	1
88	64	1
89	64	0
90	64	0
91	64	1
92	64	0
93	64	0
94	64	1
95	64	1
96	64	0
97	64	0
98	64	0
99	64	0

0	65	0
1	65	1
2	65	0
3	65	0
4	65	0
5	65	0
6	65	1
7	65	1
8	65	1
9	65	1
10	65	0
11	65	0
12	65	0
13	65	1
14	65	1
15	65	1
16	65	0
17	65	0
18	65	0
19	65	0
20	65	0
21	65	1
22	65	1
23	65	0
24	65	1
25	65	0
26	65	0
27	65	1
28	65	1
29	65	1
30	65	1
31	65	1
32	65	1
33	65	1
34	65	1
35	65	1
36	65	1
37	65	0
38	65	1
39	65	0
40	65	0
41	65	0
42	65	0
43	65	0
44	65	0
45	65	0
46	65	0
47	65	1
48	65	1
49	65	1
50	65	1
51	65	0
52	65	0
53	65	0
54	65	0
55	65	0
56	65	1
57	65	1
58	65	1
59	65	1
60	65	1
61	65	1
62	65	1
63	65	0
64	65	0
65	65	0
66	65	0
67	65	0
68	65	1
69	65	0
70	65	1
71	65	0
72	65	0
73	65	0
74	65	0
75	65	1
76	65	1
77	65	0
78	65	1
79	65	1
80	65	1
81	65	1
82	65	1
83	65	1
84	65	1
85	65	1
86	65	1
87	65	1
88	65	1
89	65	1
90	65	0
91	65	1
92	65	0
93	65	1
94	65	0
95	65	0
96	65	0
97	65	0
98	65	0
99	65	0

0	66	0
1	66	0
2	66	0
3	66	0
4	66	0
5	66	0
6	66	0
7	66	0
8	66	1
9	66	0
10	66	0
11	66	0
12	66	0
13	66	1
14	66	0
15	66	0
16	66	0
17	66	0
18	66	0
19	66	0
20	66	0
21	66	0
22	66	1
23	66	0
24	66	0
25	66	0
26	66	1
27	66	1
28	66	1
29	66	1
30	66	1
31	66	1
32	66	1
33	66	1
34	66	1
35	66	1
36	66	1
37	66	1
38	66	1
39	66	0
40	66	0
41	66	1
42	66	1
43	66	1
44	66	1
45	66	0
46	66	0
47	66	1
48	66	1
49	66	1
50	66	1
51	66	1
52	66	1
53	66	0
54	66	1
55	66	0
56	66	0
57	66	0
58	66	0
59	66	1
60	66	1
61	66	1
62	66	0
63	66	0
64	66	0
65	66	0
66	66	0
67	66	0
68	66	1
69	66	1
70	66	1
71	66	0
72	66	0
73	66	0
74	66	0
75	66	1
76	66	1
77	66	0
78	66	0
79	66	0
80	66	0
81	66	1
82	66	1
83	66	0
84	66	0
85	66	1
86	66	1
87	66	1
88	66	1
89	66	0
90	66	0
91	66	0
92	66	1
93	66	1
94	66	0
95	66	0
96	66	0
97	66	0
98	66	0
99	66	0

0	67	0
1	67	0
2	67	0
3	67	0
4	67	0
5	67	0
6	67	0
7	67	1
8	67	1
9	67	1
10	67	1
11	67	0
12	67	0
13	67	0
14	67	0
15	67	1
16	67	1
17	67	0
18	67	0
19	67	0
20	67	0
21	67	0
22	67	0
23	67	0
24	67	1
25	67	1
26	67	1
27	67	1
28	67	1
29	67	1
30	67	1
31	67	1
32	67	1
33	67	1
34	67	0
35	67	0
36	67	1
37	67	1
38	67	1
39	67	0
40	67	1
41	67	1
42	67	1
43	67	1
44	67	1
45	67	1
46	67	1
47	67	1
48	67	1
49	67	1
50	67	0
51	67	0
52	67	1
53	67	0
54	67	0
55	67	0
56	67	0
57	67	1
58	67	1
59	67	1
60	67	1
61	67	1
62	67	0
63	67	0
64	67	0
65	67	0
66	67	0
67	67	0
68	67	0
69	67	1
70	67	1
71	67	0
72	67	0
73	67	0
74	67	0
75	67	1
76	67	0
77	67	0
78	67	0
79	67	0
80	67	1
81	67	1
82	67	1
83	67	0
84	67	0
85	67	1
86	67	1
87	67	1
88	67	1
89	67	0
90	67	0
91	67	1
92	67	0
93	67	0
94	67	0
95	67	0
96	67	0
97	67	0
98	67	0
99	67	0

0	68	0
1	68	0
2	68	0
3	68	0
4	68	0
5	68	0
6	68	0
7	68	0
8	68	0
9	68	1
10	68	1
11	68	0
12	68	0
13	68	0
14	68	1
15	68	1
16	68	0
17	68	0
18	68	0
19	68	0
20	68	0
21	68	0
22	68	1
23	68	1
24	68	1
25	68	1
26	68	1
27	68	1
28	68	1
29	68	1
30	68	1
31	68	1
32	68	1
33	68	1
34	68	0
35	68	1
36	68	1
37	68	1
38	68	0
39	68	1
40	68	1
41	68	1
42	68	1
43	68	1
44	68	0
45	68	1
46	68	1
47	68	1
48	68	1
49	68	1
50	68	1
51	68	1
52	68	1
53	68	0
54	68	1
55	68	0
56	68	0
57	68	1
58	68	1
59	68	1
60	68	0
61	68	1
62	68	0
63	68	0
64	68	1
65	68	0
66	68	0
67	68	0
68	68	1
69	68	1
70	68	1
71	68	1
72	68	1
73	68	0
74	68	1
75	68	1
76	68	0
77	68	1
78	68	1
79	68	0
80	68	1
81	68	1
82	68	1
83	68	0
84	68	0
85	68	0
86	68	1
87	68	1
88	68	1
89	68	0
90	68	0
91	68	0
92	68	0
93	68	0
94	68	0
95	68	0
96	68	0
97	68	0
98	68	0
99	68	0

0	69	1
1	69	1
2	69	0
3	69	0
4	69	0
5	69	0
6	69	0
7	69	1
8	69	1
9	69	1
10	69	1
11	69	1
12	69	0
13	69	0
14	69	0
15	69	0
16	69	0
17	69	0
18	69	0
19	69	0
20	69	0
21	69	0
22	69	0
23	69	1
24	69	1
25	69	1
26	69	1
27	69	0
28	69	0
29	69	0
30	69	0
31	69	1
32	69	1
33	69	1
34	69	0
35	69	0
36	69	1
37	69	1
38	69	0
39	69	0
40	69	1
41	69	1
42	69	1
43	69	1
44	69	1
45	69	1
46	69	1
47	69	1
48	69	1
49	69	0
50	69	1
51	69	1
52	69	1
53	69	0
54	69	0
55	69	0
56	69	0
57	69	1
58	69	1
59	69	1
60	69	1
61	69	0
62	69	0
63	69	1
64	69	1
65	69	0
66	69	0
67	69	0
68	69	1
69	69	1
70	69	1
71	69	1
72	69	1
73	69	1
74	69	1
75	69	1
76	69	0
77	69	1
78	69	1
79	69	1
80	69	1
81	69	1
82	69	0
83	69	0
84	69	0
85	69	0
86	69	0
87	69	1
88	69	1
89	69	0
90	69	0
91	69	0
92	69	0
93	69	0
94	69	0
95	69	1
96	69	1
97	69	1
98	69	0
99	69	0

0	70	1
1	70	1
2	70	0
3	70	0
4	70	0
5	70	0
6	70	1
7	70	1
8	70	1
9	70	1
10	70	1
11	70	0
12	70	0
13	70	1
14	70	1
15	70	1
16	70	0
17	70	0
18	70	0
19	70	0
20	70	0
21	70	0
22	70	0
23	70	1
24	70	1
25	70	1
26	70	0
27	70	0
28	70	1
29	70	0
30	70	0
31	70	1
32	70	0
33	70	0
34	70	0
35	70	0
36	70	1
37	70	1
38	70	0
39	70	1
40	70	1
41	70	1
42	70	1
43	70	1
44	70	0
45	70	1
46	70	0
47	70	0
48	70	0
49	70	0
50	70	0
51	70	1
52	70	0
53	70	1
54	70	0
55	70	0
56	70	0
57	70	0
58	70	1
59	70	1
60	70	1
61	70	0
62	70	1
63	70	1
64	70	0
65	70	0
66	70	0
67	70	0
68	70	0
69	70	1
70	70	1
71	70	1
72	70	0
73	70	1
74	70	1
75	70	1
76	70	1
77	70	1
78	70	1
79	70	1
80	70	1
81	70	0
82	70	0
83	70	1
84	70	1
85	70	0
86	70	0
87	70	1
88	70	1
89	70	1
90	70	0
91	70	1
92	70	1
93	70	1
94	70	1
95	70	1
96	70	0
97	70	0
98	70	1
99	70	0

0	71	0
1	71	1
2	71	0
3	71	0
4	71	1
5	71	1
6	71	0
7	71	1
8	71	1
9	71	0
10	71	1
11	71	1
12	71	1
13	71	1
14	71	1
15	71	1
16	71	0
17	71	0
18	71	0
19	71	0
20	71	0
21	71	0
22	71	0
23	71	1
24	71	1
25	71	1
26	71	1
27	71	0
28	71	0
29	71	1
30	71	1
31	71	0
32	71	0
33	71	0
34	71	0
35	71	1
36	71	1
37	71	1
38	71	1
39	71	1
40	71	1
41	71	1
42	71	1
43	71	1
44	71	0
45	71	0
46	71	1
47	71	0
48	71	0
49	71	0
50	71	0
51	71	1
52	71	1
53	71	1
54	71	1
55	71	0
56	71	0
57	71	0
58	71	1
59	71	1
60	71	1
61	71	0
62	71	1
63	71	1
64	71	0
65	71	0
66	71	0
67	71	0
68	71	0
69	71	1
70	71	1
71	71	1
72	71	0
73	71	0
74	71	0
75	71	1
76	71	1
77	71	0
78	71	1
79	71	1
80	71	1
81	71	1
82	71	0
83	71	1
84	71	1
85	71	1
86	71	1
87	71	0
88	71	1
89	71	0
90	71	0
91	71	0
92	71	0
93	71	1
94	71	1
95	71	1
96	71	0
97	71	1
98	71	1
99	71	0

0	72	0
1	72	0
2	72	0
3	72	0
4	72	1
5	72	1
6	72	0
7	72	1
8	72	1
9	72	1
10	72	0
11	72	1
12	72	1
13	72	1
14	72	1
15	72	0
16	72	1
17	72	1
18	72	1
19	72	1
20	72	1
21	72	1
22	72	0
23	72	0
24	72	1
25	72	1
26	72	1
27	72	0
28	72	0
29	72	1
30	72	1
31	72	0
32	72	0
33	72	0
34	72	1
35	72	1
36	72	1
37	72	0
38	72	1
39	72	1
40	72	1
41	72	1
42	72	1
43	72	1
44	72	1
45	72	1
46	72	1
47	72	0
48	72	0
49	72	0
50	72	1
51	72	0
52	72	1
53	72	1
54	72	1
55	72	1
56	72	0
57	72	1
58	72	1
59	72	1
60	72	0
61	72	0
62	72	0
63	72	0
64	72	1
65	72	1
66	72	0
67	72	0
68	72	1
69	72	1
70	72	1
71	72	1
72	72	0
73	72	0
74	72	0
75	72	1
76	72	1
77	72	1
78	72	0
79	72	1
80	72	0
81	72	1
82	72	0
83	72	1
84	72	1
85	72	1
86	72	1
87	72	1
88	72	1
89	72	1
90	72	0
91	72	0
92	72	1
93	72	1
94	72	0
95	72	1
96	72	0
97	72	0
98	72	0
99	72	0

0	73	0
1	73	0
2	73	0
3	73	0
4	73	0
5	73	1
6	73	1
7	73	1
8	73	1
9	73	0
10	73	0
11	73	1
12	73	1
13	73	1
14	73	1
15	73	0
16	73	0
17	73	1
18	73	0
19	73	0
20	73	1
21	73	1
22	73	0
23	73	0
24	73	0
25	73	0
26	73	1
27	73	0
28	73	0
29	73	1
30	73	1
31	73	1
32	73	0
33	73	0
34	73	1
35	73	1
36	73	1
37	73	0
38	73	1
39	73	1
40	73	1
41	73	1
42	73	1
43	73	1
44	73	1
45	73	1
46	73	1
47	73	0
48	73	0
49	73	1
50	73	1
51	73	1
52	73	1
53	73	1
54	73	1
55	73	1
56	73	1
57	73	1
58	73	0
59	73	0
60	73	0
61	73	0
62	73	0
63	73	1
64	73	1
65	73	1
66	73	1
67	73	1
68	73	1
69	73	1
70	73	0
71	73	0
72	73	1
73	73	0
74	73	0
75	73	0
76	73	1
77	73	1
78	73	1
79	73	1
80	73	1
81	73	1
82	73	1
83	73	1
84	73	1
85	73	1
86	73	1
87	73	0
88	73	1
89	73	1
90	73	1
91	73	1
92	73	0
93	73	1
94	73	1
95	73	0
96	73	0
97	73	0
98	73	0
99	73	0

0	74	1
1	74	1
2	74	1
3	74	0
4	74	0
5	74	1
6	74	1
7	74	1
8	74	1
9	74	0
10	74	0
11	74	1
12	74	1
13	74	1
14	74	0
15	74	0
16	74	0
17	74	0
18	74	0
19	74	1
20	74	1
21	74	1
22	74	0
23	74	0
24	74	0
25	74	0
26	74	1
27	74	1
28	74	1
29	74	1
30	74	1
31	74	0
32	74	0
33	74	0
34	74	1
35	74	1
36	74	1
37	74	1
38	74	1
39	74	1
40	74	1
41	74	1
42	74	1
43	74	0
44	74	1
45	74	1
46	74	0
47	74	1
48	74	1
49	74	0
50	74	1
51	74	1
52	74	1
53	74	1
54	74	1
55	74	1
56	74	0
57	74	0
58	74	0
59	74	0
60	74	0
61	74	0
62	74	0
63	74	1
64	74	1
65	74	1
66	74	1
67	74	1
68	74	0
69	74	1
70	74	1
71	74	0
72	74	0
73	74	0
74	74	0
75	74	0
76	74	0
77	74	1
78	74	1
79	74	1
80	74	1
81	74	1
82	74	0
83	74	1
84	74	1
85	74	1
86	74	1
87	74	1
88	74	0
89	74	1
90	74	1
91	74	1
92	74	1
93	74	1
94	74	1
95	74	1
96	74	1
97	74	0
98	74	0
99	74	0

0	75	1
1	75	1
2	75	0
3	75	0
4	75	0
5	75	0
6	75	1
7	75	1
8	75	1
9	75	0
10	75	1
11	75	1
12	75	1
13	75	0
14	75	0
15	75	0
16	75	1
17	75	1
18	75	0
19	75	1
20	75	1
21	75	1
22	75	0
23	75	0
24	75	0
25	75	0
26	75	0
27	75	1
28	75	1
29	75	1
30	75	0
31	75	1
32	75	1
33	75	1
34	75	1
35	75	1
36	75	1
37	75	1
38	75	1
39	75	1
40	75	1
41	75	1
42	75	0
43	75	1
44	75	1
45	75	1
46	75	0
47	75	1
48	75	1
49	75	1
50	75	1
51	75	1
52	75	1
53	75	1
54	75	1
55	75	1
56	75	0
57	75	0
58	75	0
59	75	0
60	75	1
61	75	0
62	75	1
63	75	1
64	75	1
65	75	0
66	75	0
67	75	1
68	75	0
69	75	1
70	75	1
71	75	0
72	75	1
73	75	1
74	75	0
75	75	0
76	75	0
77	75	1
78	75	1
79	75	1
80	75	1
81	75	1
82	75	1
83	75	1
84	75	1
85	75	1
86	75	1
87	75	1
88	75	1
89	75	1
90	75	1
91	75	1
92	75	1
93	75	1
94	75	1
95	75	0
96	75	1
97	75	1
98	75	0
99	75	1

0	76	1
1	76	1
2	76	0
3	76	1
4	76	1
5	76	1
6	76	1
7	76	1
8	76	1
9	76	0
10	76	1
11	76	1
12	76	1
13	76	1
14	76	1
15	76	1
16	76	1
17	76	1
18	76	1
19	76	0
20	76	0
21	76	1
22	76	1
23	76	1
24	76	0
25	76	0
26	76	0
27	76	0
28	76	1
29	76	1
30	76	1
31	76	0
32	76	1
33	76	1
34	76	1
35	76	0
36	76	1
37	76	1
38	76	1
39	76	0
40	76	1
41	76	1
42	76	0
43	76	0
44	76	1
45	76	1
46	76	0
47	76	1
48	76	1
49	76	1
50	76	0
51	76	1
52	76	1
53	76	1
54	76	0
55	76	1
56	76	0
57	76	0
58	76	0
59	76	0
60	76	1
61	76	1
62	76	1
63	76	1
64	76	1
65	76	0
66	76	0
67	76	0
68	76	0
69	76	1
70	76	1
71	76	1
72	76	1
73	76	0
74	76	0
75	76	0
76	76	0
77	76	0
78	76	1
79	76	1
80	76	1
81	76	1
82	76	1
83	76	1
84	76	1
85	76	1
86	76	0
87	76	1
88	76	1
89	76	1
90	76	1
91	76	1
92	76	1
93	76	1
94	76	1
95	76	1
96	76	1
97	76	1
98	76	0
99	76	0

0	77	1
1	77	0
2	77	0
3	77	0
4	77	0
5	77	0
6	77	0
7	77	1
8	77	1
9	77	1
10	77	1
11	77	1
12	77	1
13	77	1
14	77	0
15	77	0
16	77	0
17	77	1
18	77	1
19	77	1
20	77	1
21	77	1
22	77	1
23	77	0
24	77	0
25	77	0
26	77	0
27	77	1
28	77	0
29	77	0
30	77	0
31	77	1
32	77	1
33	77	1
34	77	1
35	77	0
36	77	1
37	77	1
38	77	1
39	77	0
40	77	1
41	77	1
42	77	0
43	77	0
44	77	1
45	77	1
46	77	0
47	77	0
48	77	0
49	77	1
50	77	0
51	77	0
52	77	0
53	77	0
54	77	0
55	77	0
56	77	0
57	77	0
58	77	0
59	77	0
60	77	1
61	77	1
62	77	0
63	77	1
64	77	1
65	77	0
66	77	0
67	77	0
68	77	0
69	77	1
70	77	1
71	77	1
72	77	1
73	77	1
74	77	0
75	77	0
76	77	0
77	77	0
78	77	0
79	77	0
80	77	1
81	77	1
82	77	1
83	77	1
84	77	1
85	77	1
86	77	1
87	77	1
88	77	0
89	77	1
90	77	1
91	77	1
92	77	1
93	77	1
94	77	1
95	77	1
96	77	1
97	77	1
98	77	1
99	77	1

0	78	1
1	78	1
2	78	0
3	78	0
4	78	0
5	78	0
6	78	0
7	78	0
8	78	0
9	78	0
10	78	1
11	78	1
12	78	1
13	78	1
14	78	0
15	78	0
16	78	0
17	78	1
18	78	1
19	78	1
20	78	1
21	78	1
22	78	1
23	78	0
24	78	0
25	78	0
26	78	0
27	78	1
28	78	0
29	78	0
30	78	0
31	78	0
32	78	1
33	78	1
34	78	1
35	78	1
36	78	1
37	78	1
38	78	1
39	78	1
40	78	1
41	78	1
42	78	1
43	78	0
44	78	1
45	78	1
46	78	1
47	78	0
48	78	1
49	78	1
50	78	0
51	78	0
52	78	0
53	78	0
54	78	0
55	78	0
56	78	0
57	78	0
58	78	0
59	78	0
60	78	1
61	78	1
62	78	1
63	78	1
64	78	1
65	78	1
66	78	0
67	78	0
68	78	0
69	78	0
70	78	0
71	78	1
72	78	1
73	78	1
74	78	0
75	78	0
76	78	0
77	78	0
78	78	1
79	78	0
80	78	0
81	78	1
82	78	1
83	78	1
84	78	0
85	78	1
86	78	1
87	78	1
88	78	1
89	78	1
90	78	1
91	78	1
92	78	1
93	78	1
94	78	1
95	78	1
96	78	1
97	78	1
98	78	1
99	78	1

0	79	1
1	79	1
2	79	1
3	79	0
4	79	0
5	79	0
6	79	0
7	79	0
8	79	0
9	79	0
10	79	0
11	79	1
12	79	1
13	79	0
14	79	0
15	79	1
16	79	0
17	79	0
18	79	0
19	79	0
20	79	0
21	79	1
22	79	1
23	79	0
24	79	0
25	79	0
26	79	0
27	79	0
28	79	0
29	79	0
30	79	0
31	79	0
32	79	1
33	79	1
34	79	1
35	79	1
36	79	1
37	79	1
38	79	1
39	79	1
40	79	1
41	79	1
42	79	1
43	79	0
44	79	0
45	79	0
46	79	0
47	79	0
48	79	1
49	79	0
50	79	0
51	79	0
52	79	0
53	79	0
54	79	0
55	79	0
56	79	1
57	79	0
58	79	0
59	79	0
60	79	0
61	79	1
62	79	1
63	79	1
64	79	1
65	79	1
66	79	0
67	79	0
68	79	0
69	79	1
70	79	0
71	79	0
72	79	0
73	79	0
74	79	0
75	79	1
76	79	1
77	79	0
78	79	1
79	79	0
80	79	1
81	79	1
82	79	1
83	79	1
84	79	1
85	79	0
86	79	1
87	79	1
88	79	0
89	79	0
90	79	1
91	79	1
92	79	1
93	79	1
94	79	1
95	79	1
96	79	0
97	79	0
98	79	0
99	79	1

0	80	0
1	80	1
2	80	1
3	80	0
4	80	0
5	80	0
6	80	0
7	80	0
8	80	0
9	80	0
10	80	0
11	80	0
12	80	0
13	80	0
14	80	0
15	80	0
16	80	0
17	80	0
18	80	0
19	80	0
20	80	0
21	80	0
22	80	1
23	80	1
24	80	1
25	80	1
26	80	0
27	80	0
28	80	0
29	80	0
30	80	0
31	80	0
32	80	1
33	80	1
34	80	1
35	80	1
36	80	1
37	80	1
38	80	1
39	80	1
40	80	1
41	80	0
42	80	1
43	80	1
44	80	0
45	80	0
46	80	1
47	80	0
48	80	0
49	80	0
50	80	0
51	80	0
52	80	0
53	80	0
54	80	1
55	80	0
56	80	1
57	80	0
58	80	0
59	80	0
60	80	1
61	80	1
62	80	1
63	80	1
64	80	1
65	80	1
66	80	0
67	80	0
68	80	0
69	80	0
70	80	0
71	80	0
72	80	1
73	80	0
74	80	0
75	80	1
76	80	1
77	80	1
78	80	1
79	80	1
80	80	1
81	80	1
82	80	1
83	80	1
84	80	0
85	80	0
86	80	0
87	80	1
88	80	0
89	80	0
90	80	1
91	80	1
92	80	1
93	80	1
94	80	1
95	80	1
96	80	0
97	80	0
98	80	0
99	80	1

0	81	0
1	81	0
2	81	1
3	81	1
4	81	0
5	81	0
6	81	0
7	81	0
8	81	1
9	81	1
10	81	0
11	81	0
12	81	0
13	81	1
14	81	1
15	81	0
16	81	0
17	81	0
18	81	0
19	81	0
20	81	0
21	81	1
22	81	0
23	81	1
24	81	1
25	81	1
26	81	1
27	81	1
28	81	0
29	81	0
30	81	0
31	81	1
32	81	1
33	81	1
34	81	0
35	81	0
36	81	1
37	81	1
38	81	1
39	81	1
40	81	1
41	81	1
42	81	1
43	81	1
44	81	1
45	81	1
46	81	1
47	81	1
48	81	1
49	81	1
50	81	0
51	81	0
52	81	0
53	81	1
54	81	0
55	81	0
56	81	0
57	81	0
58	81	1
59	81	1
60	81	1
61	81	1
62	81	1
63	81	1
64	81	1
65	81	1
66	81	0
67	81	0
68	81	0
69	81	0
70	81	1
71	81	0
72	81	1
73	81	0
74	81	1
75	81	1
76	81	1
77	81	1
78	81	1
79	81	1
80	81	1
81	81	1
82	81	0
83	81	1
84	81	1
85	81	1
86	81	1
87	81	0
88	81	0
89	81	0
90	81	0
91	81	1
92	81	1
93	81	1
94	81	1
95	81	0
96	81	0
97	81	0
98	81	0
99	81	1

0	82	0
1	82	0
2	82	1
3	82	1
4	82	0
5	82	0
6	82	1
7	82	0
8	82	1
9	82	1
10	82	0
11	82	0
12	82	0
13	82	1
14	82	1
15	82	0
16	82	1
17	82	0
18	82	0
19	82	0
20	82	1
21	82	1
22	82	1
23	82	1
24	82	1
25	82	0
26	82	1
27	82	0
28	82	0
29	82	0
30	82	0
31	82	0
32	82	1
33	82	1
34	82	1
35	82	0
36	82	0
37	82	1
38	82	1
39	82	1
40	82	1
41	82	1
42	82	1
43	82	1
44	82	1
45	82	1
46	82	1
47	82	1
48	82	0
49	82	1
50	82	1
51	82	0
52	82	0
53	82	0
54	82	0
55	82	0
56	82	0
57	82	0
58	82	0
59	82	0
60	82	0
61	82	1
62	82	0
63	82	1
64	82	1
65	82	1
66	82	1
67	82	0
68	82	1
69	82	0
70	82	0
71	82	0
72	82	1
73	82	0
74	82	1
75	82	1
76	82	1
77	82	1
78	82	1
79	82	0
80	82	1
81	82	1
82	82	1
83	82	1
84	82	1
85	82	1
86	82	1
87	82	1
88	82	0
89	82	0
90	82	0
91	82	0
92	82	1
93	82	1
94	82	1
95	82	1
96	82	1
97	82	1
98	82	0
99	82	1

0	83	0
1	83	0
2	83	1
3	83	0
4	83	0
5	83	0
6	83	1
7	83	1
8	83	0
9	83	0
10	83	0
11	83	0
12	83	1
13	83	1
14	83	1
15	83	1
16	83	1
17	83	1
18	83	1
19	83	1
20	83	1
21	83	1
22	83	1
23	83	1
24	83	0
25	83	0
26	83	0
27	83	0
28	83	1
29	83	0
30	83	0
31	83	0
32	83	1
33	83	1
34	83	0
35	83	0
36	83	1
37	83	1
38	83	1
39	83	1
40	83	1
41	83	1
42	83	1
43	83	0
44	83	0
45	83	1
46	83	1
47	83	1
48	83	1
49	83	1
50	83	1
51	83	0
52	83	0
53	83	0
54	83	0
55	83	0
56	83	0
57	83	0
58	83	0
59	83	0
60	83	0
61	83	0
62	83	0
63	83	1
64	83	1
65	83	1
66	83	1
67	83	1
68	83	1
69	83	1
70	83	1
71	83	1
72	83	1
73	83	1
74	83	1
75	83	0
76	83	1
77	83	1
78	83	1
79	83	1
80	83	1
81	83	1
82	83	1
83	83	1
84	83	1
85	83	1
86	83	1
87	83	1
88	83	0
89	83	0
90	83	0
91	83	1
92	83	1
93	83	1
94	83	1
95	83	1
96	83	1
97	83	0
98	83	0
99	83	1

0	84	0
1	84	0
2	84	0
3	84	0
4	84	0
5	84	0
6	84	1
7	84	1
8	84	0
9	84	0
10	84	0
11	84	0
12	84	0
13	84	1
14	84	1
15	84	0
16	84	1
17	84	0
18	84	1
19	84	1
20	84	1
21	84	1
22	84	0
23	84	1
24	84	0
25	84	0
26	84	0
27	84	1
28	84	1
29	84	0
30	84	0
31	84	0
32	84	0
33	84	0
34	84	0
35	84	1
36	84	1
37	84	1
38	84	1
39	84	1
40	84	1
41	84	1
42	84	1
43	84	1
44	84	0
45	84	1
46	84	0
47	84	0
48	84	1
49	84	1
50	84	1
51	84	0
52	84	0
53	84	1
54	84	0
55	84	0
56	84	1
57	84	0
58	84	0
59	84	0
60	84	1
61	84	0
62	84	0
63	84	1
64	84	1
65	84	1
66	84	1
67	84	1
68	84	1
69	84	1
70	84	1
71	84	1
72	84	1
73	84	1
74	84	1
75	84	0
76	84	0
77	84	0
78	84	0
79	84	0
80	84	1
81	84	1
82	84	1
83	84	0
84	84	1
85	84	1
86	84	0
87	84	0
88	84	1
89	84	1
90	84	1
91	84	1
92	84	1
93	84	1
94	84	1
95	84	1
96	84	1
97	84	0
98	84	0
99	84	0

0	85	0
1	85	0
2	85	0
3	85	0
4	85	0
5	85	0
6	85	0
7	85	0
8	85	1
9	85	1
10	85	1
11	85	1
12	85	0
13	85	0
14	85	1
15	85	1
16	85	1
17	85	0
18	85	1
19	85	1
20	85	1
21	85	1
22	85	0
23	85	1
24	85	1
25	85	0
26	85	0
27	85	1
28	85	1
29	85	1
30	85	0
31	85	0
32	85	0
33	85	0
34	85	0
35	85	1
36	85	1
37	85	1
38	85	1
39	85	1
40	85	1
41	85	1
42	85	1
43	85	1
44	85	0
45	85	1
46	85	0
47	85	0
48	85	1
49	85	1
50	85	1
51	85	0
52	85	0
53	85	1
54	85	1
55	85	1
56	85	1
57	85	1
58	85	1
59	85	0
60	85	0
61	85	0
62	85	0
63	85	1
64	85	1
65	85	0
66	85	1
67	85	1
68	85	1
69	85	1
70	85	1
71	85	0
72	85	0
73	85	1
74	85	1
75	85	1
76	85	0
77	85	0
78	85	0
79	85	0
80	85	0
81	85	1
82	85	1
83	85	1
84	85	1
85	85	1
86	85	0
87	85	0
88	85	1
89	85	1
90	85	1
91	85	1
92	85	1
93	85	1
94	85	1
95	85	1
96	85	1
97	85	0
98	85	0
99	85	0

0	86	1
1	86	1
2	86	1
3	86	1
4	86	0
5	86	0
6	86	0
7	86	0
8	86	0
9	86	1
10	86	1
11	86	1
12	86	1
13	86	0
14	86	1
15	86	0
16	86	0
17	86	0
18	86	1
19	86	1
20	86	1
21	86	1
22	86	0
23	86	1
24	86	1
25	86	0
26	86	0
27	86	0
28	86	0
29	86	0
30	86	1
31	86	0
32	86	1
33	86	0
34	86	0
35	86	0
36	86	1
37	86	1
38	86	1
39	86	0
40	86	0
41	86	1
42	86	1
43	86	1
44	86	0
45	86	0
46	86	0
47	86	0
48	86	1
49	86	1
50	86	1
51	86	1
52	86	1
53	86	1
54	86	1
55	86	1
56	86	0
57	86	0
58	86	0
59	86	0
60	86	0
61	86	1
62	86	0
63	86	0
64	86	1
65	86	0
66	86	1
67	86	1
68	86	1
69	86	1
70	86	1
71	86	1
72	86	1
73	86	1
74	86	1
75	86	1
76	86	1
77	86	0
78	86	0
79	86	1
80	86	1
81	86	1
82	86	0
83	86	0
84	86	0
85	86	1
86	86	1
87	86	0
88	86	1
89	86	1
90	86	1
91	86	1
92	86	1
93	86	0
94	86	0
95	86	1
96	86	1
97	86	0
98	86	0
99	86	0

0	87	1
1	87	1
2	87	1
3	87	0
4	87	0
5	87	0
6	87	0
7	87	1
8	87	1
9	87	1
10	87	1
11	87	1
12	87	0
13	87	0
14	87	1
15	87	1
16	87	1
17	87	1
18	87	1
19	87	0
20	87	1
21	87	0
22	87	1
23	87	1
24	87	0
25	87	0
26	87	0
27	87	0
28	87	1
29	87	1
30	87	0
31	87	0
32	87	1
33	87	1
34	87	0
35	87	0
36	87	1
37	87	1
38	87	1
39	87	0
40	87	0
41	87	0
42	87	0
43	87	0
44	87	1
45	87	0
46	87	0
47	87	1
48	87	1
49	87	0
50	87	1
51	87	1
52	87	1
53	87	1
54	87	0
55	87	0
56	87	1
57	87	1
58	87	0
59	87	0
60	87	0
61	87	1
62	87	0
63	87	0
64	87	0
65	87	0
66	87	0
67	87	0
68	87	0
69	87	0
70	87	1
71	87	1
72	87	1
73	87	1
74	87	0
75	87	1
76	87	0
77	87	0
78	87	1
79	87	1
80	87	1
81	87	1
82	87	0
83	87	0
84	87	0
85	87	1
86	87	1
87	87	1
88	87	1
89	87	1
90	87	1
91	87	1
92	87	1
93	87	0
94	87	1
95	87	1
96	87	0
97	87	0
98	87	0
99	87	1

0	88	1
1	88	1
2	88	1
3	88	0
4	88	0
5	88	1
6	88	0
7	88	0
8	88	1
9	88	0
10	88	1
11	88	1
12	88	1
13	88	0
14	88	1
15	88	1
16	88	1
17	88	1
18	88	1
19	88	1
20	88	0
21	88	0
22	88	1
23	88	1
24	88	1
25	88	1
26	88	0
27	88	0
28	88	0
29	88	0
30	88	0
31	88	0
32	88	0
33	88	0
34	88	0
35	88	1
36	88	1
37	88	1
38	88	1
39	88	1
40	88	0
41	88	0
42	88	0
43	88	0
44	88	0
45	88	0
46	88	0
47	88	0
48	88	1
49	88	0
50	88	1
51	88	0
52	88	1
53	88	1
54	88	1
55	88	0
56	88	0
57	88	1
58	88	0
59	88	0
60	88	0
61	88	0
62	88	0
63	88	0
64	88	0
65	88	0
66	88	0
67	88	0
68	88	0
69	88	0
70	88	1
71	88	1
72	88	0
73	88	1
74	88	0
75	88	0
76	88	1
77	88	1
78	88	1
79	88	1
80	88	1
81	88	1
82	88	0
83	88	0
84	88	0
85	88	1
86	88	1
87	88	1
88	88	1
89	88	1
90	88	0
91	88	0
92	88	1
93	88	0
94	88	1
95	88	0
96	88	0
97	88	0
98	88	0
99	88	1

0	89	1
1	89	1
2	89	1
3	89	0
4	89	1
5	89	1
6	89	1
7	89	0
8	89	1
9	89	0
10	89	1
11	89	0
12	89	0
13	89	0
14	89	1
15	89	0
16	89	1
17	89	1
18	89	1
19	89	0
20	89	0
21	89	0
22	89	1
23	89	1
24	89	1
25	89	1
26	89	0
27	89	0
28	89	0
29	89	0
30	89	0
31	89	0
32	89	0
33	89	0
34	89	0
35	89	1
36	89	1
37	89	1
38	89	1
39	89	0
40	89	0
41	89	0
42	89	1
43	89	0
44	89	0
45	89	0
46	89	1
47	89	1
48	89	1
49	89	1
50	89	1
51	89	0
52	89	1
53	89	1
54	89	1
55	89	1
56	89	0
57	89	0
58	89	0
59	89	0
60	89	0
61	89	0
62	89	0
63	89	1
64	89	0
65	89	0
66	89	1
67	89	1
68	89	1
69	89	0
70	89	0
71	89	0
72	89	1
73	89	1
74	89	0
75	89	1
76	89	1
77	89	1
78	89	1
79	89	1
80	89	1
81	89	0
82	89	0
83	89	0
84	89	0
85	89	0
86	89	0
87	89	1
88	89	0
89	89	0
90	89	0
91	89	0
92	89	0
93	89	0
94	89	0
95	89	0
96	89	0
97	89	1
98	89	1
99	89	1

0	90	1
1	90	1
2	90	0
3	90	0
4	90	0
5	90	1
6	90	1
7	90	0
8	90	0
9	90	0
10	90	0
11	90	0
12	90	0
13	90	0
14	90	0
15	90	0
16	90	0
17	90	0
18	90	0
19	90	0
20	90	1
21	90	1
22	90	1
23	90	1
24	90	1
25	90	1
26	90	1
27	90	0
28	90	0
29	90	1
30	90	1
31	90	1
32	90	1
33	90	0
34	90	0
35	90	1
36	90	1
37	90	0
38	90	0
39	90	0
40	90	0
41	90	0
42	90	0
43	90	0
44	90	1
45	90	0
46	90	0
47	90	0
48	90	0
49	90	0
50	90	1
51	90	1
52	90	1
53	90	0
54	90	1
55	90	1
56	90	1
57	90	1
58	90	1
59	90	0
60	90	0
61	90	0
62	90	0
63	90	1
64	90	1
65	90	1
66	90	1
67	90	1
68	90	1
69	90	1
70	90	1
71	90	0
72	90	1
73	90	1
74	90	0
75	90	1
76	90	1
77	90	1
78	90	0
79	90	1
80	90	0
81	90	0
82	90	0
83	90	0
84	90	0
85	90	1
86	90	1
87	90	1
88	90	1
89	90	1
90	90	1
91	90	0
92	90	0
93	90	0
94	90	0
95	90	0
96	90	0
97	90	0
98	90	0
99	90	0

0	91	0
1	91	1
2	91	0
3	91	1
4	91	1
5	91	1
6	91	1
7	91	1
8	91	0
9	91	0
10	91	0
11	91	0
12	91	0
13	91	0
14	91	0
15	91	1
16	91	0
17	91	0
18	91	0
19	91	0
20	91	1
21	91	1
22	91	1
23	91	1
24	91	1
25	91	1
26	91	1
27	91	0
28	91	0
29	91	1
30	91	1
31	91	1
32	91	0
33	91	1
34	91	1
35	91	0
36	91	1
37	91	0
38	91	0
39	91	0
40	91	0
41	91	0
42	91	1
43	91	1
44	91	1
45	91	0
46	91	0
47	91	0
48	91	0
49	91	0
50	91	0
51	91	0
52	91	1
53	91	1
54	91	1
55	91	1
56	91	1
57	91	1
58	91	1
59	91	0
60	91	0
61	91	0
62	91	0
63	91	1
64	91	1
65	91	1
66	91	1
67	91	0
68	91	1
69	91	0
70	91	0
71	91	1
72	91	1
73	91	1
74	91	1
75	91	1
76	91	0
77	91	0
78	91	0
79	91	1
80	91	1
81	91	1
82	91	0
83	91	0
84	91	0
85	91	0
86	91	0
87	91	0
88	91	1
89	91	1
90	91	0
91	91	0
92	91	0
93	91	0
94	91	0
95	91	0
96	91	0
97	91	0
98	91	0
99	91	0

0	92	1
1	92	1
2	92	1
3	92	1
4	92	0
5	92	0
6	92	0
7	92	1
8	92	0
9	92	0
10	92	0
11	92	0
12	92	0
13	92	0
14	92	0
15	92	1
16	92	1
17	92	0
18	92	0
19	92	0
20	92	0
21	92	0
22	92	1
23	92	1
24	92	1
25	92	0
26	92	0
27	92	1
28	92	1
29	92	1
30	92	1
31	92	1
32	92	1
33	92	1
34	92	1
35	92	1
36	92	1
37	92	1
38	92	1
39	92	0
40	92	0
41	92	0
42	92	1
43	92	1
44	92	1
45	92	0
46	92	0
47	92	0
48	92	0
49	92	1
50	92	0
51	92	1
52	92	1
53	92	1
54	92	1
55	92	1
56	92	1
57	92	1
58	92	1
59	92	1
60	92	0
61	92	0
62	92	0
63	92	0
64	92	1
65	92	1
66	92	1
67	92	0
68	92	0
69	92	0
70	92	0
71	92	1
72	92	1
73	92	1
74	92	1
75	92	1
76	92	1
77	92	1
78	92	1
79	92	1
80	92	1
81	92	1
82	92	0
83	92	0
84	92	0
85	92	0
86	92	1
87	92	1
88	92	1
89	92	1
90	92	0
91	92	0
92	92	0
93	92	0
94	92	0
95	92	0
96	92	0
97	92	0
98	92	0
99	92	1

0	93	1
1	93	1
2	93	1
3	93	0
4	93	0
5	93	0
6	93	0
7	93	1
8	93	1
9	93	0
10	93	0
11	93	0
12	93	0
13	93	0
14	93	0
15	93	1
16	93	0
17	93	0
18	93	0
19	93	0
20	93	0
21	93	1
22	93	1
23	93	0
24	93	1
25	93	0
26	93	1
27	93	1
28	93	1
29	93	0
30	93	0
31	93	0
32	93	0
33	93	1
34	93	1
35	93	1
36	93	1
37	93	1
38	93	1
39	93	1
40	93	1
41	93	1
42	93	1
43	93	1
44	93	1
45	93	0
46	93	0
47	93	0
48	93	0
49	93	1
50	93	0
51	93	0
52	93	1
53	93	1
54	93	0
55	93	0
56	93	1
57	93	1
58	93	1
59	93	1
60	93	1
61	93	0
62	93	1
63	93	1
64	93	1
65	93	1
66	93	1
67	93	0
68	93	0
69	93	0
70	93	0
71	93	0
72	93	1
73	93	1
74	93	1
75	93	1
76	93	1
77	93	1
78	93	1
79	93	1
80	93	0
81	93	0
82	93	0
83	93	1
84	93	0
85	93	0
86	93	0
87	93	0
88	93	0
89	93	1
90	93	1
91	93	0
92	93	0
93	93	0
94	93	0
95	93	0
96	93	1
97	93	0
98	93	1
99	93	1

0	94	1
1	94	1
2	94	1
3	94	1
4	94	0
5	94	0
6	94	0
7	94	0
8	94	1
9	94	0
10	94	0
11	94	0
12	94	0
13	94	0
14	94	0
15	94	0
16	94	0
17	94	0
18	94	0
19	94	0
20	94	0
21	94	1
22	94	1
23	94	1
24	94	1
25	94	1
26	94	0
27	94	0
28	94	0
29	94	0
30	94	1
31	94	1
32	94	0
33	94	0
34	94	0
35	94	1
36	94	1
37	94	1
38	94	1
39	94	0
40	94	1
41	94	0
42	94	0
43	94	0
44	94	0
45	94	0
46	94	0
47	94	1
48	94	0
49	94	0
50	94	0
51	94	0
52	94	1
53	94	1
54	94	0
55	94	0
56	94	1
57	94	1
58	94	1
59	94	0
60	94	1
61	94	0
62	94	1
63	94	1
64	94	1
65	94	1
66	94	0
67	94	0
68	94	0
69	94	0
70	94	0
71	94	0
72	94	1
73	94	1
74	94	1
75	94	1
76	94	1
77	94	1
78	94	1
79	94	1
80	94	0
81	94	0
82	94	1
83	94	1
84	94	1
85	94	1
86	94	0
87	94	0
88	94	0
89	94	1
90	94	1
91	94	0
92	94	0
93	94	0
94	94	1
95	94	1
96	94	1
97	94	1
98	94	1
99	94	1

0	95	1
1	95	1
2	95	0
3	95	1
4	95	1
5	95	0
6	95	0
7	95	0
8	95	0
9	95	0
10	95	0
11	95	0
12	95	1
13	95	0
14	95	0
15	95	0
16	95	0
17	95	0
18	95	0
19	95	0
20	95	1
21	95	1
22	95	1
23	95	1
24	95	1
25	95	1
26	95	0
27	95	0
28	95	0
29	95	1
30	95	1
31	95	1
32	95	1
33	95	0
34	95	0
35	95	1
36	95	1
37	95	1
38	95	0
39	95	0
40	95	1
41	95	0
42	95	0
43	95	0
44	95	0
45	95	0
46	95	1
47	95	1
48	95	1
49	95	0
50	95	0
51	95	0
52	95	1
53	95	0
54	95	0
55	95	0
56	95	1
57	95	1
58	95	1
59	95	1
60	95	1
61	95	1
62	95	0
63	95	0
64	95	1
65	95	1
66	95	0
67	95	0
68	95	0
69	95	0
70	95	0
71	95	0
72	95	0
73	95	1
74	95	1
75	95	1
76	95	1
77	95	1
78	95	1
79	95	1
80	95	1
81	95	1
82	95	1
83	95	1
84	95	1
85	95	1
86	95	1
87	95	1
88	95	1
89	95	1
90	95	0
91	95	0
92	95	0
93	95	0
94	95	1
95	95	1
96	95	1
97	95	1
98	95	1
99	95	1

0	96	1
1	96	1
2	96	0
3	96	1
4	96	1
5	96	0
6	96	0
7	96	0
8	96	0
9	96	0
10	96	0
11	96	0
12	96	1
13	96	0
14	96	0
15	96	0
16	96	0
17	96	0
18	96	0
19	96	0
20	96	0
21	96	0
22	96	1
23	96	0
24	96	1
25	96	1
26	96	0
27	96	0
28	96	0
29	96	0
30	96	0
31	96	1
32	96	1
33	96	0
34	96	0
35	96	0
36	96	1
37	96	0
38	96	0
39	96	0
40	96	0
41	96	1
42	96	0
43	96	0
44	96	0
45	96	0
46	96	1
47	96	1
48	96	1
49	96	1
50	96	1
51	96	1
52	96	1
53	96	1
54	96	1
55	96	0
56	96	1
57	96	1
58	96	1
59	96	1
60	96	1
61	96	1
62	96	0
63	96	0
64	96	0
65	96	0
66	96	0
67	96	0
68	96	0
69	96	0
70	96	0
71	96	0
72	96	0
73	96	1
74	96	1
75	96	1
76	96	1
77	96	1
78	96	1
79	96	1
80	96	1
81	96	1
82	96	1
83	96	1
84	96	1
85	96	1
86	96	1
87	96	1
88	96	0
89	96	0
90	96	0
91	96	0
92	96	0
93	96	0
94	96	0
95	96	0
96	96	1
97	96	1
98	96	1
99	96	1

0	97	1
1	97	1
2	97	1
3	97	1
4	97	0
5	97	1
6	97	0
7	97	0
8	97	0
9	97	0
10	97	0
11	97	0
12	97	1
13	97	0
14	97	0
15	97	0
16	97	0
17	97	0
18	97	0
19	97	1
20	97	0
21	97	0
22	97	0
23	97	0
24	97	1
25	97	1
26	97	1
27	97	1
28	97	0
29	97	0
30	97	0
31	97	1
32	97	1
33	97	0
34	97	1
35	97	1
36	97	1
37	97	1
38	97	0
39	97	0
40	97	0
41	97	0
42	97	0
43	97	0
44	97	0
45	97	1
46	97	1
47	97	1
48	97	1
49	97	1
50	97	1
51	97	0
52	97	1
53	97	1
54	97	1
55	97	0
56	97	1
57	97	1
58	97	1
59	97	1
60	97	1
61	97	1
62	97	1
63	97	1
64	97	1
65	97	0
66	97	0
67	97	0
68	97	0
69	97	0
70	97	0
71	97	0
72	97	0
73	97	1
74	97	1
75	97	0
76	97	0
77	97	1
78	97	1
79	97	1
80	97	1
81	97	1
82	97	1
83	97	1
84	97	1
85	97	1
86	97	1
87	97	0
88	97	0
89	97	0
90	97	0
91	97	0
92	97	0
93	97	0
94	97	0
95	97	0
96	97	1
97	97	1
98	97	1
99	97	1

0	98	1
1	98	1
2	98	0
3	98	0
4	98	0
5	98	0
6	98	0
7	98	0
8	98	0
9	98	0
10	98	0
11	98	0
12	98	0
13	98	0
14	98	0
15	98	0
16	98	0
17	98	0
18	98	1
19	98	1
20	98	0
21	98	0
22	98	0
23	98	0
24	98	1
25	98	1
26	98	1
27	98	1
28	98	1
29	98	1
30	98	1
31	98	1
32	98	1
33	98	0
34	98	0
35	98	1
36	98	1
37	98	0
38	98	0
39	98	0
40	98	0
41	98	1
42	98	0
43	98	0
44	98	0
45	98	1
46	98	1
47	98	1
48	98	1
49	98	1
50	98	1
51	98	1
52	98	0
53	98	1
54	98	1
55	98	1
56	98	1
57	98	1
58	98	1
59	98	1
60	98	0
61	98	0
62	98	0
63	98	1
64	98	0
65	98	0
66	98	0
67	98	1
68	98	1
69	98	0
70	98	0
71	98	0
72	98	1
73	98	1
74	98	1
75	98	1
76	98	0
77	98	1
78	98	1
79	98	0
80	98	1
81	98	1
82	98	1
83	98	1
84	98	1
85	98	1
86	98	1
87	98	0
88	98	0
89	98	0
90	98	0
91	98	0
92	98	0
93	98	0
94	98	0
95	98	1
96	98	1
97	98	1
98	98	1
99	98	1

0	99	1
1	99	1
2	99	1
3	99	0
4	99	0
5	99	0
6	99	1
7	99	0
8	99	0
9	99	0
10	99	0
11	99	0
12	99	0
13	99	0
14	99	1
15	99	0
16	99	1
17	99	1
18	99	1
19	99	1
20	99	1
21	99	0
22	99	0
23	99	0
24	99	0
25	99	1
26	99	1
27	99	1
28	99	1
29	99	1
30	99	1
31	99	1
32	99	1
33	99	1
34	99	1
35	99	1
36	99	0
37	99	0
38	99	0
39	99	0
40	99	0
41	99	0
42	99	0
43	99	0
44	99	1
45	99	1
46	99	1
47	99	1
48	99	1
49	99	1
50	99	1
51	99	1
52	99	1
53	99	1
54	99	0
55	99	1
56	99	1
57	99	0
58	99	0
59	99	0
60	99	0
61	99	0
62	99	0
63	99	0
64	99	1
65	99	0
66	99	0
67	99	1
68	99	0
69	99	0
70	99	0
71	99	1
72	99	1
73	99	1
74	99	1
75	99	1
76	99	0
77	99	0
78	99	1
79	99	1
80	99	0
81	99	1
82	99	1
83	99	1
84	99	1
85	99	0
86	99	1
87	99	0
88	99	1
89	99	1
90	99	0
91	99	0
92	99	0
93	99	0
94	99	1
95	99	1
96	99	1
97	99	1
98	99	1
99	99	1

